Adder.vcd
$version Generated by VerilatedVcd $end
$date Thu Jun 20 11:04:22 2019
 $end
$timescale   1ns $end

 $scope module TOP $end
  $var wire  1 # clock $end
  $var wire  1 % io_a $end
  $var wire  1 & io_b $end
  $var wire  1 ' io_cin $end
  $var wire  1 ) io_cout $end
  $var wire  1 ( io_s $end
  $var wire  1 $ reset $end
  $scope module Adder $end
   $var wire  1 # clock $end
   $var wire  1 % io_a $end
   $var wire  1 & io_b $end
   $var wire  1 ' io_cin $end
   $var wire  1 ) io_cout $end
   $var wire  1 ( io_s $end
   $var wire  1 $ reset $end
  $upscope $end
 $upscope $end
$enddefinitions $end


#0
0#
0$
0%
0&
0'
0(
0)
#1
1'
1(
#2
1&
0'
#3
1'
0(
1)
#4
1%
0&
0'
1(
0)
#5
1'
0(
1)
#6
1&
0'
#7
1'
1(
#8
0%
0&
0'
0(
0)
#9
1'
1(
#10
1&
0'
#11
1'
0(
1)
#12
1%
0&
0'
1(
0)
#13
1'
0(
1)
#14
1&
0'
#15
1'
1(
#16
0%
0&
0'
0(
0)
#17
1'
1(
#18
1&
0'
#19
1'
0(
1)
#20
1%
0&
0'
1(
0)
#21
1'
0(
1)
#22
1&
0'
#23
1'
1(
#24
0%
0&
0'
0(
0)
#25
1'
1(
#26
1&
0'
#27
1'
0(
1)
#28
1%
0&
0'
1(
0)
#29
1'
0(
1)
#30
1&
0'
#31
1'
1(
#32
0%
0&
0'
0(
0)
#33
1'
1(
#34
1&
0'
#35
1'
0(
1)
#36
1%
0&
0'
1(
0)
#37
1'
0(
1)
#38
1&
0'
#39
1'
1(
#40
0%
0&
0'
0(
0)
#41
1'
1(
#42
1&
0'
#43
1'
0(
1)
#44
1%
0&
0'
1(
0)
#45
1'
0(
1)
#46
1&
0'
#47
1'
1(
#48
0%
0&
0'
0(
0)
#49
1'
1(
#50
1&
0'
#51
1'
0(
1)
#52
1%
0&
0'
1(
0)
#53
1'
0(
1)
#54
1&
0'
#55
1'
1(
#56
0%
0&
0'
0(
0)
#57
1'
1(
#58
1&
0'
#59
1'
0(
1)
#60
1%
0&
0'
1(
0)
#61
1'
0(
1)
#62
1&
0'
#63
1'
1(
#64
0%
0&
0'
0(
0)
#65
1'
1(
#66
1&
0'
#67
1'
0(
1)
#68
1%
0&
0'
1(
0)
#69
1'
0(
1)
#70
1&
0'
#71
1'
1(
#72
0%
0&
0'
0(
0)
#73
1'
1(
#74
1&
0'
#75
1'
0(
1)
#76
1%
0&
0'
1(
0)
#77
1'
0(
1)
#78
1&
0'
#79
1'
1(
#80
0%
0&
0'
0(
0)
#81
1'
1(
#82
1&
0'
#83
1'
0(
1)
#84
1%
0&
0'
1(
0)
#85
1'
0(
1)
#86
1&
0'
#87
1'
1(
#88
0%
0&
0'
0(
0)
#89
1'
1(
#90
1&
0'
#91
1'
0(
1)
#92
1%
0&
0'
1(
0)
#93
1'
0(
1)
#94
1&
0'
#95
1'
1(
#96
0%
0&
0'
0(
0)
#97
1'
1(
#98
1&
0'
#99
1'
0(
1)
#100
1%
0&
0'
1(
0)
#101
1'
0(
1)
#102
1&
0'
#103
1'
1(
#104
0%
0&
0'
0(
0)
#105
1'
1(
#106
1&
0'
#107
1'
0(
1)
#108
1%
0&
0'
1(
0)
#109
1'
0(
1)
#110
1&
0'
#111
1'
1(
#112
0%
0&
0'
0(
0)
#113
1'
1(
#114
1&
0'
#115
1'
0(
1)
#116
1%
0&
0'
1(
0)
#117
1'
0(
1)
#118
1&
0'
#119
1'
1(
#120
0%
0&
0'
0(
0)
#121
1'
1(
#122
1&
0'
#123
1'
0(
1)
#124
1%
0&
0'
1(
0)
#125
1'
0(
1)
#126
1&
0'
#127
1'
1(
#128
0%
0&
0'
0(
0)
#129
1'
1(
#130
1&
0'
#131
1'
0(
1)
#132
1%
0&
0'
1(
0)
#133
1'
0(
1)
#134
1&
0'
#135
1'
1(
#136
0%
0&
0'
0(
0)
#137
1'
1(
#138
1&
0'
#139
1'
0(
1)
#140
1%
0&
0'
1(
0)
#141
1'
0(
1)
#142
1&
0'
#143
1'
1(
#144
0%
0&
0'
0(
0)
#145
1'
1(
#146
1&
0'
#147
1'
0(
1)
#148
1%
0&
0'
1(
0)
#149
1'
0(
1)
#150
1&
0'
#151
1'
1(
#152
0%
0&
0'
0(
0)
#153
1'
1(
#154
1&
0'
#155
1'
0(
1)
#156
1%
0&
0'
1(
0)
#157
1'
0(
1)
#158
1&
0'
#159
1'
1(
#160
0%
0&
0'
0(
0)
#161
1'
1(
#162
1&
0'
#163
1'
0(
1)
#164
1%
0&
0'
1(
0)
#165
1'
0(
1)
#166
1&
0'
#167
1'
1(
#168
0%
0&
0'
0(
0)
#169
1'
1(
#170
1&
0'
#171
1'
0(
1)
#172
1%
0&
0'
1(
0)
#173
1'
0(
1)
#174
1&
0'
#175
1'
1(
#176
0%
0&
0'
0(
0)
#177
1'
1(
#178
1&
0'
#179
1'
0(
1)
#180
1%
0&
0'
1(
0)
#181
1'
0(
1)
#182
1&
0'
#183
1'
1(
#184
0%
0&
0'
0(
0)
#185
1'
1(
#186
1&
0'
#187
1'
0(
1)
#188
1%
0&
0'
1(
0)
#189
1'
0(
1)
#190
1&
0'
#191
1'
1(
#192
0%
0&
0'
0(
0)
#193
1'
1(
#194
1&
0'
#195
1'
0(
1)
#196
1%
0&
0'
1(
0)
#197
1'
0(
1)
#198
1&
0'
#199
1'
1(
#200
0%
0&
0'
0(
0)
#201
1'
1(
#202
1&
0'
#203
1'
0(
1)
#204
1%
0&
0'
1(
0)
#205
1'
0(
1)
#206
1&
0'
#207
1'
1(
#208
0%
0&
0'
0(
0)
#209
1'
1(
#210
1&
0'
#211
1'
0(
1)
#212
1%
0&
0'
1(
0)
#213
1'
0(
1)
#214
1&
0'
#215
1'
1(
#216
0%
0&
0'
0(
0)
#217
1'
1(
#218
1&
0'
#219
1'
0(
1)
#220
1%
0&
0'
1(
0)
#221
1'
0(
1)
#222
1&
0'
#223
1'
1(
#224
0%
0&
0'
0(
0)
#225
1'
1(
#226
1&
0'
#227
1'
0(
1)
#228
1%
0&
0'
1(
0)
#229
1'
0(
1)
#230
1&
0'
#231
1'
1(
#232
0%
0&
0'
0(
0)
#233
1'
1(
#234
1&
0'
#235
1'
0(
1)
#236
1%
0&
0'
1(
0)
#237
1'
0(
1)
#238
1&
0'
#239
1'
1(
#240
0%
0&
0'
0(
0)
#241
1'
1(
#242
1&
0'
#243
1'
0(
1)
#244
1%
0&
0'
1(
0)
#245
1'
0(
1)
#246
1&
0'
#247
1'
1(
#248
0%
0&
0'
0(
0)
#249
1'
1(
#250
1&
0'
#251
1'
0(
1)
#252
1%
0&
0'
1(
0)
#253
1'
0(
1)
#254
1&
0'
#255
1'
1(
#256
0%
0&
0'
0(
0)
#257
1'
1(
#258
1&
0'
#259
1'
0(
1)
#260
1%
0&
0'
1(
0)
#261
1'
0(
1)
#262
1&
0'
#263
1'
1(
#264
0%
0&
0'
0(
0)
#265
1'
1(
#266
1&
0'
#267
1'
0(
1)
#268
1%
0&
0'
1(
0)
#269
1'
0(
1)
#270
1&
0'
#271
1'
1(
#272
0%
0&
0'
0(
0)
#273
1'
1(
#274
1&
0'
#275
1'
0(
1)
#276
1%
0&
0'
1(
0)
#277
1'
0(
1)
#278
1&
0'
#279
1'
1(
#280
0%
0&
0'
0(
0)
#281
1'
1(
#282
1&
0'
#283
1'
0(
1)
#284
1%
0&
0'
1(
0)
#285
1'
0(
1)
#286
1&
0'
#287
1'
1(
#288
0%
0&
0'
0(
0)
#289
1'
1(
#290
1&
0'
#291
1'
0(
1)
#292
1%
0&
0'
1(
0)
#293
1'
0(
1)
#294
1&
0'
#295
1'
1(
#296
0%
0&
0'
0(
0)
#297
1'
1(
#298
1&
0'
#299
1'
0(
1)
#300
1%
0&
0'
1(
0)
#301
1'
0(
1)
#302
1&
0'
#303
1'
1(
#304
0%
0&
0'
0(
0)
#305
1'
1(
#306
1&
0'
#307
1'
0(
1)
#308
1%
0&
0'
1(
0)
#309
1'
0(
1)
#310
1&
0'
#311
1'
1(
#312
0%
0&
0'
0(
0)
#313
1'
1(
#314
1&
0'
#315
1'
0(
1)
#316
1%
0&
0'
1(
0)
#317
1'
0(
1)
#318
1&
0'
#319
1'
1(
#320
0%
0&
0'
0(
0)
#321
1'
1(
#322
1&
0'
#323
1'
0(
1)
#324
1%
0&
0'
1(
0)
#325
1'
0(
1)
#326
1&
0'
#327
1'
1(
#328
0%
0&
0'
0(
0)
#329
1'
1(
#330
1&
0'
#331
1'
0(
1)
#332
1%
0&
0'
1(
0)
#333
1'
0(
1)
#334
1&
0'
#335
1'
1(
#336
0%
0&
0'
0(
0)
#337
1'
1(
#338
1&
0'
#339
1'
0(
1)
#340
1%
0&
0'
1(
0)
#341
1'
0(
1)
#342
1&
0'
#343
1'
1(
#344
0%
0&
0'
0(
0)
#345
1'
1(
#346
1&
0'
#347
1'
0(
1)
#348
1%
0&
0'
1(
0)
#349
1'
0(
1)
#350
1&
0'
#351
1'
1(
#352
0%
0&
0'
0(
0)
#353
1'
1(
#354
1&
0'
#355
1'
0(
1)
#356
1%
0&
0'
1(
0)
#357
1'
0(
1)
#358
1&
0'
#359
1'
1(
#360
0%
0&
0'
0(
0)
#361
1'
1(
#362
1&
0'
#363
1'
0(
1)
#364
1%
0&
0'
1(
0)
#365
1'
0(
1)
#366
1&
0'
#367
1'
1(
#368
0%
0&
0'
0(
0)
#369
1'
1(
#370
1&
0'
#371
1'
0(
1)
#372
1%
0&
0'
1(
0)
#373
1'
0(
1)
#374
1&
0'
#375
1'
1(
#376
0%
0&
0'
0(
0)
#377
1'
1(
#378
1&
0'
#379
1'
0(
1)
#380
1%
0&
0'
1(
0)
#381
1'
0(
1)
#382
1&
0'
#383
1'
1(
#384
0%
0&
0'
0(
0)
#385
1'
1(
#386
1&
0'
#387
1'
0(
1)
#388
1%
0&
0'
1(
0)
#389
1'
0(
1)
#390
1&
0'
#391
1'
1(
#392
0%
0&
0'
0(
0)
#393
1'
1(
#394
1&
0'
#395
1'
0(
1)
#396
1%
0&
0'
1(
0)
#397
1'
0(
1)
#398
1&
0'
#399
1'
1(
#400
0%
0&
0'
0(
0)
#401
1'
1(
#402
1&
0'
#403
1'
0(
1)
#404
1%
0&
0'
1(
0)
#405
1'
0(
1)
#406
1&
0'
#407
1'
1(
#408
0%
0&
0'
0(
0)
#409
1'
1(
#410
1&
0'
#411
1'
0(
1)
#412
1%
0&
0'
1(
0)
#413
1'
0(
1)
#414
1&
0'
#415
1'
1(
#416
0%
0&
0'
0(
0)
#417
1'
1(
#418
1&
0'
#419
1'
0(
1)
#420
1%
0&
0'
1(
0)
#421
1'
0(
1)
#422
1&
0'
#423
1'
1(
#424
0%
0&
0'
0(
0)
#425
1'
1(
#426
1&
0'
#427
1'
0(
1)
#428
1%
0&
0'
1(
0)
#429
1'
0(
1)
#430
1&
0'
#431
1'
1(
#432
0%
0&
0'
0(
0)
#433
1'
1(
#434
1&
0'
#435
1'
0(
1)
#436
1%
0&
0'
1(
0)
#437
1'
0(
1)
#438
1&
0'
#439
1'
1(
#440
0%
0&
0'
0(
0)
#441
1'
1(
#442
1&
0'
#443
1'
0(
1)
#444
1%
0&
0'
1(
0)
#445
1'
0(
1)
#446
1&
0'
#447
1'
1(
#448
0%
0&
0'
0(
0)
#449
1'
1(
#450
1&
0'
#451
1'
0(
1)
#452
1%
0&
0'
1(
0)
#453
1'
0(
1)
#454
1&
0'
#455
1'
1(
#456
0%
0&
0'
0(
0)
#457
1'
1(
#458
1&
0'
#459
1'
0(
1)
#460
1%
0&
0'
1(
0)
#461
1'
0(
1)
#462
1&
0'
#463
1'
1(
#464
0%
0&
0'
0(
0)
#465
1'
1(
#466
1&
0'
#467
1'
0(
1)
#468
1%
0&
0'
1(
0)
#469
1'
0(
1)
#470
1&
0'
#471
1'
1(
#472
0%
0&
0'
0(
0)
#473
1'
1(
#474
1&
0'
#475
1'
0(
1)
#476
1%
0&
0'
1(
0)
#477
1'
0(
1)
#478
1&
0'
#479
1'
1(
#480
0%
0&
0'
0(
0)
#481
1'
1(
#482
1&
0'
#483
1'
0(
1)
#484
1%
0&
0'
1(
0)
#485
1'
0(
1)
#486
1&
0'
#487
1'
1(
#488
0%
0&
0'
0(
0)
#489
1'
1(
#490
1&
0'
#491
1'
0(
1)
#492
1%
0&
0'
1(
0)
#493
1'
0(
1)
#494
1&
0'
#495
1'
1(
#496
0%
0&
0'
0(
0)
#497
1'
1(
#498
1&
0'
#499
1'
0(
1)
#500
1%
0&
0'
1(
0)
#501
1'
0(
1)
#502
1&
0'
#503
1'
1(
#504
0%
0&
0'
0(
0)
#505
1'
1(
#506
1&
0'
#507
1'
0(
1)
#508
1%
0&
0'
1(
0)
#509
1'
0(
1)
#510
1&
0'
#511
1'
1(
#512
0%
0&
0'
0(
0)
#513
1'
1(
#514
1&
0'
#515
1'
0(
1)
#516
1%
0&
0'
1(
0)
#517
1'
0(
1)
#518
1&
0'
#519
1'
1(
#520
0%
0&
0'
0(
0)
#521
1'
1(
#522
1&
0'
#523
1'
0(
1)
#524
1%
0&
0'
1(
0)
#525
1'
0(
1)
#526
1&
0'
#527
1'
1(
#528
0%
0&
0'
0(
0)
#529
1'
1(
#530
1&
0'
#531
1'
0(
1)
#532
1%
0&
0'
1(
0)
#533
1'
0(
1)
#534
1&
0'
#535
1'
1(
#536
0%
0&
0'
0(
0)
#537
1'
1(
#538
1&
0'
#539
1'
0(
1)
#540
1%
0&
0'
1(
0)
#541
1'
0(
1)
#542
1&
0'
#543
1'
1(
#544
0%
0&
0'
0(
0)
#545
1'
1(
#546
1&
0'
#547
1'
0(
1)
#548
1%
0&
0'
1(
0)
#549
1'
0(
1)
#550
1&
0'
#551
1'
1(
#552
0%
0&
0'
0(
0)
#553
1'
1(
#554
1&
0'
#555
1'
0(
1)
#556
1%
0&
0'
1(
0)
#557
1'
0(
1)
#558
1&
0'
#559
1'
1(
#560
0%
0&
0'
0(
0)
#561
1'
1(
#562
1&
0'
#563
1'
0(
1)
#564
1%
0&
0'
1(
0)
#565
1'
0(
1)
#566
1&
0'
#567
1'
1(
#568
0%
0&
0'
0(
0)
#569
1'
1(
#570
1&
0'
#571
1'
0(
1)
#572
1%
0&
0'
1(
0)
#573
1'
0(
1)
#574
1&
0'
#575
1'
1(
#576
0%
0&
0'
0(
0)
#577
1'
1(
#578
1&
0'
#579
1'
0(
1)
#580
1%
0&
0'
1(
0)
#581
1'
0(
1)
#582
1&
0'
#583
1'
1(
#584
0%
0&
0'
0(
0)
#585
1'
1(
#586
1&
0'
#587
1'
0(
1)
#588
1%
0&
0'
1(
0)
#589
1'
0(
1)
#590
1&
0'
#591
1'
1(
#592
0%
0&
0'
0(
0)
#593
1'
1(
#594
1&
0'
#595
1'
0(
1)
#596
1%
0&
0'
1(
0)
#597
1'
0(
1)
#598
1&
0'
#599
1'
1(
#600
0%
0&
0'
0(
0)
#601
1'
1(
#602
1&
0'
#603
1'
0(
1)
#604
1%
0&
0'
1(
0)
#605
1'
0(
1)
#606
1&
0'
#607
1'
1(
#608
0%
0&
0'
0(
0)
#609
1'
1(
#610
1&
0'
#611
1'
0(
1)
#612
1%
0&
0'
1(
0)
#613
1'
0(
1)
#614
1&
0'
#615
1'
1(
#616
0%
0&
0'
0(
0)
#617
1'
1(
#618
1&
0'
#619
1'
0(
1)
#620
1%
0&
0'
1(
0)
#621
1'
0(
1)
#622
1&
0'
#623
1'
1(
#624
0%
0&
0'
0(
0)
#625
1'
1(
#626
1&
0'
#627
1'
0(
1)
#628
1%
0&
0'
1(
0)
#629
1'
0(
1)
#630
1&
0'
#631
1'
1(
#632
0%
0&
0'
0(
0)
#633
1'
1(
#634
1&
0'
#635
1'
0(
1)
#636
1%
0&
0'
1(
0)
#637
1'
0(
1)
#638
1&
0'
#639
1'
1(
#640
0%
0&
0'
0(
0)
#641
1'
1(
#642
1&
0'
#643
1'
0(
1)
#644
1%
0&
0'
1(
0)
#645
1'
0(
1)
#646
1&
0'
#647
1'
1(
#648
0%
0&
0'
0(
0)
#649
1'
1(
#650
1&
0'
#651
1'
0(
1)
#652
1%
0&
0'
1(
0)
#653
1'
0(
1)
#654
1&
0'
#655
1'
1(
#656
0%
0&
0'
0(
0)
#657
1'
1(
#658
1&
0'
#659
1'
0(
1)
#660
1%
0&
0'
1(
0)
#661
1'
0(
1)
#662
1&
0'
#663
1'
1(
#664
0%
0&
0'
0(
0)
#665
1'
1(
#666
1&
0'
#667
1'
0(
1)
#668
1%
0&
0'
1(
0)
#669
1'
0(
1)
#670
1&
0'
#671
1'
1(
#672
0%
0&
0'
0(
0)
#673
1'
1(
#674
1&
0'
#675
1'
0(
1)
#676
1%
0&
0'
1(
0)
#677
1'
0(
1)
#678
1&
0'
#679
1'
1(
#680
0%
0&
0'
0(
0)
#681
1'
1(
#682
1&
0'
#683
1'
0(
1)
#684
1%
0&
0'
1(
0)
#685
1'
0(
1)
#686
1&
0'
#687
1'
1(
#688
0%
0&
0'
0(
0)
#689
1'
1(
#690
1&
0'
#691
1'
0(
1)
#692
1%
0&
0'
1(
0)
#693
1'
0(
1)
#694
1&
0'
#695
1'
1(
#696
0%
0&
0'
0(
0)
#697
1'
1(
#698
1&
0'
#699
1'
0(
1)
#700
1%
0&
0'
1(
0)
#701
1'
0(
1)
#702
1&
0'
#703
1'
1(
#704
0%
0&
0'
0(
0)
#705
1'
1(
#706
1&
0'
#707
1'
0(
1)
#708
1%
0&
0'
1(
0)
#709
1'
0(
1)
#710
1&
0'
#711
1'
1(
#712
0%
0&
0'
0(
0)
#713
1'
1(
#714
1&
0'
#715
1'
0(
1)
#716
1%
0&
0'
1(
0)
#717
1'
0(
1)
#718
1&
0'
#719
1'
1(
#720
0%
0&
0'
0(
0)
#721
1'
1(
#722
1&
0'
#723
1'
0(
1)
#724
1%
0&
0'
1(
0)
#725
1'
0(
1)
#726
1&
0'
#727
1'
1(
#728
0%
0&
0'
0(
0)
#729
1'
1(
#730
1&
0'
#731
1'
0(
1)
#732
1%
0&
0'
1(
0)
#733
1'
0(
1)
#734
1&
0'
#735
1'
1(
#736
0%
0&
0'
0(
0)
#737
1'
1(
#738
1&
0'
#739
1'
0(
1)
#740
1%
0&
0'
1(
0)
#741
1'
0(
1)
#742
1&
0'
#743
1'
1(
#744
0%
0&
0'
0(
0)
#745
1'
1(
#746
1&
0'
#747
1'
0(
1)
#748
1%
0&
0'
1(
0)
#749
1'
0(
1)
#750
1&
0'
#751
1'
1(
#752
0%
0&
0'
0(
0)
#753
1'
1(
#754
1&
0'
#755
1'
0(
1)
#756
1%
0&
0'
1(
0)
#757
1'
0(
1)
#758
1&
0'
#759
1'
1(
#760
0%
0&
0'
0(
0)
#761
1'
1(
#762
1&
0'
#763
1'
0(
1)
#764
1%
0&
0'
1(
0)
#765
1'
0(
1)
#766
1&
0'
#767
1'
1(
#768
0%
0&
0'
0(
0)
#769
1'
1(
#770
1&
0'
#771
1'
0(
1)
#772
1%
0&
0'
1(
0)
#773
1'
0(
1)
#774
1&
0'
#775
1'
1(
#776
0%
0&
0'
0(
0)
#777
1'
1(
#778
1&
0'
#779
1'
0(
1)
#780
1%
0&
0'
1(
0)
#781
1'
0(
1)
#782
1&
0'
#783
1'
1(
#784
0%
0&
0'
0(
0)
#785
1'
1(
#786
1&
0'
#787
1'
0(
1)
#788
1%
0&
0'
1(
0)
#789
1'
0(
1)
#790
1&
0'
#791
1'
1(
#792
0%
0&
0'
0(
0)
#793
1'
1(
#794
1&
0'
#795
1'
0(
1)
#796
1%
0&
0'
1(
0)
#797
1'
0(
1)
#798
1&
0'
#799
1'
1(
#800
0%
0&
0'
0(
0)
#801
1'
1(
#802
1&
0'
#803
1'
0(
1)
#804
1%
0&
0'
1(
0)
#805
1'
0(
1)
#806
1&
0'
#807
1'
1(
#808
0%
0&
0'
0(
0)
#809
1'
1(
#810
1&
0'
#811
1'
0(
1)
#812
1%
0&
0'
1(
0)
#813
1'
0(
1)
#814
1&
0'
#815
1'
1(
#816
0%
0&
0'
0(
0)
#817
1'
1(
#818
1&
0'
#819
1'
0(
1)
#820
1%
0&
0'
1(
0)
#821
1'
0(
1)
#822
1&
0'
#823
1'
1(
#824
0%
0&
0'
0(
0)
#825
1'
1(
#826
1&
0'
#827
1'
0(
1)
#828
1%
0&
0'
1(
0)
#829
1'
0(
1)
#830
1&
0'
#831
1'
1(
#832
0%
0&
0'
0(
0)
#833
1'
1(
#834
1&
0'
#835
1'
0(
1)
#836
1%
0&
0'
1(
0)
#837
1'
0(
1)
#838
1&
0'
#839
1'
1(
#840
0%
0&
0'
0(
0)
#841
1'
1(
#842
1&
0'
#843
1'
0(
1)
#844
1%
0&
0'
1(
0)
#845
1'
0(
1)
#846
1&
0'
#847
1'
1(
#848
0%
0&
0'
0(
0)
#849
1'
1(
#850
1&
0'
#851
1'
0(
1)
#852
1%
0&
0'
1(
0)
#853
1'
0(
1)
#854
1&
0'
#855
1'
1(
#856
0%
0&
0'
0(
0)
#857
1'
1(
#858
1&
0'
#859
1'
0(
1)
#860
1%
0&
0'
1(
0)
#861
1'
0(
1)
#862
1&
0'
#863
1'
1(
#864
0%
0&
0'
0(
0)
#865
1'
1(
#866
1&
0'
#867
1'
0(
1)
#868
1%
0&
0'
1(
0)
#869
1'
0(
1)
#870
1&
0'
#871
1'
1(
#872
0%
0&
0'
0(
0)
#873
1'
1(
#874
1&
0'
#875
1'
0(
1)
#876
1%
0&
0'
1(
0)
#877
1'
0(
1)
#878
1&
0'
#879
1'
1(
#880
0%
0&
0'
0(
0)
#881
1'
1(
#882
1&
0'
#883
1'
0(
1)
#884
1%
0&
0'
1(
0)
#885
1'
0(
1)
#886
1&
0'
#887
1'
1(
#888
0%
0&
0'
0(
0)
#889
1'
1(
#890
1&
0'
#891
1'
0(
1)
#892
1%
0&
0'
1(
0)
#893
1'
0(
1)
#894
1&
0'
#895
1'
1(
#896
0%
0&
0'
0(
0)
#897
1'
1(
#898
1&
0'
#899
1'
0(
1)
#900
1%
0&
0'
1(
0)
#901
1'
0(
1)
#902
1&
0'
#903
1'
1(
#904
0%
0&
0'
0(
0)
#905
1'
1(
#906
1&
0'
#907
1'
0(
1)
#908
1%
0&
0'
1(
0)
#909
1'
0(
1)
#910
1&
0'
#911
1'
1(
#912
0%
0&
0'
0(
0)
#913
1'
1(
#914
1&
0'
#915
1'
0(
1)
#916
1%
0&
0'
1(
0)
#917
1'
0(
1)
#918
1&
0'
#919
1'
1(
#920
0%
0&
0'
0(
0)
#921
1'
1(
#922
1&
0'
#923
1'
0(
1)
#924
1%
0&
0'
1(
0)
#925
1'
0(
1)
#926
1&
0'
#927
1'
1(
#928
0%
0&
0'
0(
0)
#929
1'
1(
#930
1&
0'
#931
1'
0(
1)
#932
1%
0&
0'
1(
0)
#933
1'
0(
1)
#934
1&
0'
#935
1'
1(
#936
0%
0&
0'
0(
0)
#937
1'
1(
#938
1&
0'
#939
1'
0(
1)
#940
1%
0&
0'
1(
0)
#941
1'
0(
1)
#942
1&
0'
#943
1'
1(
#944
0%
0&
0'
0(
0)
#945
1'
1(
#946
1&
0'
#947
1'
0(
1)
#948
1%
0&
0'
1(
0)
#949
1'
0(
1)
#950
1&
0'
#951
1'
1(
#952
0%
0&
0'
0(
0)
#953
1'
1(
#954
1&
0'
#955
1'
0(
1)
#956
1%
0&
0'
1(
0)
#957
1'
0(
1)
#958
1&
0'
#959
1'
1(
#960
0%
0&
0'
0(
0)
#961
1'
1(
#962
1&
0'
#963
1'
0(
1)
#964
1%
0&
0'
1(
0)
#965
1'
0(
1)
#966
1&
0'
#967
1'
1(
#968
0%
0&
0'
0(
0)
#969
1'
1(
#970
1&
0'
#971
1'
0(
1)
#972
1%
0&
0'
1(
0)
#973
1'
0(
1)
#974
1&
0'
#975
1'
1(
#976
0%
0&
0'
0(
0)
#977
1'
1(
#978
1&
0'
#979
1'
0(
1)
#980
1%
0&
0'
1(
0)
#981
1'
0(
1)
#982
1&
0'
#983
1'
1(
#984
0%
0&
0'
0(
0)
#985
1'
1(
#986
1&
0'
#987
1'
0(
1)
#988
1%
0&
0'
1(
0)
#989
1'
0(
1)
#990
1&
0'
#991
1'
1(
#992
0%
0&
0'
0(
0)
#993
1'
1(
#994
1&
0'
#995
1'
0(
1)
#996
1%
0&
0'
1(
0)
#997
1'
0(
1)
#998
1&
0'
#999
1'
1(
#1000
0%
0&
0'
0(
0)
#1001
1'
1(
#1002
1&
0'
#1003
1'
0(
1)
#1004
1%
0&
0'
1(
0)
#1005
1'
0(
1)
#1006
1&
0'
#1007
1'
1(
#1008
0%
0&
0'
0(
0)
#1009
1'
1(
#1010
1&
0'
#1011
1'
0(
1)
#1012
1%
0&
0'
1(
0)
#1013
1'
0(
1)
#1014
1&
0'
#1015
1'
1(
#1016
0%
0&
0'
0(
0)
#1017
1'
1(
#1018
1&
0'
#1019
1'
0(
1)
#1020
1%
0&
0'
1(
0)
#1021
1'
0(
1)
#1022
1&
0'
#1023
1'
1(
