PC.vcd
$version Generated by VerilatedVcd $end
$date Thu Jun 20 11:37:37 2019
 $end
$timescale   1ns $end

 $scope module TOP $end
  $var wire  1 $ clock $end
  $var wire 32 & io_next_pc [31:0] $end
  $var wire 32 ' io_pc_out [31:0] $end
  $var wire  1 % reset $end
  $scope module PC $end
   $var wire  1 $ clock $end
   $var wire 32 & io_next_pc [31:0] $end
   $var wire 32 ' io_pc_out [31:0] $end
   $var wire 32 # pc [31:0] $end
   $var wire  1 % reset $end
  $upscope $end
 $upscope $end
$enddefinitions $end


#0
b00000000000000000000000000000000 #
0$
0%
b00000000000000000000000000000100 &
b00000000000000000000000000000000 '
#1
b00000000000000000000000000000100 #
1$
b00000000000000000000000000000100 '
#2
0$
b00000000000000000000000000001000 &
#3
b00000000000000000000000000001000 #
1$
b00000000000000000000000000001000 '
#4
0$
b00000000000000000000000000001100 &
#5
b00000000000000000000000000001100 #
1$
b00000000000000000000000000001100 '
#6
0$
b00000000000000000000000001000000 &
#7
b00000000000000000000000001000000 #
1$
b00000000000000000000000001000000 '
#8
0$
b00000000000000000000000001000100 &
#9
b00000000000000000000000001000100 #
1$
b00000000000000000000000001000100 '
#10
0$
b00000000000000000000010000000000 &
#11
b00000000000000000000010000000000 #
1$
b00000000000000000000010000000000 '
#12
0$
b00000000000000000000010000000100 &
#13
b00000000000000000000010000000100 #
1$
b00000000000000000000010000000100 '
#14
0$
b00000000000000000000000000000100 &
#15
b00000000000000000000000000000100 #
1$
b00000000000000000000000000000100 '
#16
0$
b00000000000000000000000000001000 &
#17
b00000000000000000000000000001000 #
1$
b00000000000000000000000000001000 '
#18
0$
b00000000000000000000000000000000 &
#19
b00000000000000000000000000000000 #
1$
b00000000000000000000000000000000 '
#20
0$
#21
1$
#22
0$
#23
1$
#24
0$
#25
1$
#26
0$
#27
1$
#28
0$
#29
1$
#30
0$
#31
1$
#32
0$
#33
1$
#34
0$
#35
1$
#36
0$
#37
1$
#38
0$
b00000000000001011010010010110000 &
#39
b00000000000001011010010010110000 #
1$
b00000000000001011010010010110000 '
#40
0$
b00000000000000000111111100011101 &
#41
b00000000000000000111111100011101 #
1$
b00000000000000000111111100011101 '
#42
0$
b00000000000000000000000000000000 &
#43
b00000000000000000000000000000000 #
1$
b00000000000000000000000000000000 '
#44
0$
#45
1$
#46
0$
b11111111111001100101010111000000 &
#47
b11111111111001100101010111000000 #
1$
b11111111111001100101010111000000 '
#48
0$
b00000000000000000111111100011100 &
#49
b00000000000000000111111100011100 #
1$
b00000000000000000111111100011100 '
#50
0$
b00000000000000000000000000000000 &
#51
b00000000000000000000000000000000 #
1$
b00000000000000000000000000000000 '
#52
0$
#53
1$
#54
0$
b11111111111001100100100001100000 &
#55
b11111111111001100100100001100000 #
1$
b11111111111001100100100001100000 '
#56
0$
b00000000000000000111111100011100 &
#57
b00000000000000000111111100011100 #
1$
b00000000000000000111111100011100 '
#58
0$
b00000000000000000000000000000000 &
#59
b00000000000000000000000000000000 #
1$
b00000000000000000000000000000000 '
#60
0$
#61
1$
#62
0$
b11111111111001100101010011100000 &
#63
b11111111111001100101010011100000 #
1$
b11111111111001100101010011100000 '
#64
0$
b00000000000000000111111100011100 &
#65
b00000000000000000111111100011100 #
1$
b00000000000000000111111100011100 '
#66
0$
b00000000000000000000000000000000 &
#67
b00000000000000000000000000000000 #
1$
b00000000000000000000000000000000 '
#68
0$
#69
1$
#70
0$
b11111001111010001011000110000000 &
#71
b11111001111010001011000110000000 #
1$
b11111001111010001011000110000000 '
#72
0$
b00000000000000000101010111111011 &
#73
b00000000000000000101010111111011 #
1$
b00000000000000000101010111111011 '
#74
0$
b11111001111010001011001101100000 &
#75
b11111001111010001011001101100000 #
1$
b11111001111010001011001101100000 '
#76
0$
b00000000000000000101010111111011 &
#77
b00000000000000000101010111111011 #
1$
b00000000000000000101010111111011 '
#78
0$
b00000000000000000000000001001110 &
#79
b00000000000000000000000001001111 #
1$
b00000000000000000000000001001111 &
b00000000000000000000000001001111 '
#80
0$
b00000000000000000000000000000000 &
#81
b00000000000000000000000000000000 #
1$
b00000000000000000000000000000000 '
#82
0$
b00000000000000000000000000101010 &
#83
b00000000000000000000000000101010 #
1$
b00000000000000000000000000101010 '
#84
0$
b00000000000000000000000000000000 &
#85
b00000000000000000000000000000000 #
1$
b00000000000000000000000000000000 '
#86
0$
#87
1$
#88
0$
#89
1$
#90
0$
#91
1$
#92
0$
#93
1$
#94
0$
#95
1$
#96
0$
#97
1$
#98
0$
b11110111111101001101001000010000 &
#99
b11110111111101001101001000010000 #
1$
b11110111111101001101001000010000 '
#100
0$
b00000000000000000101010111111011 &
#101
b00000000000000000101010111111011 #
1$
b00000000000000000101010111111011 '
#102
0$
b00000000000000000000000000000000 &
#103
b00000000000000000000000000000000 #
1$
b00000000000000000000000000000000 '
#104
0$
b00000001000000010000000000000001 &
#105
b00000001000000010000000000000001 #
1$
b00000001000000010000000000000001 '
#106
0$
b00000000000000000000000000000000 &
#107
b00000000000000000000000000000000 #
1$
b00000000000000000000000000000000 '
#108
0$
#109
1$
#110
0$
b00000000000000000000000000000001 &
#111
b00000000000000000000000000000001 #
1$
b00000000000000000000000000000001 '
#112
0$
b00000000000000000000000000000000 &
#113
b00000000000000000000000000000000 #
1$
b00000000000000000000000000000000 '
#114
0$
b00000000000000000000000000000010 &
#115
b00000000000000000000000000000010 #
1$
b00000000000000000000000000000010 '
#116
0$
b00000000000000000000000000000000 &
#117
b00000000000000000000000000000000 #
1$
b00000000000000000000000000000000 '
#118
0$
b11111001111010001010111001110000 &
#119
b11111001111010001010111001110000 #
1$
b11111001111010001010111001110000 '
#120
0$
b00000000000000000101010111111011 &
#121
b00000000000000000101010111111011 #
1$
b00000000000000000101010111111011 '
#122
0$
b00000000000000000000000000000000 &
#123
b00000000000000000000000000000000 #
1$
b00000000000000000000000000000000 '
#124
0$
#125
1$
#126
0$
#127
1$
#128
0$
#129
1$
#130
0$
#131
1$
#132
0$
#133
1$
#134
0$
#135
1$
#136
0$
#137
1$
#138
0$
#139
1$
#140
0$
#141
1$
#142
0$
#143
1$
#144
0$
b00000000000000000000000000000001 &
#145
b00000000000000000000000000000001 #
1$
b00000000000000000000000000000001 '
#146
0$
b11100011011100100111000110011000 &
#147
b11100011011100100111000110011000 #
1$
b11100011011100100111000110011000 '
#148
0$
b00000000000000000111111111111110 &
#149
b00000000000000000111111111111110 #
1$
b00000000000000000111111111111110 '
#150
0$
b00000000000000000000000000000000 &
#151
b00000000000000000000000000000000 #
1$
b00000000000000000000000000000000 '
#152
0$
#153
1$
#154
0$
#155
1$
#156
0$
#157
1$
#158
0$
#159
1$
#160
0$
#161
1$
#162
0$
b11111001111010001011000100010000 &
#163
b11111001111010001011000100010000 #
1$
b11111001111010001011000100010000 '
#164
0$
b00000000000000000101010111111011 &
#165
b00000000000000000101010111111011 #
1$
b00000000000000000101010111111011 '
#166
0$
b11111001111010001011000100110000 &
#167
b11111001111010001011000100110000 #
1$
b11111001111010001011000100110000 '
#168
0$
b00000000000000000101010111111011 &
#169
b00000000000000000101010111111011 #
1$
b00000000000000000101010111111011 '
#170
0$
b11111001111010001011000100110000 &
#171
b11111001111010001011000100110000 #
1$
b11111001111010001011000100110000 '
#172
0$
b00000000000000000101010111111011 &
#173
b00000000000000000101010111111011 #
1$
b00000000000000000101010111111011 '
#174
0$
b00000000000000000000000000000001 &
#175
b00000000000000000000000000000001 #
1$
b00000000000000000000000000000001 '
#176
0$
b00000000000000000000000000000000 &
#177
b00000000000000000000000000000000 #
1$
b00000000000000000000000000000000 '
#178
0$
#179
1$
#180
0$
#181
1$
#182
0$
#183
1$
#184
0$
#185
1$
#186
0$
#187
1$
#188
0$
#189
1$
#190
0$
b11110111111101100001010011110000 &
#191
b11110111111101100001010011110000 #
1$
b11110111111101100001010011110000 '
#192
0$
b00000000000000000101010111111011 &
#193
b00000000000000000101010111111011 #
1$
b00000000000000000101010111111011 '
#194
0$
b11110111111101100001010011110000 &
#195
b11110111111101100001010011110000 #
1$
b11110111111101100001010011110000 '
#196
0$
b00000000000000000101010111111011 &
#197
b00000000000000000101010111111011 #
1$
b00000000000000000101010111111011 '
#198
0$
b00000000000000000000000000000000 &
#199
b00000000000000000000000000000000 #
1$
b00000000000000000000000000000000 '
#200
0$
#201
1$
#202
0$
#203
1$
#204
0$
#205
1$
#206
0$
#207
1$
#208
0$
#209
1$
#210
0$
#211
1$
#212
0$
#213
1$
#214
0$
#215
1$
#216
0$
#217
1$
#218
0$
b11110111111101100001010100101000 &
#219
b11110111111101100001010100101000 #
1$
b11110111111101100001010100101000 '
#220
0$
b00000000000000000101010111111011 &
#221
b00000000000000000101010111111011 #
1$
b00000000000000000101010111111011 '
#222
0$
b11110111111101100001010100101000 &
#223
b11110111111101100001010100101000 #
1$
b11110111111101100001010100101000 '
#224
0$
b00000000000000000101010111111011 &
#225
b00000000000000000101010111111011 #
1$
b00000000000000000101010111111011 '
#226
0$
b00000000000000000000000000000000 &
#227
b00000000000000000000000000000000 #
1$
b00000000000000000000000000000000 '
#228
0$
#229
1$
#230
0$
#231
1$
#232
0$
#233
1$
#234
0$
#235
1$
#236
0$
#237
1$
#238
0$
#239
1$
#240
0$
#241
1$
#242
0$
#243
1$
#244
0$
#245
1$
#246
0$
b11110111111101100001010101100000 &
#247
b11110111111101100001010101100000 #
1$
b11110111111101100001010101100000 '
#248
0$
b00000000000000000101010111111011 &
#249
b00000000000000000101010111111011 #
1$
b00000000000000000101010111111011 '
#250
0$
b11110111111101100001010101100000 &
#251
b11110111111101100001010101100000 #
1$
b11110111111101100001010101100000 '
#252
0$
b00000000000000000101010111111011 &
#253
b00000000000000000101010111111011 #
1$
b00000000000000000101010111111011 '
#254
0$
b00000000000000000000000000000000 &
#255
b00000000000000000000000000000000 #
1$
b00000000000000000000000000000000 '
#256
0$
#257
1$
#258
0$
#259
1$
#260
0$
#261
1$
#262
0$
b11111001111010001011000011110000 &
#263
b11111001111010001011000011110000 #
1$
b11111001111010001011000011110000 '
#264
0$
b00000000000000000101010111111011 &
#265
b00000000000000000101010111111011 #
1$
b00000000000000000101010111111011 '
#266
0$
b11111001111010001011000100001000 &
#267
b11111001111010001011000100001000 #
1$
b11111001111010001011000100001000 '
#268
0$
b00000000000000000101010111111011 &
#269
b00000000000000000101010111111011 #
1$
b00000000000000000101010111111011 '
#270
0$
b11111001111010001011000100001000 &
#271
b11111001111010001011000100001000 #
1$
b11111001111010001011000100001000 '
#272
0$
b00000000000000000101010111111011 &
#273
b00000000000000000101010111111011 #
1$
b00000000000000000101010111111011 '
#274
0$
b11111001111010001010111010010000 &
#275
b11111001111010001010111010010000 #
1$
b11111001111010001010111010010000 '
#276
0$
b00000000000000000101010111111011 &
#277
b00000000000000000101010111111011 #
1$
b00000000000000000101010111111011 '
#278
0$
b00000000000000000000000000001000 &
#279
b00000000000000000000000000001000 #
1$
b00000000000000000000000000001000 '
#280
0$
b00000000000000000000000000000000 &
#281
b00000000000000000000000000000000 #
1$
b00000000000000000000000000000000 '
#282
0$
b11111001111010001010111011100000 &
#283
b11111001111010001010111011100000 #
1$
b11111001111010001010111011100000 '
#284
0$
b00000000000000000101010111111011 &
#285
b00000000000000000101010111111011 #
1$
b00000000000000000101010111111011 '
#286
0$
b11111001111010001010111011100000 &
#287
b11111001111010001010111011100000 #
1$
b11111001111010001010111011100000 '
#288
0$
b00000000000000000101010111111011 &
#289
b00000000000000000101010111111011 #
1$
b00000000000000000101010111111011 '
#290
0$
b11111001111010001011000011100000 &
#291
b11111001111010001011000011100000 #
1$
b11111001111010001011000011100000 '
#292
0$
b00000000000000000101010111111011 &
#293
b00000000000000000101010111111011 #
1$
b00000000000000000101010111111011 '
#294
0$
b11111001111010001010111010101000 &
#295
b11111001111010001010111010101000 #
1$
b11111001111010001010111010101000 '
#296
0$
b00000000000000000101010111111011 &
#297
b00000000000000000101010111111011 #
1$
b00000000000000000101010111111011 '
#298
0$
b11111001111010001010111011100000 &
#299
b11111001111010001010111011100000 #
1$
b11111001111010001010111011100000 '
#300
0$
b00000000000000000101010111111011 &
#301
b00000000000000000101010111111011 #
1$
b00000000000000000101010111111011 '
#302
0$
b11111001111010001010111011100000 &
#303
b11111001111010001010111011100000 #
1$
b11111001111010001010111011100000 '
#304
0$
b00000000000000000101010111111011 &
#305
b00000000000000000101010111111011 #
1$
b00000000000000000101010111111011 '
#306
0$
b11111001111010001011000011100000 &
#307
b11111001111010001011000011100000 #
1$
b11111001111010001011000011100000 '
#308
0$
b00000000000000000101010111111011 &
#309
b00000000000000000101010111111011 #
1$
b00000000000000000101010111111011 '
#310
0$
b11111001111010001010111010101000 &
#311
b11111001111010001010111010101000 #
1$
b11111001111010001010111010101000 '
#312
0$
b00000000000000000101010111111011 &
#313
b00000000000000000101010111111011 #
1$
b00000000000000000101010111111011 '
#314
0$
b00000000000000000000000000000000 &
#315
b00000000000000000000000000000000 #
1$
b00000000000000000000000000000000 '
