Timer.vcd
$version Generated by VerilatedVcd $end
$date Thu Jun 20 11:08:46 2019
 $end
$timescale   1ns $end

 $scope module TOP $end
  $var wire  1 $ clock $end
  $var wire 32 & io_out [31:0] $end
  $var wire  1 % reset $end
  $scope module Timer $end
   $var wire  1 $ clock $end
   $var wire 32 & io_out [31:0] $end
   $var wire  1 % reset $end
   $var wire 32 # timer [31:0] $end
  $upscope $end
 $upscope $end
$enddefinitions $end


#0
b00000000000000000000000000000000 #
0$
0%
b00000000000000000000000000000000 &
#1
b00000000000000000000000000000001 #
1$
b00000000000000000000000000000001 &
#2
0$
#3
b00000000000000000000000000000010 #
1$
b00000000000000000000000000000010 &
#4
0$
#5
b00000000000000000000000000000011 #
1$
b00000000000000000000000000000011 &
#6
0$
#7
b00000000000000000000000000000100 #
1$
b00000000000000000000000000000100 &
#8
0$
#9
b00000000000000000000000000000101 #
1$
b00000000000000000000000000000101 &
#10
0$
#11
b00000000000000000000000000000110 #
1$
b00000000000000000000000000000110 &
#12
0$
#13
b00000000000000000000000000000111 #
1$
b00000000000000000000000000000111 &
#14
0$
#15
b00000000000000000000000000001000 #
1$
b00000000000000000000000000001000 &
#16
0$
#17
b00000000000000000000000000001001 #
1$
b00000000000000000000000000001001 &
#18
0$
#19
b00000000000000000000000000001010 #
1$
b00000000000000000000000000001010 &
#20
0$
#21
b00000000000000000000000000001011 #
1$
b00000000000000000000000000001011 &
#22
0$
#23
b00000000000000000000000000001100 #
1$
b00000000000000000000000000001100 &
#24
0$
#25
b00000000000000000000000000001101 #
1$
b00000000000000000000000000001101 &
#26
0$
#27
b00000000000000000000000000001110 #
1$
b00000000000000000000000000001110 &
#28
0$
#29
b00000000000000000000000000001111 #
1$
b00000000000000000000000000001111 &
#30
0$
#31
b00000000000000000000000000010000 #
1$
b00000000000000000000000000010000 &
#32
0$
#33
b00000000000000000000000000010001 #
1$
b00000000000000000000000000010001 &
#34
0$
#35
b00000000000000000000000000010010 #
1$
b00000000000000000000000000010010 &
#36
0$
#37
b00000000000000000000000000010011 #
1$
b00000000000000000000000000010011 &
#38
0$
#39
b00000000000000000000000000010100 #
1$
b00000000000000000000000000010100 &
#40
0$
#41
b00000000000000000000000000010101 #
1$
b00000000000000000000000000010101 &
#42
0$
#43
b00000000000000000000000000010110 #
1$
b00000000000000000000000000010110 &
#44
0$
#45
b00000000000000000000000000010111 #
1$
b00000000000000000000000000010111 &
#46
0$
#47
b00000000000000000000000000011000 #
1$
b00000000000000000000000000011000 &
#48
0$
#49
b00000000000000000000000000011001 #
1$
b00000000000000000000000000011001 &
#50
0$
#51
b00000000000000000000000000011010 #
1$
b00000000000000000000000000011010 &
#52
0$
#53
b00000000000000000000000000011011 #
1$
b00000000000000000000000000011011 &
#54
0$
#55
b00000000000000000000000000011100 #
1$
b00000000000000000000000000011100 &
#56
0$
#57
b00000000000000000000000000011101 #
1$
b00000000000000000000000000011101 &
#58
0$
#59
b00000000000000000000000000011110 #
1$
b00000000000000000000000000011110 &
#60
0$
#61
b00000000000000000000000000011111 #
1$
b00000000000000000000000000011111 &
#62
0$
#63
b00000000000000000000000000100000 #
1$
b00000000000000000000000000100000 &
#64
0$
#65
b00000000000000000000000000100001 #
1$
b00000000000000000000000000100001 &
#66
0$
#67
b00000000000000000000000000100010 #
1$
b00000000000000000000000000100010 &
#68
0$
#69
b00000000000000000000000000100011 #
1$
b00000000000000000000000000100011 &
#70
0$
#71
b00000000000000000000000000100100 #
1$
b00000000000000000000000000100100 &
#72
0$
#73
b00000000000000000000000000100101 #
1$
b00000000000000000000000000100101 &
#74
0$
#75
b00000000000000000000000000100110 #
1$
b00000000000000000000000000100110 &
#76
0$
#77
b00000000000000000000000000100111 #
1$
b00000000000000000000000000100111 &
#78
0$
#79
b00000000000000000000000000101000 #
1$
b00000000000000000000000000101000 &
#80
0$
#81
b00000000000000000000000000101001 #
1$
b00000000000000000000000000101001 &
#82
0$
#83
b00000000000000000000000000101010 #
1$
b00000000000000000000000000101010 &
#84
0$
#85
b00000000000000000000000000101011 #
1$
b00000000000000000000000000101011 &
#86
0$
#87
b00000000000000000000000000101100 #
1$
b00000000000000000000000000101100 &
#88
0$
#89
b00000000000000000000000000101101 #
1$
b00000000000000000000000000101101 &
#90
0$
#91
b00000000000000000000000000101110 #
1$
b00000000000000000000000000101110 &
#92
0$
#93
b00000000000000000000000000101111 #
1$
b00000000000000000000000000101111 &
#94
0$
#95
b00000000000000000000000000110000 #
1$
b00000000000000000000000000110000 &
#96
0$
#97
b00000000000000000000000000110001 #
1$
b00000000000000000000000000110001 &
#98
0$
#99
b00000000000000000000000000110010 #
1$
b00000000000000000000000000110010 &
#100
0$
#101
b00000000000000000000000000110011 #
1$
b00000000000000000000000000110011 &
#102
0$
#103
b00000000000000000000000000110100 #
1$
b00000000000000000000000000110100 &
#104
0$
#105
b00000000000000000000000000110101 #
1$
b00000000000000000000000000110101 &
#106
0$
#107
b00000000000000000000000000110110 #
1$
b00000000000000000000000000110110 &
#108
0$
#109
b00000000000000000000000000110111 #
1$
b00000000000000000000000000110111 &
#110
0$
#111
b00000000000000000000000000111000 #
1$
b00000000000000000000000000111000 &
#112
0$
#113
b00000000000000000000000000111001 #
1$
b00000000000000000000000000111001 &
#114
0$
#115
b00000000000000000000000000111010 #
1$
b00000000000000000000000000111010 &
#116
0$
#117
b00000000000000000000000000111011 #
1$
b00000000000000000000000000111011 &
#118
0$
#119
b00000000000000000000000000111100 #
1$
b00000000000000000000000000111100 &
#120
0$
#121
b00000000000000000000000000111101 #
1$
b00000000000000000000000000111101 &
#122
0$
#123
b00000000000000000000000000111110 #
1$
b00000000000000000000000000111110 &
#124
0$
#125
b00000000000000000000000000111111 #
1$
b00000000000000000000000000111111 &
#126
0$
#127
b00000000000000000000000001000000 #
1$
b00000000000000000000000001000000 &
#128
0$
#129
b00000000000000000000000001000001 #
1$
b00000000000000000000000001000001 &
#130
0$
#131
b00000000000000000000000001000010 #
1$
b00000000000000000000000001000010 &
#132
0$
#133
b00000000000000000000000001000011 #
1$
b00000000000000000000000001000011 &
#134
0$
#135
b00000000000000000000000001000100 #
1$
b00000000000000000000000001000100 &
#136
0$
#137
b00000000000000000000000001000101 #
1$
b00000000000000000000000001000101 &
#138
0$
#139
b00000000000000000000000001000110 #
1$
b00000000000000000000000001000110 &
#140
0$
#141
b00000000000000000000000001000111 #
1$
b00000000000000000000000001000111 &
#142
0$
#143
b00000000000000000000000001001000 #
1$
b00000000000000000000000001001000 &
#144
0$
#145
b00000000000000000000000001001001 #
1$
b00000000000000000000000001001001 &
#146
0$
#147
b00000000000000000000000001001010 #
1$
b00000000000000000000000001001010 &
#148
0$
#149
b00000000000000000000000001001011 #
1$
b00000000000000000000000001001011 &
#150
0$
#151
b00000000000000000000000001001100 #
1$
b00000000000000000000000001001100 &
#152
0$
#153
b00000000000000000000000001001101 #
1$
b00000000000000000000000001001101 &
#154
0$
#155
b00000000000000000000000001001110 #
1$
b00000000000000000000000001001110 &
#156
0$
#157
b00000000000000000000000001001111 #
1$
b00000000000000000000000001001111 &
#158
0$
#159
b00000000000000000000000001010000 #
1$
b00000000000000000000000001010000 &
#160
0$
#161
b00000000000000000000000001010001 #
1$
b00000000000000000000000001010001 &
#162
0$
#163
b00000000000000000000000001010010 #
1$
b00000000000000000000000001010010 &
#164
0$
#165
b00000000000000000000000001010011 #
1$
b00000000000000000000000001010011 &
#166
0$
#167
b00000000000000000000000001010100 #
1$
b00000000000000000000000001010100 &
#168
0$
#169
b00000000000000000000000001010101 #
1$
b00000000000000000000000001010101 &
#170
0$
#171
b00000000000000000000000001010110 #
1$
b00000000000000000000000001010110 &
#172
0$
#173
b00000000000000000000000001010111 #
1$
b00000000000000000000000001010111 &
#174
0$
#175
b00000000000000000000000001011000 #
1$
b00000000000000000000000001011000 &
#176
0$
#177
b00000000000000000000000001011001 #
1$
b00000000000000000000000001011001 &
#178
0$
#179
b00000000000000000000000001011010 #
1$
b00000000000000000000000001011010 &
#180
0$
#181
b00000000000000000000000001011011 #
1$
b00000000000000000000000001011011 &
#182
0$
#183
b00000000000000000000000001011100 #
1$
b00000000000000000000000001011100 &
#184
0$
#185
b00000000000000000000000001011101 #
1$
b00000000000000000000000001011101 &
#186
0$
#187
b00000000000000000000000001011110 #
1$
b00000000000000000000000001011110 &
#188
0$
#189
b00000000000000000000000001011111 #
1$
b00000000000000000000000001011111 &
#190
0$
#191
b00000000000000000000000001100000 #
1$
b00000000000000000000000001100000 &
#192
0$
#193
b00000000000000000000000001100001 #
1$
b00000000000000000000000001100001 &
#194
0$
#195
b00000000000000000000000001100010 #
1$
b00000000000000000000000001100010 &
#196
0$
#197
b00000000000000000000000001100011 #
1$
b00000000000000000000000001100011 &
#198
0$
#199
b00000000000000000000000001100100 #
1$
b00000000000000000000000001100100 &
#200
0$
#201
b00000000000000000000000001100101 #
1$
b00000000000000000000000001100101 &
#202
0$
#203
b00000000000000000000000001100110 #
1$
b00000000000000000000000001100110 &
#204
0$
#205
b00000000000000000000000001100111 #
1$
b00000000000000000000000001100111 &
#206
0$
#207
b00000000000000000000000001101000 #
1$
b00000000000000000000000001101000 &
#208
0$
#209
b00000000000000000000000001101001 #
1$
b00000000000000000000000001101001 &
#210
0$
#211
b00000000000000000000000001101010 #
1$
b00000000000000000000000001101010 &
#212
0$
#213
b00000000000000000000000001101011 #
1$
b00000000000000000000000001101011 &
#214
0$
#215
b00000000000000000000000001101100 #
1$
b00000000000000000000000001101100 &
#216
0$
#217
b00000000000000000000000001101101 #
1$
b00000000000000000000000001101101 &
#218
0$
#219
b00000000000000000000000001101110 #
1$
b00000000000000000000000001101110 &
#220
0$
#221
b00000000000000000000000001101111 #
1$
b00000000000000000000000001101111 &
#222
0$
#223
b00000000000000000000000001110000 #
1$
b00000000000000000000000001110000 &
#224
0$
#225
b00000000000000000000000001110001 #
1$
b00000000000000000000000001110001 &
#226
0$
#227
b00000000000000000000000001110010 #
1$
b00000000000000000000000001110010 &
#228
0$
#229
b00000000000000000000000001110011 #
1$
b00000000000000000000000001110011 &
#230
0$
#231
b00000000000000000000000001110100 #
1$
b00000000000000000000000001110100 &
#232
0$
#233
b00000000000000000000000001110101 #
1$
b00000000000000000000000001110101 &
#234
0$
#235
b00000000000000000000000001110110 #
1$
b00000000000000000000000001110110 &
#236
0$
#237
b00000000000000000000000001110111 #
1$
b00000000000000000000000001110111 &
#238
0$
#239
b00000000000000000000000001111000 #
1$
b00000000000000000000000001111000 &
#240
0$
#241
b00000000000000000000000001111001 #
1$
b00000000000000000000000001111001 &
#242
0$
#243
b00000000000000000000000001111010 #
1$
b00000000000000000000000001111010 &
#244
0$
#245
b00000000000000000000000001111011 #
1$
b00000000000000000000000001111011 &
#246
0$
#247
b00000000000000000000000001111100 #
1$
b00000000000000000000000001111100 &
#248
0$
#249
b00000000000000000000000001111101 #
1$
b00000000000000000000000001111101 &
#250
0$
#251
b00000000000000000000000001111110 #
1$
b00000000000000000000000001111110 &
#252
0$
#253
b00000000000000000000000001111111 #
1$
b00000000000000000000000001111111 &
#254
0$
#255
b00000000000000000000000010000000 #
1$
b00000000000000000000000010000000 &
#256
0$
#257
b00000000000000000000000010000001 #
1$
b00000000000000000000000010000001 &
#258
0$
#259
b00000000000000000000000010000010 #
1$
b00000000000000000000000010000010 &
#260
0$
#261
b00000000000000000000000010000011 #
1$
b00000000000000000000000010000011 &
#262
0$
#263
b00000000000000000000000010000100 #
1$
b00000000000000000000000010000100 &
#264
0$
#265
b00000000000000000000000010000101 #
1$
b00000000000000000000000010000101 &
#266
0$
#267
b00000000000000000000000010000110 #
1$
b00000000000000000000000010000110 &
#268
0$
#269
b00000000000000000000000010000111 #
1$
b00000000000000000000000010000111 &
#270
0$
#271
b00000000000000000000000010001000 #
1$
b00000000000000000000000010001000 &
#272
0$
#273
b00000000000000000000000010001001 #
1$
b00000000000000000000000010001001 &
#274
0$
#275
b00000000000000000000000010001010 #
1$
b00000000000000000000000010001010 &
#276
0$
#277
b00000000000000000000000010001011 #
1$
b00000000000000000000000010001011 &
#278
0$
#279
b00000000000000000000000010001100 #
1$
b00000000000000000000000010001100 &
#280
0$
#281
b00000000000000000000000010001101 #
1$
b00000000000000000000000010001101 &
#282
0$
#283
b00000000000000000000000010001110 #
1$
b00000000000000000000000010001110 &
#284
0$
#285
b00000000000000000000000010001111 #
1$
b00000000000000000000000010001111 &
#286
0$
#287
b00000000000000000000000010010000 #
1$
b00000000000000000000000010010000 &
#288
0$
#289
b00000000000000000000000010010001 #
1$
b00000000000000000000000010010001 &
#290
0$
#291
b00000000000000000000000010010010 #
1$
b00000000000000000000000010010010 &
#292
0$
#293
b00000000000000000000000010010011 #
1$
b00000000000000000000000010010011 &
#294
0$
#295
b00000000000000000000000010010100 #
1$
b00000000000000000000000010010100 &
#296
0$
#297
b00000000000000000000000010010101 #
1$
b00000000000000000000000010010101 &
#298
0$
#299
b00000000000000000000000010010110 #
1$
b00000000000000000000000010010110 &
#300
0$
#301
b00000000000000000000000010010111 #
1$
b00000000000000000000000010010111 &
#302
0$
#303
b00000000000000000000000010011000 #
1$
b00000000000000000000000010011000 &
#304
0$
#305
b00000000000000000000000010011001 #
1$
b00000000000000000000000010011001 &
#306
0$
#307
b00000000000000000000000010011010 #
1$
b00000000000000000000000010011010 &
#308
0$
#309
b00000000000000000000000010011011 #
1$
b00000000000000000000000010011011 &
#310
0$
#311
b00000000000000000000000010011100 #
1$
b00000000000000000000000010011100 &
#312
0$
#313
b00000000000000000000000010011101 #
1$
b00000000000000000000000010011101 &
#314
0$
#315
b00000000000000000000000010011110 #
1$
b00000000000000000000000010011110 &
#316
0$
#317
b00000000000000000000000010011111 #
1$
b00000000000000000000000010011111 &
#318
0$
#319
b00000000000000000000000010100000 #
1$
b00000000000000000000000010100000 &
#320
0$
#321
b00000000000000000000000010100001 #
1$
b00000000000000000000000010100001 &
#322
0$
#323
b00000000000000000000000010100010 #
1$
b00000000000000000000000010100010 &
#324
0$
#325
b00000000000000000000000010100011 #
1$
b00000000000000000000000010100011 &
#326
0$
#327
b00000000000000000000000010100100 #
1$
b00000000000000000000000010100100 &
#328
0$
#329
b00000000000000000000000010100101 #
1$
b00000000000000000000000010100101 &
#330
0$
#331
b00000000000000000000000010100110 #
1$
b00000000000000000000000010100110 &
#332
0$
#333
b00000000000000000000000010100111 #
1$
b00000000000000000000000010100111 &
#334
0$
#335
b00000000000000000000000010101000 #
1$
b00000000000000000000000010101000 &
#336
0$
#337
b00000000000000000000000010101001 #
1$
b00000000000000000000000010101001 &
#338
0$
#339
b00000000000000000000000010101010 #
1$
b00000000000000000000000010101010 &
#340
0$
#341
b00000000000000000000000010101011 #
1$
b00000000000000000000000010101011 &
#342
0$
#343
b00000000000000000000000010101100 #
1$
b00000000000000000000000010101100 &
#344
0$
#345
b00000000000000000000000010101101 #
1$
b00000000000000000000000010101101 &
#346
0$
#347
b00000000000000000000000010101110 #
1$
b00000000000000000000000010101110 &
#348
0$
#349
b00000000000000000000000010101111 #
1$
b00000000000000000000000010101111 &
#350
0$
#351
b00000000000000000000000010110000 #
1$
b00000000000000000000000010110000 &
#352
0$
#353
b00000000000000000000000010110001 #
1$
b00000000000000000000000010110001 &
#354
0$
#355
b00000000000000000000000010110010 #
1$
b00000000000000000000000010110010 &
#356
0$
#357
b00000000000000000000000010110011 #
1$
b00000000000000000000000010110011 &
#358
0$
#359
b00000000000000000000000010110100 #
1$
b00000000000000000000000010110100 &
#360
0$
#361
b00000000000000000000000010110101 #
1$
b00000000000000000000000010110101 &
#362
0$
#363
b00000000000000000000000010110110 #
1$
b00000000000000000000000010110110 &
#364
0$
#365
b00000000000000000000000010110111 #
1$
b00000000000000000000000010110111 &
#366
0$
#367
b00000000000000000000000010111000 #
1$
b00000000000000000000000010111000 &
#368
0$
#369
b00000000000000000000000010111001 #
1$
b00000000000000000000000010111001 &
#370
0$
#371
b00000000000000000000000010111010 #
1$
b00000000000000000000000010111010 &
#372
0$
#373
b00000000000000000000000010111011 #
1$
b00000000000000000000000010111011 &
#374
0$
#375
b00000000000000000000000010111100 #
1$
b00000000000000000000000010111100 &
#376
0$
#377
b00000000000000000000000010111101 #
1$
b00000000000000000000000010111101 &
#378
0$
#379
b00000000000000000000000010111110 #
1$
b00000000000000000000000010111110 &
#380
0$
#381
b00000000000000000000000010111111 #
1$
b00000000000000000000000010111111 &
#382
0$
#383
b00000000000000000000000011000000 #
1$
b00000000000000000000000011000000 &
#384
0$
#385
b00000000000000000000000011000001 #
1$
b00000000000000000000000011000001 &
#386
0$
#387
b00000000000000000000000011000010 #
1$
b00000000000000000000000011000010 &
#388
0$
#389
b00000000000000000000000011000011 #
1$
b00000000000000000000000011000011 &
#390
0$
#391
b00000000000000000000000011000100 #
1$
b00000000000000000000000011000100 &
#392
0$
#393
b00000000000000000000000011000101 #
1$
b00000000000000000000000011000101 &
#394
0$
#395
b00000000000000000000000011000110 #
1$
b00000000000000000000000011000110 &
#396
0$
#397
b00000000000000000000000011000111 #
1$
b00000000000000000000000011000111 &
#398
0$
#399
b00000000000000000000000011001000 #
1$
b00000000000000000000000011001000 &
#400
0$
#401
b00000000000000000000000011001001 #
1$
b00000000000000000000000011001001 &
#402
0$
#403
b00000000000000000000000011001010 #
1$
b00000000000000000000000011001010 &
#404
0$
#405
b00000000000000000000000011001011 #
1$
b00000000000000000000000011001011 &
#406
0$
#407
b00000000000000000000000011001100 #
1$
b00000000000000000000000011001100 &
#408
0$
#409
b00000000000000000000000011001101 #
1$
b00000000000000000000000011001101 &
#410
0$
#411
b00000000000000000000000011001110 #
1$
b00000000000000000000000011001110 &
#412
0$
#413
b00000000000000000000000011001111 #
1$
b00000000000000000000000011001111 &
#414
0$
#415
b00000000000000000000000011010000 #
1$
b00000000000000000000000011010000 &
#416
0$
#417
b00000000000000000000000011010001 #
1$
b00000000000000000000000011010001 &
#418
0$
#419
b00000000000000000000000011010010 #
1$
b00000000000000000000000011010010 &
#420
0$
#421
b00000000000000000000000011010011 #
1$
b00000000000000000000000011010011 &
#422
0$
#423
b00000000000000000000000011010100 #
1$
b00000000000000000000000011010100 &
#424
0$
#425
b00000000000000000000000011010101 #
1$
b00000000000000000000000011010101 &
#426
0$
#427
b00000000000000000000000011010110 #
1$
b00000000000000000000000011010110 &
#428
0$
#429
b00000000000000000000000011010111 #
1$
b00000000000000000000000011010111 &
#430
0$
#431
b00000000000000000000000011011000 #
1$
b00000000000000000000000011011000 &
#432
0$
#433
b00000000000000000000000011011001 #
1$
b00000000000000000000000011011001 &
#434
0$
#435
b00000000000000000000000011011010 #
1$
b00000000000000000000000011011010 &
#436
0$
#437
b00000000000000000000000011011011 #
1$
b00000000000000000000000011011011 &
#438
0$
#439
b00000000000000000000000011011100 #
1$
b00000000000000000000000011011100 &
#440
0$
#441
b00000000000000000000000011011101 #
1$
b00000000000000000000000011011101 &
#442
0$
#443
b00000000000000000000000011011110 #
1$
b00000000000000000000000011011110 &
#444
0$
#445
b00000000000000000000000011011111 #
1$
b00000000000000000000000011011111 &
#446
0$
#447
b00000000000000000000000011100000 #
1$
b00000000000000000000000011100000 &
#448
0$
#449
b00000000000000000000000011100001 #
1$
b00000000000000000000000011100001 &
#450
0$
#451
b00000000000000000000000011100010 #
1$
b00000000000000000000000011100010 &
#452
0$
#453
b00000000000000000000000011100011 #
1$
b00000000000000000000000011100011 &
#454
0$
#455
b00000000000000000000000011100100 #
1$
b00000000000000000000000011100100 &
#456
0$
#457
b00000000000000000000000011100101 #
1$
b00000000000000000000000011100101 &
#458
0$
#459
b00000000000000000000000011100110 #
1$
b00000000000000000000000011100110 &
#460
0$
#461
b00000000000000000000000011100111 #
1$
b00000000000000000000000011100111 &
#462
0$
#463
b00000000000000000000000011101000 #
1$
b00000000000000000000000011101000 &
#464
0$
#465
b00000000000000000000000011101001 #
1$
b00000000000000000000000011101001 &
#466
0$
#467
b00000000000000000000000011101010 #
1$
b00000000000000000000000011101010 &
#468
0$
#469
b00000000000000000000000011101011 #
1$
b00000000000000000000000011101011 &
#470
0$
#471
b00000000000000000000000011101100 #
1$
b00000000000000000000000011101100 &
#472
0$
#473
b00000000000000000000000011101101 #
1$
b00000000000000000000000011101101 &
#474
0$
#475
b00000000000000000000000011101110 #
1$
b00000000000000000000000011101110 &
#476
0$
#477
b00000000000000000000000011101111 #
1$
b00000000000000000000000011101111 &
#478
0$
#479
b00000000000000000000000011110000 #
1$
b00000000000000000000000011110000 &
#480
0$
#481
b00000000000000000000000011110001 #
1$
b00000000000000000000000011110001 &
#482
0$
#483
b00000000000000000000000011110010 #
1$
b00000000000000000000000011110010 &
#484
0$
#485
b00000000000000000000000011110011 #
1$
b00000000000000000000000011110011 &
#486
0$
#487
b00000000000000000000000011110100 #
1$
b00000000000000000000000011110100 &
#488
0$
#489
b00000000000000000000000011110101 #
1$
b00000000000000000000000011110101 &
#490
0$
#491
b00000000000000000000000011110110 #
1$
b00000000000000000000000011110110 &
#492
0$
#493
b00000000000000000000000011110111 #
1$
b00000000000000000000000011110111 &
#494
0$
#495
b00000000000000000000000011111000 #
1$
b00000000000000000000000011111000 &
#496
0$
#497
b00000000000000000000000011111001 #
1$
b00000000000000000000000011111001 &
#498
0$
#499
b00000000000000000000000011111010 #
1$
b00000000000000000000000011111010 &
#500
0$
#501
b00000000000000000000000011111011 #
1$
b00000000000000000000000011111011 &
#502
0$
#503
b00000000000000000000000011111100 #
1$
b00000000000000000000000011111100 &
#504
0$
#505
b00000000000000000000000011111101 #
1$
b00000000000000000000000011111101 &
#506
0$
#507
b00000000000000000000000011111110 #
1$
b00000000000000000000000011111110 &
#508
0$
#509
b00000000000000000000000011111111 #
1$
b00000000000000000000000011111111 &
#510
0$
#511
b00000000000000000000000100000000 #
1$
b00000000000000000000000100000000 &
#512
0$
#513
b00000000000000000000000100000001 #
1$
b00000000000000000000000100000001 &
#514
0$
#515
b00000000000000000000000100000010 #
1$
b00000000000000000000000100000010 &
#516
0$
#517
b00000000000000000000000100000011 #
1$
b00000000000000000000000100000011 &
#518
0$
#519
b00000000000000000000000100000100 #
1$
b00000000000000000000000100000100 &
#520
0$
#521
b00000000000000000000000100000101 #
1$
b00000000000000000000000100000101 &
#522
0$
#523
b00000000000000000000000100000110 #
1$
b00000000000000000000000100000110 &
#524
0$
#525
b00000000000000000000000100000111 #
1$
b00000000000000000000000100000111 &
#526
0$
#527
b00000000000000000000000100001000 #
1$
b00000000000000000000000100001000 &
#528
0$
#529
b00000000000000000000000100001001 #
1$
b00000000000000000000000100001001 &
#530
0$
#531
b00000000000000000000000100001010 #
1$
b00000000000000000000000100001010 &
#532
0$
#533
b00000000000000000000000100001011 #
1$
b00000000000000000000000100001011 &
#534
0$
#535
b00000000000000000000000100001100 #
1$
b00000000000000000000000100001100 &
#536
0$
#537
b00000000000000000000000100001101 #
1$
b00000000000000000000000100001101 &
#538
0$
#539
b00000000000000000000000100001110 #
1$
b00000000000000000000000100001110 &
#540
0$
#541
b00000000000000000000000100001111 #
1$
b00000000000000000000000100001111 &
#542
0$
#543
b00000000000000000000000100010000 #
1$
b00000000000000000000000100010000 &
#544
0$
#545
b00000000000000000000000100010001 #
1$
b00000000000000000000000100010001 &
#546
0$
#547
b00000000000000000000000100010010 #
1$
b00000000000000000000000100010010 &
#548
0$
#549
b00000000000000000000000100010011 #
1$
b00000000000000000000000100010011 &
#550
0$
#551
b00000000000000000000000100010100 #
1$
b00000000000000000000000100010100 &
#552
0$
#553
b00000000000000000000000100010101 #
1$
b00000000000000000000000100010101 &
#554
0$
#555
b00000000000000000000000100010110 #
1$
b00000000000000000000000100010110 &
#556
0$
#557
b00000000000000000000000100010111 #
1$
b00000000000000000000000100010111 &
#558
0$
#559
b00000000000000000000000100011000 #
1$
b00000000000000000000000100011000 &
#560
0$
#561
b00000000000000000000000100011001 #
1$
b00000000000000000000000100011001 &
#562
0$
#563
b00000000000000000000000100011010 #
1$
b00000000000000000000000100011010 &
#564
0$
#565
b00000000000000000000000100011011 #
1$
b00000000000000000000000100011011 &
#566
0$
#567
b00000000000000000000000100011100 #
1$
b00000000000000000000000100011100 &
#568
0$
#569
b00000000000000000000000100011101 #
1$
b00000000000000000000000100011101 &
#570
0$
#571
b00000000000000000000000100011110 #
1$
b00000000000000000000000100011110 &
#572
0$
#573
b00000000000000000000000100011111 #
1$
b00000000000000000000000100011111 &
#574
0$
#575
b00000000000000000000000100100000 #
1$
b00000000000000000000000100100000 &
#576
0$
#577
b00000000000000000000000100100001 #
1$
b00000000000000000000000100100001 &
#578
0$
#579
b00000000000000000000000100100010 #
1$
b00000000000000000000000100100010 &
#580
0$
#581
b00000000000000000000000100100011 #
1$
b00000000000000000000000100100011 &
#582
0$
#583
b00000000000000000000000100100100 #
1$
b00000000000000000000000100100100 &
#584
0$
#585
b00000000000000000000000100100101 #
1$
b00000000000000000000000100100101 &
#586
0$
#587
b00000000000000000000000100100110 #
1$
b00000000000000000000000100100110 &
#588
0$
#589
b00000000000000000000000100100111 #
1$
b00000000000000000000000100100111 &
#590
0$
#591
b00000000000000000000000100101000 #
1$
b00000000000000000000000100101000 &
#592
0$
#593
b00000000000000000000000100101001 #
1$
b00000000000000000000000100101001 &
#594
0$
#595
b00000000000000000000000100101010 #
1$
b00000000000000000000000100101010 &
#596
0$
#597
b00000000000000000000000100101011 #
1$
b00000000000000000000000100101011 &
#598
0$
#599
b00000000000000000000000100101100 #
1$
b00000000000000000000000100101100 &
#600
0$
#601
b00000000000000000000000100101101 #
1$
b00000000000000000000000100101101 &
#602
0$
#603
b00000000000000000000000100101110 #
1$
b00000000000000000000000100101110 &
#604
0$
#605
b00000000000000000000000100101111 #
1$
b00000000000000000000000100101111 &
#606
0$
#607
b00000000000000000000000100110000 #
1$
b00000000000000000000000100110000 &
#608
0$
#609
b00000000000000000000000100110001 #
1$
b00000000000000000000000100110001 &
#610
0$
#611
b00000000000000000000000100110010 #
1$
b00000000000000000000000100110010 &
#612
0$
#613
b00000000000000000000000100110011 #
1$
b00000000000000000000000100110011 &
#614
0$
#615
b00000000000000000000000100110100 #
1$
b00000000000000000000000100110100 &
#616
0$
#617
b00000000000000000000000100110101 #
1$
b00000000000000000000000100110101 &
#618
0$
#619
b00000000000000000000000100110110 #
1$
b00000000000000000000000100110110 &
#620
0$
#621
b00000000000000000000000100110111 #
1$
b00000000000000000000000100110111 &
#622
0$
#623
b00000000000000000000000100111000 #
1$
b00000000000000000000000100111000 &
#624
0$
#625
b00000000000000000000000100111001 #
1$
b00000000000000000000000100111001 &
#626
0$
#627
b00000000000000000000000100111010 #
1$
b00000000000000000000000100111010 &
#628
0$
#629
b00000000000000000000000100111011 #
1$
b00000000000000000000000100111011 &
#630
0$
#631
b00000000000000000000000100111100 #
1$
b00000000000000000000000100111100 &
#632
0$
#633
b00000000000000000000000100111101 #
1$
b00000000000000000000000100111101 &
#634
0$
#635
b00000000000000000000000100111110 #
1$
b00000000000000000000000100111110 &
#636
0$
#637
b00000000000000000000000100111111 #
1$
b00000000000000000000000100111111 &
#638
0$
#639
b00000000000000000000000101000000 #
1$
b00000000000000000000000101000000 &
#640
0$
#641
b00000000000000000000000101000001 #
1$
b00000000000000000000000101000001 &
#642
0$
#643
b00000000000000000000000101000010 #
1$
b00000000000000000000000101000010 &
#644
0$
#645
b00000000000000000000000101000011 #
1$
b00000000000000000000000101000011 &
#646
0$
#647
b00000000000000000000000101000100 #
1$
b00000000000000000000000101000100 &
#648
0$
#649
b00000000000000000000000101000101 #
1$
b00000000000000000000000101000101 &
#650
0$
#651
b00000000000000000000000101000110 #
1$
b00000000000000000000000101000110 &
#652
0$
#653
b00000000000000000000000101000111 #
1$
b00000000000000000000000101000111 &
#654
0$
#655
b00000000000000000000000101001000 #
1$
b00000000000000000000000101001000 &
#656
0$
#657
b00000000000000000000000101001001 #
1$
b00000000000000000000000101001001 &
#658
0$
#659
b00000000000000000000000101001010 #
1$
b00000000000000000000000101001010 &
#660
0$
#661
b00000000000000000000000101001011 #
1$
b00000000000000000000000101001011 &
#662
0$
#663
b00000000000000000000000101001100 #
1$
b00000000000000000000000101001100 &
#664
0$
#665
b00000000000000000000000101001101 #
1$
b00000000000000000000000101001101 &
#666
0$
#667
b00000000000000000000000101001110 #
1$
b00000000000000000000000101001110 &
#668
0$
#669
b00000000000000000000000101001111 #
1$
b00000000000000000000000101001111 &
#670
0$
#671
b00000000000000000000000101010000 #
1$
b00000000000000000000000101010000 &
#672
0$
#673
b00000000000000000000000101010001 #
1$
b00000000000000000000000101010001 &
#674
0$
#675
b00000000000000000000000101010010 #
1$
b00000000000000000000000101010010 &
#676
0$
#677
b00000000000000000000000101010011 #
1$
b00000000000000000000000101010011 &
#678
0$
#679
b00000000000000000000000101010100 #
1$
b00000000000000000000000101010100 &
#680
0$
#681
b00000000000000000000000101010101 #
1$
b00000000000000000000000101010101 &
#682
0$
#683
b00000000000000000000000101010110 #
1$
b00000000000000000000000101010110 &
#684
0$
#685
b00000000000000000000000101010111 #
1$
b00000000000000000000000101010111 &
#686
0$
#687
b00000000000000000000000101011000 #
1$
b00000000000000000000000101011000 &
#688
0$
#689
b00000000000000000000000101011001 #
1$
b00000000000000000000000101011001 &
#690
0$
#691
b00000000000000000000000101011010 #
1$
b00000000000000000000000101011010 &
#692
0$
#693
b00000000000000000000000101011011 #
1$
b00000000000000000000000101011011 &
#694
0$
#695
b00000000000000000000000101011100 #
1$
b00000000000000000000000101011100 &
#696
0$
#697
b00000000000000000000000101011101 #
1$
b00000000000000000000000101011101 &
#698
0$
#699
b00000000000000000000000101011110 #
1$
b00000000000000000000000101011110 &
#700
0$
#701
b00000000000000000000000101011111 #
1$
b00000000000000000000000101011111 &
