riscv-mini-five-stage/vcd/Adder_Buffer.vcd
$version Generated by VerilatedVcd $end
$date Mon Jul 15 16:04:30 2019
 $end
$timescale   1ns $end

 $scope module TOP $end
  $var wire  1 5 clock $end
  $var wire 32 7 io_addr_input [31:0] $end
  $var wire  1 8 io_flush $end
  $var wire 32 : io_front [31:0] $end
  $var wire  1 9 io_record $end
  $var wire  1 6 reset $end
  $scope module Addr_Buffer $end
   $var wire 32 # buffer(0) [31:0] $end
   $var wire 32 $ buffer(1) [31:0] $end
   $var wire 32 % buffer(2) [31:0] $end
   $var wire  2 D buffer__T_102_addr [1:0] $end
   $var wire 32 ; buffer__T_102_data [31:0] $end
   $var wire  1 G buffer__T_102_en $end
   $var wire  1 G buffer__T_102_mask $end
   $var wire  2 D buffer__T_108_addr [1:0] $end
   $var wire 32 & buffer__T_108_data [31:0] $end
   $var wire  2 D buffer__T_110_addr [1:0] $end
   $var wire 32 & buffer__T_110_data [31:0] $end
   $var wire  2 F buffer__T_114_addr [1:0] $end
   $var wire 32 < buffer__T_114_data [31:0] $end
   $var wire  1 G buffer__T_114_en $end
   $var wire  1 G buffer__T_114_mask $end
   $var wire  2 F buffer__T_120_addr [1:0] $end
   $var wire 32 ( buffer__T_120_data [31:0] $end
   $var wire  2 F buffer__T_122_addr [1:0] $end
   $var wire 32 ( buffer__T_122_data [31:0] $end
   $var wire  2 E buffer__T_126_addr [1:0] $end
   $var wire 32 = buffer__T_126_data [31:0] $end
   $var wire  1 G buffer__T_126_en $end
   $var wire  1 G buffer__T_126_mask $end
   $var wire  2 E buffer__T_132_addr [1:0] $end
   $var wire 32 ' buffer__T_132_data [31:0] $end
   $var wire  2 E buffer__T_134_addr [1:0] $end
   $var wire 32 ' buffer__T_134_data [31:0] $end
   $var wire  2 D buffer__T_17_addr [1:0] $end
   $var wire 32 & buffer__T_17_data [31:0] $end
   $var wire  2 E buffer__T_18_addr [1:0] $end
   $var wire 32 ' buffer__T_18_data [31:0] $end
   $var wire  2 F buffer__T_23_addr [1:0] $end
   $var wire 32 ( buffer__T_23_data [31:0] $end
   $var wire  2 E buffer__T_24_addr [1:0] $end
   $var wire 32 ' buffer__T_24_data [31:0] $end
   $var wire  1 5 clock $end
   $var wire  2 ) counter(0) [1:0] $end
   $var wire  2 * counter(1) [1:0] $end
   $var wire  2 + counter(2) [1:0] $end
   $var wire  2 D counter__T_104_addr [1:0] $end
   $var wire  2 , counter__T_104_data [1:0] $end
   $var wire  2 F counter__T_116_addr [1:0] $end
   $var wire  2 - counter__T_116_data [1:0] $end
   $var wire  2 D counter__T_11_addr [1:0] $end
   $var wire  2 , counter__T_11_data [1:0] $end
   $var wire  2 E counter__T_128_addr [1:0] $end
   $var wire  2 . counter__T_128_data [1:0] $end
   $var wire  2 F counter__T_12_addr [1:0] $end
   $var wire  2 - counter__T_12_data [1:0] $end
   $var wire  2 D counter__T_14_addr [1:0] $end
   $var wire  2 , counter__T_14_data [1:0] $end
   $var wire  2 E counter__T_15_addr [1:0] $end
   $var wire  2 . counter__T_15_data [1:0] $end
   $var wire  2 F counter__T_20_addr [1:0] $end
   $var wire  2 - counter__T_20_data [1:0] $end
   $var wire  2 E counter__T_21_addr [1:0] $end
   $var wire  2 . counter__T_21_data [1:0] $end
   $var wire  2 D counter__T_53_addr [1:0] $end
   $var wire  2 , counter__T_53_data [1:0] $end
   $var wire  2 F counter__T_59_addr [1:0] $end
   $var wire  2 - counter__T_59_data [1:0] $end
   $var wire  2 E counter__T_65_addr [1:0] $end
   $var wire  2 . counter__T_65_data [1:0] $end
   $var wire  2 D counter__T_69_addr [1:0] $end
   $var wire  2 > counter__T_69_data [1:0] $end
   $var wire  1 G counter__T_69_en $end
   $var wire  1 G counter__T_69_mask $end
   $var wire  2 D counter__T_71_addr [1:0] $end
   $var wire  2 , counter__T_71_data [1:0] $end
   $var wire  2 D counter__T_74_addr [1:0] $end
   $var wire  2 , counter__T_74_data [1:0] $end
   $var wire  2 D counter__T_76_addr [1:0] $end
   $var wire  2 , counter__T_76_data [1:0] $end
   $var wire  2 F counter__T_80_addr [1:0] $end
   $var wire  2 ? counter__T_80_data [1:0] $end
   $var wire  1 G counter__T_80_en $end
   $var wire  1 G counter__T_80_mask $end
   $var wire  2 F counter__T_82_addr [1:0] $end
   $var wire  2 - counter__T_82_data [1:0] $end
   $var wire  2 F counter__T_85_addr [1:0] $end
   $var wire  2 - counter__T_85_data [1:0] $end
   $var wire  2 F counter__T_87_addr [1:0] $end
   $var wire  2 - counter__T_87_data [1:0] $end
   $var wire  2 E counter__T_91_addr [1:0] $end
   $var wire  2 @ counter__T_91_data [1:0] $end
   $var wire  1 G counter__T_91_en $end
   $var wire  1 G counter__T_91_mask $end
   $var wire  2 E counter__T_93_addr [1:0] $end
   $var wire  2 . counter__T_93_data [1:0] $end
   $var wire  2 E counter__T_96_addr [1:0] $end
   $var wire  2 . counter__T_96_data [1:0] $end
   $var wire  2 E counter__T_98_addr [1:0] $end
   $var wire  2 . counter__T_98_data [1:0] $end
   $var wire 32 7 io_addr_input [31:0] $end
   $var wire  1 8 io_flush $end
   $var wire 32 : io_front [31:0] $end
   $var wire  1 9 io_record $end
   $var wire  1 / is_used(0) $end
   $var wire  1 0 is_used(1) $end
   $var wire  1 1 is_used(2) $end
   $var wire  2 D is_used__T_27_addr [1:0] $end
   $var wire  1 2 is_used__T_27_data $end
   $var wire  2 F is_used__T_29_addr [1:0] $end
   $var wire  1 3 is_used__T_29_data $end
   $var wire  2 D is_used__T_35_addr [1:0] $end
   $var wire  1 2 is_used__T_35_data $end
   $var wire  2 D is_used__T_37_addr [1:0] $end
   $var wire  1 2 is_used__T_37_data $end
   $var wire  2 F is_used__T_41_addr [1:0] $end
   $var wire  1 3 is_used__T_41_data $end
   $var wire  2 F is_used__T_43_addr [1:0] $end
   $var wire  1 3 is_used__T_43_data $end
   $var wire  2 E is_used__T_47_addr [1:0] $end
   $var wire  1 4 is_used__T_47_data $end
   $var wire  2 E is_used__T_49_addr [1:0] $end
   $var wire  1 4 is_used__T_49_data $end
   $var wire  2 D is_used__T_51_addr [1:0] $end
   $var wire  1 A is_used__T_51_data $end
   $var wire  1 G is_used__T_51_en $end
   $var wire  1 G is_used__T_51_mask $end
   $var wire  2 F is_used__T_57_addr [1:0] $end
   $var wire  1 B is_used__T_57_data $end
   $var wire  1 G is_used__T_57_en $end
   $var wire  1 G is_used__T_57_mask $end
   $var wire  2 E is_used__T_63_addr [1:0] $end
   $var wire  1 C is_used__T_63_data $end
   $var wire  1 G is_used__T_63_en $end
   $var wire  1 G is_used__T_63_mask $end
   $var wire  2 D is_used__T_73_addr [1:0] $end
   $var wire  1 2 is_used__T_73_data $end
   $var wire  2 F is_used__T_84_addr [1:0] $end
   $var wire  1 3 is_used__T_84_data $end
   $var wire  2 E is_used__T_95_addr [1:0] $end
   $var wire  1 4 is_used__T_95_data $end
   $var wire  1 6 reset $end
  $upscope $end
 $upscope $end
$enddefinitions $end


#0
b00000000000000000000000000000000 #
b00000000000000000000000000000000 $
b00000000000000000000000000000000 %
b00000000000000000000000000000000 &
b00000000000000000000000000000000 '
b00000000000000000000000000000000 (
b00 )
b00 *
b00 +
b00 ,
b00 -
b00 .
0/
00
01
02
03
04
05
06
b00000000000000000000000000001010 7
08
19
b00000000000000000000000000000000 :
b00000000000000000000000000001010 ;
b00000000000000000000000000000000 <
b00000000000000000000000000000000 =
b00 >
b00 ?
b00 @
1A
0B
0C
b00 D
b10 E
b01 F
1G
#1
b00000000000000000000000000001010 #
b00000000000000000000000000001010 &
1/
12
15
b00000000000000000000000000001010 <
b01 >
1B
#2
05
b00000000000000000000000000010100 7
b00000000000000000000000000010100 <
#3
b00000000000000000000000000010100 $
b00000000000000000000000000010100 (
b01 )
b01 ,
10
13
15
b00000000000000000000000000001010 :
b00000000000000000000000000010100 =
b10 >
b01 ?
1C
#4
05
b00000000000000000000000000011110 7
b00000000000000000000000000011110 =
#5
b00000000000000000000000000011110 %
b00000000000000000000000000011110 '
b10 )
b01 *
b10 ,
b01 -
11
14
15
b00000000000000000000000000000000 ;
b00 >
b10 ?
b01 @
0A
#6
05
b00000000000000000000000000101000 7
18
09
b00000000000000000000000000000000 <
b00000000000000000000000000000000 =
b00 ?
b00 @
0B
0C
#7
b00000000000000000000000000000000 #
b00000000000000000000000000000000 $
b00000000000000000000000000000000 %
b00000000000000000000000000000000 &
b00000000000000000000000000000000 '
b00000000000000000000000000000000 (
b00 )
b00 *
b00 ,
b00 -
0/
00
01
02
03
04
15
b00000000000000000000000000000000 :
#8
05
b00000000000000000000000000110010 7
08
#9
15
#10
05
b00000000000000000000000000111100 7
#11
15
#12
05
b00000000000000000000000001000110 7
#13
15
#14
05
b00000000000000000000000001010000 7
#15
15
#16
05
b00000000000000000000000001011010 7
#17
15
#18
05
b00000000000000000000000001100100 7
#19
15
#20
05
b00000000000000000000000001101110 7
#21
15
#22
05
b00000000000000000000000001111000 7
#23
15
#24
05
b00000000000000000000000010000010 7
#25
15
#26
05
b00000000000000000000000010001100 7
#27
15
#28
05
b00000000000000000000000010010110 7
#29
15
#30
05
b00000000000000000000000010100000 7
#31
15
#32
05
b00000000000000000000000010101010 7
#33
15
#34
05
b00000000000000000000000010110100 7
#35
15
#36
05
b00000000000000000000000010111110 7
#37
15
#38
05
b00000000000000000000000011001000 7
#39
15
#40
05
b00000000000000000000000011010010 7
#41
15
#42
05
b00000000000000000000000011011100 7
#43
15
#44
05
b00000000000000000000000011100110 7
#45
15
#46
05
b00000000000000000000000011110000 7
#47
15
#48
05
b00000000000000000000000011111010 7
#49
15
#50
05
b00000000000000000000000100000100 7
#51
15
#52
05
b00000000000000000000000100001110 7
#53
15
#54
05
b00000000000000000000000100011000 7
#55
15
#56
05
b00000000000000000000000100100010 7
#57
15
#58
05
b00000000000000000000000100101100 7
#59
15
#60
05
b00000000000000000000000100110110 7
#61
15
#62
05
b00000000000000000000000101000000 7
#63
15
#64
05
b00000000000000000000000101001010 7
#65
15
#66
05
b00000000000000000000000101010100 7
#67
15
#68
05
b00000000000000000000000101011110 7
#69
15
#70
05
b00000000000000000000000101101000 7
#71
15
#72
05
b00000000000000000000000101110010 7
#73
15
#74
05
b00000000000000000000000101111100 7
#75
15
#76
05
b00000000000000000000000110000110 7
#77
15
#78
05
b00000000000000000000000110010000 7
#79
15
#80
05
b00000000000000000000000110011010 7
#81
15
#82
05
b00000000000000000000000110100100 7
#83
15
#84
05
b00000000000000000000000110101110 7
#85
15
#86
05
b00000000000000000000000110111000 7
#87
15
#88
05
b00000000000000000000000111000010 7
#89
15
#90
05
b00000000000000000000000111001100 7
#91
15
#92
05
b00000000000000000000000111010110 7
#93
15
#94
05
b00000000000000000000000111100000 7
#95
15
#96
05
b00000000000000000000000111101010 7
#97
15
#98
05
b00000000000000000000000111110100 7
#99
15
#100
05
b00000000000000000000000111111110 7
#101
15
#102
05
b00000000000000000000001000001000 7
#103
15
#104
05
b00000000000000000000001000010010 7
#105
15
#106
05
b00000000000000000000001000011100 7
#107
15
#108
05
b00000000000000000000001000100110 7
#109
15
#110
05
b00000000000000000000001000110000 7
#111
15
#112
05
b00000000000000000000001000111010 7
#113
15
#114
05
b00000000000000000000001001000100 7
#115
15
#116
05
b00000000000000000000001001001110 7
#117
15
#118
05
b00000000000000000000001001011000 7
#119
15
#120
05
b00000000000000000000001001100010 7
#121
15
#122
05
b00000000000000000000001001101100 7
#123
15
#124
05
b00000000000000000000001001110110 7
#125
15
#126
05
b00000000000000000000001010000000 7
#127
15
#128
05
b00000000000000000000001010001010 7
#129
15
#130
05
b00000000000000000000001010010100 7
#131
15
#132
05
b00000000000000000000001010011110 7
#133
15
#134
05
b00000000000000000000001010101000 7
#135
15
#136
05
b00000000000000000000001010110010 7
#137
15
#138
05
b00000000000000000000001010111100 7
#139
15
#140
05
b00000000000000000000001011000110 7
#141
15
#142
05
b00000000000000000000001011010000 7
#143
15
#144
05
b00000000000000000000001011011010 7
#145
15
#146
05
b00000000000000000000001011100100 7
#147
15
#148
05
b00000000000000000000001011101110 7
#149
15
#150
05
b00000000000000000000001011111000 7
#151
15
#152
05
b00000000000000000000001100000010 7
#153
15
#154
05
b00000000000000000000001100001100 7
#155
15
#156
05
b00000000000000000000001100010110 7
#157
15
#158
05
b00000000000000000000001100100000 7
#159
15
#160
05
b00000000000000000000001100101010 7
#161
15
#162
05
b00000000000000000000001100110100 7
#163
15
#164
05
b00000000000000000000001100111110 7
#165
15
#166
05
b00000000000000000000001101001000 7
#167
15
#168
05
b00000000000000000000001101010010 7
#169
15
#170
05
b00000000000000000000001101011100 7
#171
15
#172
05
b00000000000000000000001101100110 7
#173
15
#174
05
b00000000000000000000001101110000 7
#175
15
#176
05
b00000000000000000000001101111010 7
#177
15
#178
05
b00000000000000000000001110000100 7
#179
15
#180
05
b00000000000000000000001110001110 7
#181
15
#182
05
b00000000000000000000001110011000 7
#183
15
#184
05
b00000000000000000000001110100010 7
#185
15
#186
05
b00000000000000000000001110101100 7
#187
15
#188
05
b00000000000000000000001110110110 7
#189
15
#190
05
b00000000000000000000001111000000 7
#191
15
#192
05
b00000000000000000000001111001010 7
#193
15
#194
05
b00000000000000000000001111010100 7
#195
15
#196
05
b00000000000000000000001111011110 7
#197
15
#198
05
b00000000000000000000001111101000 7
#199
15
#200
05
b00000000000000000000001111110010 7
#201
15
#202
05
b00000000000000000000001111111100 7
#203
15
#204
05
b00000000000000000000010000000110 7
#205
15
#206
05
b00000000000000000000010000010000 7
#207
15
#208
05
b00000000000000000000010000011010 7
#209
15
#210
05
b00000000000000000000010000100100 7
#211
15
#212
05
b00000000000000000000010000101110 7
#213
15
#214
05
b00000000000000000000010000111000 7
#215
15
#216
05
b00000000000000000000010001000010 7
#217
15
#218
05
b00000000000000000000010001001100 7
#219
15
#220
05
b00000000000000000000010001010110 7
#221
15
#222
05
b00000000000000000000010001100000 7
#223
15
#224
05
b00000000000000000000010001101010 7
#225
15
#226
05
b00000000000000000000010001110100 7
#227
15
#228
05
b00000000000000000000010001111110 7
#229
15
#230
05
b00000000000000000000010010001000 7
#231
15
#232
05
b00000000000000000000010010010010 7
#233
15
#234
05
b00000000000000000000010010011100 7
#235
15
#236
05
b00000000000000000000010010100110 7
#237
15
#238
05
b00000000000000000000010010110000 7
#239
15
#240
05
b00000000000000000000010010111010 7
#241
15
#242
05
b00000000000000000000010011000100 7
#243
15
#244
05
b00000000000000000000010011001110 7
#245
15
#246
05
b00000000000000000000010011011000 7
#247
15
#248
05
b00000000000000000000010011100010 7
#249
15
#250
05
b00000000000000000000010011101100 7
#251
15
#252
05
b00000000000000000000010011110110 7
#253
15
#254
05
b00000000000000000000010100000000 7
#255
15
#256
05
b00000000000000000000010100001010 7
#257
15
#258
05
b00000000000000000000010100010100 7
#259
15
#260
05
b00000000000000000000010100011110 7
#261
15
#262
05
b00000000000000000000010100101000 7
#263
15
#264
05
b00000000000000000000010100110010 7
#265
15
#266
05
b00000000000000000000010100111100 7
#267
15
#268
05
b00000000000000000000010101000110 7
#269
15
#270
05
b00000000000000000000010101010000 7
#271
15
#272
05
b00000000000000000000010101011010 7
#273
15
#274
05
b00000000000000000000010101100100 7
#275
15
#276
05
b00000000000000000000010101101110 7
#277
15
#278
05
b00000000000000000000010101111000 7
#279
15
#280
05
b00000000000000000000010110000010 7
#281
15
#282
05
b00000000000000000000010110001100 7
#283
15
#284
05
b00000000000000000000010110010110 7
#285
15
#286
05
b00000000000000000000010110100000 7
#287
15
#288
05
b00000000000000000000010110101010 7
#289
15
#290
05
b00000000000000000000010110110100 7
#291
15
#292
05
b00000000000000000000010110111110 7
#293
15
#294
05
b00000000000000000000010111001000 7
#295
15
#296
05
b00000000000000000000010111010010 7
#297
15
#298
05
b00000000000000000000010111011100 7
#299
15
#300
05
b00000000000000000000010111100110 7
#301
15
#302
05
b00000000000000000000010111110000 7
#303
15
#304
05
b00000000000000000000010111111010 7
#305
15
#306
05
b00000000000000000000011000000100 7
#307
15
#308
05
b00000000000000000000011000001110 7
#309
15
#310
05
b00000000000000000000011000011000 7
#311
15
#312
05
b00000000000000000000011000100010 7
#313
15
#314
05
b00000000000000000000011000101100 7
#315
15
#316
05
b00000000000000000000011000110110 7
#317
15
#318
05
b00000000000000000000011001000000 7
#319
15
#320
05
b00000000000000000000011001001010 7
#321
15
#322
05
b00000000000000000000011001010100 7
#323
15
#324
05
b00000000000000000000011001011110 7
#325
15
#326
05
b00000000000000000000011001101000 7
#327
15
#328
05
b00000000000000000000011001110010 7
#329
15
#330
05
b00000000000000000000011001111100 7
#331
15
#332
05
b00000000000000000000011010000110 7
#333
15
#334
05
b00000000000000000000011010010000 7
#335
15
#336
05
b00000000000000000000011010011010 7
#337
15
#338
05
b00000000000000000000011010100100 7
#339
15
#340
05
b00000000000000000000011010101110 7
#341
15
#342
05
b00000000000000000000011010111000 7
#343
15
#344
05
b00000000000000000000011011000010 7
#345
15
#346
05
b00000000000000000000011011001100 7
#347
15
#348
05
b00000000000000000000011011010110 7
#349
15
#350
05
b00000000000000000000011011100000 7
#351
15
#352
05
b00000000000000000000011011101010 7
#353
15
#354
05
b00000000000000000000011011110100 7
#355
15
#356
05
b00000000000000000000011011111110 7
#357
15
#358
05
b00000000000000000000011100001000 7
#359
15
#360
05
b00000000000000000000011100010010 7
#361
15
#362
05
b00000000000000000000011100011100 7
#363
15
#364
05
b00000000000000000000011100100110 7
#365
15
#366
05
b00000000000000000000011100110000 7
#367
15
#368
05
b00000000000000000000011100111010 7
#369
15
#370
05
b00000000000000000000011101000100 7
#371
15
#372
05
b00000000000000000000011101001110 7
#373
15
#374
05
b00000000000000000000011101011000 7
#375
15
#376
05
b00000000000000000000011101100010 7
#377
15
#378
05
b00000000000000000000011101101100 7
#379
15
#380
05
b00000000000000000000011101110110 7
#381
15
#382
05
b00000000000000000000011110000000 7
#383
15
#384
05
b00000000000000000000011110001010 7
#385
15
#386
05
b00000000000000000000011110010100 7
#387
15
#388
05
b00000000000000000000011110011110 7
#389
15
#390
05
b00000000000000000000011110101000 7
#391
15
#392
05
b00000000000000000000011110110010 7
#393
15
#394
05
b00000000000000000000011110111100 7
#395
15
#396
05
b00000000000000000000011111000110 7
#397
15
#398
05
b00000000000000000000011111010000 7
#399
15
#400
05
b00000000000000000000011111011010 7
#401
15
#402
05
b00000000000000000000011111100100 7
#403
15
#404
05
b00000000000000000000011111101110 7
#405
15
#406
05
b00000000000000000000011111111000 7
#407
15
#408
05
b00000000000000000000100000000010 7
#409
15
#410
05
b00000000000000000000100000001100 7
#411
15
#412
05
b00000000000000000000100000010110 7
#413
15
#414
05
b00000000000000000000100000100000 7
#415
15
#416
05
b00000000000000000000100000101010 7
#417
15
#418
05
b00000000000000000000100000110100 7
#419
15
#420
05
b00000000000000000000100000111110 7
#421
15
#422
05
b00000000000000000000100001001000 7
#423
15
#424
05
b00000000000000000000100001010010 7
#425
15
#426
05
b00000000000000000000100001011100 7
#427
15
#428
05
b00000000000000000000100001100110 7
#429
15
#430
05
b00000000000000000000100001110000 7
#431
15
#432
05
b00000000000000000000100001111010 7
#433
15
#434
05
b00000000000000000000100010000100 7
#435
15
#436
05
b00000000000000000000100010001110 7
#437
15
#438
05
b00000000000000000000100010011000 7
#439
15
#440
05
b00000000000000000000100010100010 7
#441
15
#442
05
b00000000000000000000100010101100 7
#443
15
#444
05
b00000000000000000000100010110110 7
#445
15
#446
05
b00000000000000000000100011000000 7
#447
15
#448
05
b00000000000000000000100011001010 7
#449
15
#450
05
b00000000000000000000100011010100 7
#451
15
#452
05
b00000000000000000000100011011110 7
#453
15
#454
05
b00000000000000000000100011101000 7
#455
15
#456
05
b00000000000000000000100011110010 7
#457
15
#458
05
b00000000000000000000100011111100 7
#459
15
#460
05
b00000000000000000000100100000110 7
#461
15
#462
05
b00000000000000000000100100010000 7
#463
15
#464
05
b00000000000000000000100100011010 7
#465
15
#466
05
b00000000000000000000100100100100 7
#467
15
#468
05
b00000000000000000000100100101110 7
#469
15
#470
05
b00000000000000000000100100111000 7
#471
15
#472
05
b00000000000000000000100101000010 7
#473
15
#474
05
b00000000000000000000100101001100 7
#475
15
#476
05
b00000000000000000000100101010110 7
#477
15
#478
05
b00000000000000000000100101100000 7
#479
15
#480
05
b00000000000000000000100101101010 7
#481
15
#482
05
b00000000000000000000100101110100 7
#483
15
#484
05
b00000000000000000000100101111110 7
#485
15
#486
05
b00000000000000000000100110001000 7
#487
15
#488
05
b00000000000000000000100110010010 7
#489
15
#490
05
b00000000000000000000100110011100 7
#491
15
#492
05
b00000000000000000000100110100110 7
#493
15
#494
05
b00000000000000000000100110110000 7
#495
15
#496
05
b00000000000000000000100110111010 7
#497
15
#498
05
b00000000000000000000100111000100 7
#499
15
#500
05
b00000000000000000000100111001110 7
#501
15
#502
05
b00000000000000000000100111011000 7
#503
15
#504
05
b00000000000000000000100111100010 7
#505
15
#506
05
b00000000000000000000100111101100 7
#507
15
#508
05
b00000000000000000000100111110110 7
#509
15
#510
05
b00000000000000000000101000000000 7
#511
15
#512
05
b00000000000000000000101000001010 7
#513
15
#514
05
b00000000000000000000101000010100 7
#515
15
#516
05
b00000000000000000000101000011110 7
#517
15
#518
05
b00000000000000000000101000101000 7
#519
15
#520
05
b00000000000000000000101000110010 7
#521
15
#522
05
b00000000000000000000101000111100 7
#523
15
#524
05
b00000000000000000000101001000110 7
#525
15
#526
05
b00000000000000000000101001010000 7
#527
15
#528
05
b00000000000000000000101001011010 7
#529
15
#530
05
b00000000000000000000101001100100 7
#531
15
#532
05
b00000000000000000000101001101110 7
#533
15
#534
05
b00000000000000000000101001111000 7
#535
15
#536
05
b00000000000000000000101010000010 7
#537
15
#538
05
b00000000000000000000101010001100 7
#539
15
#540
05
b00000000000000000000101010010110 7
#541
15
#542
05
b00000000000000000000101010100000 7
#543
15
#544
05
b00000000000000000000101010101010 7
#545
15
#546
05
b00000000000000000000101010110100 7
#547
15
#548
05
b00000000000000000000101010111110 7
#549
15
#550
05
b00000000000000000000101011001000 7
#551
15
#552
05
b00000000000000000000101011010010 7
#553
15
#554
05
b00000000000000000000101011011100 7
#555
15
#556
05
b00000000000000000000101011100110 7
#557
15
#558
05
b00000000000000000000101011110000 7
#559
15
#560
05
b00000000000000000000101011111010 7
#561
15
#562
05
b00000000000000000000101100000100 7
#563
15
#564
05
b00000000000000000000101100001110 7
#565
15
#566
05
b00000000000000000000101100011000 7
#567
15
#568
05
b00000000000000000000101100100010 7
#569
15
#570
05
b00000000000000000000101100101100 7
#571
15
#572
05
b00000000000000000000101100110110 7
#573
15
#574
05
b00000000000000000000101101000000 7
#575
15
#576
05
b00000000000000000000101101001010 7
#577
15
#578
05
b00000000000000000000101101010100 7
#579
15
#580
05
b00000000000000000000101101011110 7
#581
15
#582
05
b00000000000000000000101101101000 7
#583
15
#584
05
b00000000000000000000101101110010 7
#585
15
#586
05
b00000000000000000000101101111100 7
#587
15
#588
05
b00000000000000000000101110000110 7
#589
15
#590
05
b00000000000000000000101110010000 7
#591
15
#592
05
b00000000000000000000101110011010 7
#593
15
#594
05
b00000000000000000000101110100100 7
#595
15
#596
05
b00000000000000000000101110101110 7
#597
15
#598
05
b00000000000000000000101110111000 7
#599
15
#600
05
b00000000000000000000101111000010 7
#601
15
#602
05
b00000000000000000000101111001100 7
#603
15
#604
05
b00000000000000000000101111010110 7
#605
15
#606
05
b00000000000000000000101111100000 7
#607
15
#608
05
b00000000000000000000101111101010 7
#609
15
#610
05
b00000000000000000000101111110100 7
#611
15
#612
05
b00000000000000000000101111111110 7
#613
15
#614
05
b00000000000000000000110000001000 7
#615
15
#616
05
b00000000000000000000110000010010 7
#617
15
#618
05
b00000000000000000000110000011100 7
#619
15
#620
05
b00000000000000000000110000100110 7
#621
15
#622
05
b00000000000000000000110000110000 7
#623
15
#624
05
b00000000000000000000110000111010 7
#625
15
#626
05
b00000000000000000000110001000100 7
#627
15
#628
05
b00000000000000000000110001001110 7
#629
15
#630
05
b00000000000000000000110001011000 7
#631
15
#632
05
b00000000000000000000110001100010 7
#633
15
#634
05
b00000000000000000000110001101100 7
#635
15
#636
05
b00000000000000000000110001110110 7
#637
15
#638
05
b00000000000000000000110010000000 7
#639
15
#640
05
b00000000000000000000110010001010 7
#641
15
#642
05
b00000000000000000000110010010100 7
#643
15
#644
05
b00000000000000000000110010011110 7
#645
15
#646
05
b00000000000000000000110010101000 7
#647
15
#648
05
b00000000000000000000110010110010 7
#649
15
#650
05
b00000000000000000000110010111100 7
#651
15
#652
05
b00000000000000000000110011000110 7
#653
15
#654
05
b00000000000000000000110011010000 7
#655
15
#656
05
b00000000000000000000110011011010 7
#657
15
#658
05
b00000000000000000000110011100100 7
#659
15
#660
05
b00000000000000000000110011101110 7
#661
15
#662
05
b00000000000000000000110011111000 7
#663
15
#664
05
b00000000000000000000110100000010 7
#665
15
#666
05
b00000000000000000000110100001100 7
#667
15
#668
05
b00000000000000000000110100010110 7
#669
15
#670
05
b00000000000000000000110100100000 7
#671
15
#672
05
b00000000000000000000110100101010 7
#673
15
#674
05
b00000000000000000000110100110100 7
#675
15
#676
05
b00000000000000000000110100111110 7
#677
15
#678
05
b00000000000000000000110101001000 7
#679
15
#680
05
b00000000000000000000110101010010 7
#681
15
#682
05
b00000000000000000000110101011100 7
#683
15
#684
05
b00000000000000000000110101100110 7
#685
15
#686
05
b00000000000000000000110101110000 7
#687
15
#688
05
b00000000000000000000110101111010 7
#689
15
#690
05
b00000000000000000000110110000100 7
#691
15
#692
05
b00000000000000000000110110001110 7
#693
15
#694
05
b00000000000000000000110110011000 7
#695
15
#696
05
b00000000000000000000110110100010 7
#697
15
#698
05
b00000000000000000000110110101100 7
#699
15
#700
05
b00000000000000000000110110110110 7
#701
15
#702
05
b00000000000000000000110111000000 7
#703
15
#704
05
b00000000000000000000110111001010 7
#705
15
#706
05
b00000000000000000000110111010100 7
#707
15
#708
05
b00000000000000000000110111011110 7
#709
15
#710
05
b00000000000000000000110111101000 7
#711
15
#712
05
b00000000000000000000110111110010 7
#713
15
#714
05
b00000000000000000000110111111100 7
#715
15
#716
05
b00000000000000000000111000000110 7
#717
15
#718
05
b00000000000000000000111000010000 7
#719
15
#720
05
b00000000000000000000111000011010 7
#721
15
#722
05
b00000000000000000000111000100100 7
#723
15
#724
05
b00000000000000000000111000101110 7
#725
15
#726
05
b00000000000000000000111000111000 7
#727
15
#728
05
b00000000000000000000111001000010 7
#729
15
#730
05
b00000000000000000000111001001100 7
#731
15
#732
05
b00000000000000000000111001010110 7
#733
15
#734
05
b00000000000000000000111001100000 7
#735
15
#736
05
b00000000000000000000111001101010 7
#737
15
#738
05
b00000000000000000000111001110100 7
#739
15
#740
05
b00000000000000000000111001111110 7
#741
15
#742
05
b00000000000000000000111010001000 7
#743
15
#744
05
b00000000000000000000111010010010 7
#745
15
#746
05
b00000000000000000000111010011100 7
#747
15
#748
05
b00000000000000000000111010100110 7
#749
15
#750
05
b00000000000000000000111010110000 7
#751
15
#752
05
b00000000000000000000111010111010 7
#753
15
#754
05
b00000000000000000000111011000100 7
#755
15
#756
05
b00000000000000000000111011001110 7
#757
15
#758
05
b00000000000000000000111011011000 7
#759
15
#760
05
b00000000000000000000111011100010 7
#761
15
#762
05
b00000000000000000000111011101100 7
#763
15
#764
05
b00000000000000000000111011110110 7
#765
15
#766
05
b00000000000000000000111100000000 7
#767
15
#768
05
b00000000000000000000111100001010 7
#769
15
#770
05
b00000000000000000000111100010100 7
#771
15
#772
05
b00000000000000000000111100011110 7
#773
15
#774
05
b00000000000000000000111100101000 7
#775
15
#776
05
b00000000000000000000111100110010 7
#777
15
#778
05
b00000000000000000000111100111100 7
#779
15
#780
05
b00000000000000000000111101000110 7
#781
15
#782
05
b00000000000000000000111101010000 7
#783
15
#784
05
b00000000000000000000111101011010 7
#785
15
#786
05
b00000000000000000000111101100100 7
#787
15
#788
05
b00000000000000000000111101101110 7
#789
15
#790
05
b00000000000000000000111101111000 7
#791
15
#792
05
b00000000000000000000111110000010 7
#793
15
#794
05
b00000000000000000000111110001100 7
#795
15
#796
05
b00000000000000000000111110010110 7
#797
15
#798
05
b00000000000000000000111110100000 7
#799
15
#800
05
b00000000000000000000111110101010 7
#801
15
#802
05
b00000000000000000000111110110100 7
#803
15
#804
05
b00000000000000000000111110111110 7
#805
15
#806
05
b00000000000000000000111111001000 7
#807
15
#808
05
b00000000000000000000111111010010 7
#809
15
#810
05
b00000000000000000000111111011100 7
#811
15
#812
05
b00000000000000000000111111100110 7
#813
15
#814
05
b00000000000000000000111111110000 7
#815
15
#816
05
b00000000000000000000111111111010 7
#817
15
#818
05
b00000000000000000001000000000100 7
#819
15
#820
05
b00000000000000000001000000001110 7
#821
15
#822
05
b00000000000000000001000000011000 7
#823
15
#824
05
b00000000000000000001000000100010 7
#825
15
#826
05
b00000000000000000001000000101100 7
#827
15
#828
05
b00000000000000000001000000110110 7
#829
15
#830
05
b00000000000000000001000001000000 7
#831
15
#832
05
b00000000000000000001000001001010 7
#833
15
#834
05
b00000000000000000001000001010100 7
#835
15
#836
05
b00000000000000000001000001011110 7
#837
15
#838
05
b00000000000000000001000001101000 7
#839
15
#840
05
b00000000000000000001000001110010 7
#841
15
#842
05
b00000000000000000001000001111100 7
#843
15
#844
05
b00000000000000000001000010000110 7
#845
15
#846
05
b00000000000000000001000010010000 7
#847
15
#848
05
b00000000000000000001000010011010 7
#849
15
#850
05
b00000000000000000001000010100100 7
#851
15
#852
05
b00000000000000000001000010101110 7
#853
15
#854
05
b00000000000000000001000010111000 7
#855
15
#856
05
b00000000000000000001000011000010 7
#857
15
#858
05
b00000000000000000001000011001100 7
#859
15
