riscv-mini-five-stage/vcd/InstCache.vcd
$version Generated by VerilatedVcd $end
$date Tue Jul  9 14:13:31 2019
 $end
$timescale   1ns $end

 $scope module TOP $end
  $var wire  1 # clock $end
  $var wire 32 % io_addr [31:0] $end
  $var wire 32 & io_inst [31:0] $end
  $var wire  1 $ reset $end
  $scope module InstCache $end
   $var wire 10 , cache__T_11_addr [9:0] $end
   $var wire  8 + cache__T_11_data [7:0] $end
   $var wire 10 . cache__T_13_addr [9:0] $end
   $var wire  8 - cache__T_13_data [7:0] $end
   $var wire 10 ( cache__T_7_addr [9:0] $end
   $var wire  8 ' cache__T_7_data [7:0] $end
   $var wire 10 * cache__T_9_addr [9:0] $end
   $var wire  8 ) cache__T_9_data [7:0] $end
   $var wire  1 # clock $end
   $var wire 32 % io_addr [31:0] $end
   $var wire 32 & io_inst [31:0] $end
   $var wire  1 $ reset $end
   $scope module BindsTo_0_InstCache_Inst $end
    $var wire  1 # clock $end
    $var wire 32 % io_addr [31:0] $end
    $var wire 32 & io_inst [31:0] $end
    $var wire  1 $ reset $end
   $upscope $end
  $upscope $end
 $upscope $end
$enddefinitions $end


#0
0#
0$
b00000000000000000000000000000100 %
b00000010000000000000000010010011 &
b00000010 '
b0000000100 (
b00000000 )
b0000000101 *
b00000000 +
b0000000110 ,
b10010011 -
b0000000111 .
#1
1#
#2
0#
b00000000000000000000000000001000 %
b00000000000100000000001110010011 &
b00000000 '
b0000001000 (
b00010000 )
b0000001001 *
b00000011 +
b0000001010 ,
b0000001011 .
#3
1#
#4
0#
b00000000000000000000000000001100 %
b00000000000100000000010100010011 &
b0000001100 (
b0000001101 *
b00000101 +
b0000001110 ,
b00010011 -
b0000001111 .
#5
1#
#6
0#
b00000000000000000000000000010000 %
b00000000101000001010001000100011 &
b0000010000 (
b10100000 )
b0000010001 *
b10100010 +
b0000010010 ,
b00100011 -
b0000010011 .
#7
1#
#8
0#
b00000000000000000000000000010100 %
b00000000000101010000010100010011 &
b0000010100 (
b00010101 )
b0000010101 *
b00000101 +
b0000010110 ,
b00010011 -
b0000010111 .
#9
1#
#10
0#
b00000000000000000000000000011000 %
b00000000101000001010000000100011 &
b0000011000 (
b10100000 )
b0000011001 *
b10100000 +
b0000011010 ,
b00100011 -
b0000011011 .
#11
1#
#12
0#
b00000000000000000000000000011100 %
b00000000000101010000010100010011 &
b0000011100 (
b00010101 )
b0000011101 *
b00000101 +
b0000011110 ,
b00010011 -
b0000011111 .
#13
1#
#14
0#
b00000000000000000000000000100000 %
b00000000101000001010100000100011 &
b0000100000 (
b10100000 )
b0000100001 *
b10101000 +
b0000100010 ,
b00100011 -
b0000100011 .
#15
1#
#16
0#
b00000000000000000000000000100100 %
b00000000000101010000010100010011 &
b0000100100 (
b00010101 )
b0000100101 *
b00000101 +
b0000100110 ,
b00010011 -
b0000100111 .
#17
1#
#18
0#
b00000000000000000000000000101000 %
b00000000101000001010011000100011 &
b0000101000 (
b10100000 )
b0000101001 *
b10100110 +
b0000101010 ,
b00100011 -
b0000101011 .
#19
1#
#20
0#
b00000000000000000000000000101100 %
b00000000000101010000010100010011 &
b0000101100 (
b00010101 )
b0000101101 *
b00000101 +
b0000101110 ,
b00010011 -
b0000101111 .
#21
1#
#22
0#
b00000000000000000000000000110000 %
b00000000101000001010010000100011 &
b0000110000 (
b10100000 )
b0000110001 *
b10100100 +
b0000110010 ,
b00100011 -
b0000110011 .
#23
1#
#24
0#
b00000000000000000000000000110100 %
b00000000001100000000010100010011 &
b0000110100 (
b00110000 )
b0000110101 *
b00000101 +
b0000110110 ,
b00010011 -
b0000110111 .
#25
1#
#26
0#
b00000000000000000000000000111000 %
b00000000010100000000011000010011 &
b0000111000 (
b01010000 )
b0000111001 *
b00000110 +
b0000111010 ,
b0000111011 .
#27
1#
#28
0#
b00000000000000000000000000111100 %
b00000000000100000000000100010011 &
b0000111100 (
b00010000 )
b0000111101 *
b00000001 +
b0000111110 ,
b0000111111 .
#29
1#
#30
0#
b00000000000000000000000001000000 %
b00000000001000000000000110110011 &
b0001000000 (
b00100000 )
b0001000001 *
b0001000010 ,
b10110011 -
b0001000011 .
#31
1#
#32
0#
b00000000000000000000000001000100 %
b00000000000000000000010110010011 &
b0001000100 (
b00000000 )
b0001000101 *
b00000101 +
b0001000110 ,
b10010011 -
b0001000111 .
#33
1#
#34
0#
b00000000000000000000000001001000 %
b00000000001100000000010000110011 &
b0001001000 (
b00110000 )
b0001001001 *
b00000100 +
b0001001010 ,
b00110011 -
b0001001011 .
#35
1#
#36
0#
b00000000000000000000000001001100 %
b00000000001101000000010000110011 &
b0001001100 (
b00110100 )
b0001001101 *
b0001001110 ,
b0001001111 .
#37
1#
#38
0#
b00000000000000000000000001010000 %
b00000000000101011000010110010011 &
b0001010000 (
b00010101 )
b0001010001 *
b10000101 +
b0001010010 ,
b10010011 -
b0001010011 .
#39
1#
#40
0#
b00000000000000000000000001010100 %
b11111110101001011100111011100011 &
b11111110 '
b0001010100 (
b10100101 )
b0001010101 *
b11001110 +
b0001010110 ,
b11100011 -
b0001010111 .
#41
1#
#42
0#
b00000000000000000000000001011000 %
b11111111110001000000010010010011 &
b11111111 '
b0001011000 (
b11000100 )
b0001011001 *
b00000100 +
b0001011010 ,
b10010011 -
b0001011011 .
#43
1#
#44
0#
b00000000000000000000000001011100 %
b00000000000101000000010000110011 &
b00000000 '
b0001011100 (
b00010100 )
b0001011101 *
b0001011110 ,
b00110011 -
b0001011111 .
#45
1#
#46
0#
b00000000000000000000000001100000 %
b00000000000101001000010010110011 &
b0001100000 (
b0001100001 *
b10000100 +
b0001100010 ,
b10110011 -
b0001100011 .
#47
1#
#48
0#
b00000000000000000000000001100100 %
b00000000000001000010001010000011 &
b0001100100 (
b00000100 )
b0001100101 *
b00100010 +
b0001100110 ,
b10000011 -
b0001100111 .
#49
1#
#50
0#
b00000000000000000000000001101000 %
b00000000000001001010001100000011 &
b0001101000 (
b0001101001 *
b10100011 +
b0001101010 ,
b00000011 -
b0001101011 .
#51
1#
#52
0#
b00000000000000000000000001101100 %
b00000000011000101101010001100011 &
b0001101100 (
b01100010 )
b0001101101 *
b11010100 +
b0001101110 ,
b01100011 -
b0001101111 .
#53
1#
#54
0#
b00000000000000000000000001110000 %
b00000000010100000000001000110011 &
b0001110000 (
b01010000 )
b0001110001 *
b00000010 +
b0001110010 ,
b00110011 -
b0001110011 .
#55
1#
#56
0#
b00000000000000000000000001110100 %
b00000000011000000000001010110011 &
b0001110100 (
b01100000 )
b0001110101 *
b0001110110 ,
b10110011 -
b0001110111 .
#57
1#
#58
0#
b00000000000000000000000001111000 %
b00000000010000000000001100110011 &
b0001111000 (
b01000000 )
b0001111001 *
b00000011 +
b0001111010 ,
b00110011 -
b0001111011 .
#59
1#
#60
0#
b00000000000000000000000001111100 %
b00000000010101000010000000100011 &
b0001111100 (
b01010100 )
b0001111101 *
b00100000 +
b0001111110 ,
b00100011 -
b0001111111 .
#61
1#
#62
0#
b00000000000000000000000010000000 %
b00000000011001001010000000100011 &
b0010000000 (
b01100100 )
b0010000001 *
b10100000 +
b0010000010 ,
b0010000011 .
#63
1#
#64
0#
b00000000000000000000000010000100 %
b11111111111100011000000110010011 &
b11111111 '
b0010000100 (
b11110001 )
b0010000101 *
b10000001 +
b0010000110 ,
b10010011 -
b0010000111 .
#65
1#
#66
0#
b00000000000000000000000010001000 %
b11111100011100011101111111100011 &
b11111100 '
b0010001000 (
b01110001 )
b0010001001 *
b11011111 +
b0010001010 ,
b11100011 -
b0010001011 .
#67
1#
#68
0#
b00000000000000000000000010001100 %
b00000000000100010000000100010011 &
b00000000 '
b0010001100 (
b00010001 )
b0010001101 *
b00000001 +
b0010001110 ,
b00010011 -
b0010001111 .
#69
1#
#70
0#
b00000000000000000000000010010000 %
b11111100110000010100110011100011 &
b11111100 '
b0010010000 (
b11000001 )
b0010010001 *
b01001100 +
b0010010010 ,
b11100011 -
b0010010011 .
#71
1#
#72
0#
b00000000000000000000000010010100 %
b00000000000000000000000000010011 &
b00000000 '
b0010010100 (
b00000000 )
b0010010101 *
b00000000 +
b0010010110 ,
b00010011 -
b0010010111 .
#73
1#
#74
0#
b00000000000000000000000010011000 %
b0010011000 (
b0010011001 *
b0010011010 ,
b0010011011 .
#75
1#
#76
0#
b00000000000000000000000010011100 %
b00000000000000000000000000000000 &
b0010011100 (
b0010011101 *
b0010011110 ,
b00000000 -
b0010011111 .
#77
1#
#78
0#
b00000000000000000000000010100000 %
b0010100000 (
b0010100001 *
b0010100010 ,
b0010100011 .
#79
1#
#80
0#
b00000000000000000000000010100100 %
b0010100100 (
b0010100101 *
b0010100110 ,
b0010100111 .
#81
1#
#82
0#
b00000000000000000000000010101000 %
b0010101000 (
b0010101001 *
b0010101010 ,
b0010101011 .
#83
1#
#84
0#
b00000000000000000000000010101100 %
b0010101100 (
b0010101101 *
b0010101110 ,
b0010101111 .
#85
1#
#86
0#
b00000000000000000000000010110000 %
b0010110000 (
b0010110001 *
b0010110010 ,
b0010110011 .
#87
1#
#88
0#
b00000000000000000000000010110100 %
b0010110100 (
b0010110101 *
b0010110110 ,
b0010110111 .
#89
1#
#90
0#
b00000000000000000000000010111000 %
b0010111000 (
b0010111001 *
b0010111010 ,
b0010111011 .
#91
1#
#92
0#
b00000000000000000000000010111100 %
b0010111100 (
b0010111101 *
b0010111110 ,
b0010111111 .
#93
1#
#94
0#
b00000000000000000000000011000000 %
b0011000000 (
b0011000001 *
b0011000010 ,
b0011000011 .
#95
1#
#96
0#
b00000000000000000000000011000100 %
b0011000100 (
b0011000101 *
b0011000110 ,
b0011000111 .
#97
1#
#98
0#
b00000000000000000000000011001000 %
b0011001000 (
b0011001001 *
b0011001010 ,
b0011001011 .
#99
1#
#100
0#
b00000000000000000000000011001100 %
b0011001100 (
b0011001101 *
b0011001110 ,
b0011001111 .
#101
1#
#102
0#
b00000000000000000000000011010000 %
b0011010000 (
b0011010001 *
b0011010010 ,
b0011010011 .
#103
1#
#104
0#
b00000000000000000000000011010100 %
b0011010100 (
b0011010101 *
b0011010110 ,
b0011010111 .
#105
1#
#106
0#
b00000000000000000000000011011000 %
b0011011000 (
b0011011001 *
b0011011010 ,
b0011011011 .
#107
1#
#108
0#
b00000000000000000000000011011100 %
b0011011100 (
b0011011101 *
b0011011110 ,
b0011011111 .
#109
1#
#110
0#
b00000000000000000000000011100000 %
b0011100000 (
b0011100001 *
b0011100010 ,
b0011100011 .
#111
1#
#112
0#
b00000000000000000000000011100100 %
b0011100100 (
b0011100101 *
b0011100110 ,
b0011100111 .
#113
1#
#114
0#
b00000000000000000000000011101000 %
b0011101000 (
b0011101001 *
b0011101010 ,
b0011101011 .
#115
1#
#116
0#
b00000000000000000000000011101100 %
b0011101100 (
b0011101101 *
b0011101110 ,
b0011101111 .
#117
1#
#118
0#
b00000000000000000000000011110000 %
b0011110000 (
b0011110001 *
b0011110010 ,
b0011110011 .
#119
1#
#120
0#
b00000000000000000000000011110100 %
b0011110100 (
b0011110101 *
b0011110110 ,
b0011110111 .
#121
1#
#122
0#
b00000000000000000000000011111000 %
b0011111000 (
b0011111001 *
b0011111010 ,
b0011111011 .
#123
1#
#124
0#
b00000000000000000000000011111100 %
b0011111100 (
b0011111101 *
b0011111110 ,
b0011111111 .
#125
1#
#126
0#
b00000000000000000000000100000000 %
b0100000000 (
b0100000001 *
b0100000010 ,
b0100000011 .
#127
1#
#128
0#
b00000000000000000000000100000100 %
b0100000100 (
b0100000101 *
b0100000110 ,
b0100000111 .
#129
1#
#130
0#
b00000000000000000000000100001000 %
b0100001000 (
b0100001001 *
b0100001010 ,
b0100001011 .
#131
1#
#132
0#
b00000000000000000000000100001100 %
b0100001100 (
b0100001101 *
b0100001110 ,
b0100001111 .
#133
1#
#134
0#
b00000000000000000000000100010000 %
b0100010000 (
b0100010001 *
b0100010010 ,
b0100010011 .
#135
1#
#136
0#
b00000000000000000000000100010100 %
b0100010100 (
b0100010101 *
b0100010110 ,
b0100010111 .
#137
1#
#138
0#
b00000000000000000000000100011000 %
b0100011000 (
b0100011001 *
b0100011010 ,
b0100011011 .
#139
1#
#140
0#
b00000000000000000000000100011100 %
b0100011100 (
b0100011101 *
b0100011110 ,
b0100011111 .
#141
1#
#142
0#
b00000000000000000000000100100000 %
b0100100000 (
b0100100001 *
b0100100010 ,
b0100100011 .
#143
1#
#144
0#
b00000000000000000000000100100100 %
b0100100100 (
b0100100101 *
b0100100110 ,
b0100100111 .
#145
1#
#146
0#
b00000000000000000000000100101000 %
b0100101000 (
b0100101001 *
b0100101010 ,
b0100101011 .
#147
1#
#148
0#
b00000000000000000000000100101100 %
b0100101100 (
b0100101101 *
b0100101110 ,
b0100101111 .
#149
1#
#150
0#
b00000000000000000000000100110000 %
b0100110000 (
b0100110001 *
b0100110010 ,
b0100110011 .
#151
1#
#152
0#
b00000000000000000000000100110100 %
b0100110100 (
b0100110101 *
b0100110110 ,
b0100110111 .
#153
1#
#154
0#
b00000000000000000000000100111000 %
b0100111000 (
b0100111001 *
b0100111010 ,
b0100111011 .
#155
1#
#156
0#
b00000000000000000000000100111100 %
b0100111100 (
b0100111101 *
b0100111110 ,
b0100111111 .
#157
1#
#158
0#
b00000000000000000000000101000000 %
b0101000000 (
b0101000001 *
b0101000010 ,
b0101000011 .
#159
1#
#160
0#
b00000000000000000000000101000100 %
b0101000100 (
b0101000101 *
b0101000110 ,
b0101000111 .
#161
1#
#162
0#
b00000000000000000000000101001000 %
b0101001000 (
b0101001001 *
b0101001010 ,
b0101001011 .
#163
1#
#164
0#
b00000000000000000000000101001100 %
b0101001100 (
b0101001101 *
b0101001110 ,
b0101001111 .
#165
1#
#166
0#
b00000000000000000000000101010000 %
b0101010000 (
b0101010001 *
b0101010010 ,
b0101010011 .
#167
1#
#168
0#
b00000000000000000000000101010100 %
b0101010100 (
b0101010101 *
b0101010110 ,
b0101010111 .
#169
1#
#170
0#
b00000000000000000000000101011000 %
b0101011000 (
b0101011001 *
b0101011010 ,
b0101011011 .
#171
1#
#172
0#
b00000000000000000000000101011100 %
b0101011100 (
b0101011101 *
b0101011110 ,
b0101011111 .
#173
1#
#174
0#
b00000000000000000000000101100000 %
b0101100000 (
b0101100001 *
b0101100010 ,
b0101100011 .
#175
1#
#176
0#
b00000000000000000000000101100100 %
b0101100100 (
b0101100101 *
b0101100110 ,
b0101100111 .
#177
1#
#178
0#
b00000000000000000000000101101000 %
b0101101000 (
b0101101001 *
b0101101010 ,
b0101101011 .
#179
1#
#180
0#
b00000000000000000000000101101100 %
b0101101100 (
b0101101101 *
b0101101110 ,
b0101101111 .
#181
1#
#182
0#
b00000000000000000000000101110000 %
b0101110000 (
b0101110001 *
b0101110010 ,
b0101110011 .
#183
1#
#184
0#
b00000000000000000000000101110100 %
b0101110100 (
b0101110101 *
b0101110110 ,
b0101110111 .
#185
1#
#186
0#
b00000000000000000000000101111000 %
b0101111000 (
b0101111001 *
b0101111010 ,
b0101111011 .
#187
1#
#188
0#
b00000000000000000000000101111100 %
b0101111100 (
b0101111101 *
b0101111110 ,
b0101111111 .
#189
1#
#190
0#
b00000000000000000000000110000000 %
b0110000000 (
b0110000001 *
b0110000010 ,
b0110000011 .
#191
1#
#192
0#
b00000000000000000000000110000100 %
b0110000100 (
b0110000101 *
b0110000110 ,
b0110000111 .
#193
1#
#194
0#
b00000000000000000000000110001000 %
b0110001000 (
b0110001001 *
b0110001010 ,
b0110001011 .
#195
1#
#196
0#
b00000000000000000000000110001100 %
b0110001100 (
b0110001101 *
b0110001110 ,
b0110001111 .
#197
1#
#198
0#
b00000000000000000000000110010000 %
b0110010000 (
b0110010001 *
b0110010010 ,
b0110010011 .
#199
1#
#200
0#
b00000000000000000000000110010100 %
b0110010100 (
b0110010101 *
b0110010110 ,
b0110010111 .
#201
1#
#202
0#
b00000000000000000000000110011000 %
b0110011000 (
b0110011001 *
b0110011010 ,
b0110011011 .
#203
1#
#204
0#
b00000000000000000000000110011100 %
b0110011100 (
b0110011101 *
b0110011110 ,
b0110011111 .
#205
1#
#206
0#
b00000000000000000000000110100000 %
b0110100000 (
b0110100001 *
b0110100010 ,
b0110100011 .
#207
1#
#208
0#
b00000000000000000000000110100100 %
b0110100100 (
b0110100101 *
b0110100110 ,
b0110100111 .
#209
1#
#210
0#
b00000000000000000000000110101000 %
b0110101000 (
b0110101001 *
b0110101010 ,
b0110101011 .
#211
1#
#212
0#
b00000000000000000000000110101100 %
b0110101100 (
b0110101101 *
b0110101110 ,
b0110101111 .
#213
1#
#214
0#
b00000000000000000000000110110000 %
b0110110000 (
b0110110001 *
b0110110010 ,
b0110110011 .
#215
1#
#216
0#
b00000000000000000000000110110100 %
b0110110100 (
b0110110101 *
b0110110110 ,
b0110110111 .
#217
1#
#218
0#
b00000000000000000000000110111000 %
b0110111000 (
b0110111001 *
b0110111010 ,
b0110111011 .
#219
1#
#220
0#
b00000000000000000000000110111100 %
b0110111100 (
b0110111101 *
b0110111110 ,
b0110111111 .
#221
1#
#222
0#
b00000000000000000000000111000000 %
b0111000000 (
b0111000001 *
b0111000010 ,
b0111000011 .
#223
1#
#224
0#
b00000000000000000000000111000100 %
b0111000100 (
b0111000101 *
b0111000110 ,
b0111000111 .
#225
1#
#226
0#
b00000000000000000000000111001000 %
b0111001000 (
b0111001001 *
b0111001010 ,
b0111001011 .
#227
1#
#228
0#
b00000000000000000000000111001100 %
b0111001100 (
b0111001101 *
b0111001110 ,
b0111001111 .
#229
1#
#230
0#
b00000000000000000000000111010000 %
b0111010000 (
b0111010001 *
b0111010010 ,
b0111010011 .
#231
1#
#232
0#
b00000000000000000000000111010100 %
b0111010100 (
b0111010101 *
b0111010110 ,
b0111010111 .
#233
1#
#234
0#
b00000000000000000000000111011000 %
b0111011000 (
b0111011001 *
b0111011010 ,
b0111011011 .
#235
1#
#236
0#
b00000000000000000000000111011100 %
b0111011100 (
b0111011101 *
b0111011110 ,
b0111011111 .
#237
1#
#238
0#
b00000000000000000000000111100000 %
b0111100000 (
b0111100001 *
b0111100010 ,
b0111100011 .
#239
1#
#240
0#
b00000000000000000000000111100100 %
b0111100100 (
b0111100101 *
b0111100110 ,
b0111100111 .
#241
1#
#242
0#
b00000000000000000000000111101000 %
b0111101000 (
b0111101001 *
b0111101010 ,
b0111101011 .
#243
1#
#244
0#
b00000000000000000000000111101100 %
b0111101100 (
b0111101101 *
b0111101110 ,
b0111101111 .
#245
1#
#246
0#
b00000000000000000000000111110000 %
b0111110000 (
b0111110001 *
b0111110010 ,
b0111110011 .
#247
1#
#248
0#
b00000000000000000000000111110100 %
b0111110100 (
b0111110101 *
b0111110110 ,
b0111110111 .
#249
1#
#250
0#
b00000000000000000000000111111000 %
b0111111000 (
b0111111001 *
b0111111010 ,
b0111111011 .
#251
1#
#252
0#
b00000000000000000000000111111100 %
b0111111100 (
b0111111101 *
b0111111110 ,
b0111111111 .
#253
1#
#254
0#
b00000000000000000000001000000000 %
b1000000000 (
b1000000001 *
b1000000010 ,
b1000000011 .
#255
1#
#256
0#
b00000000000000000000001000000100 %
b1000000100 (
b1000000101 *
b1000000110 ,
b1000000111 .
#257
1#
#258
0#
b00000000000000000000001000001000 %
b1000001000 (
b1000001001 *
b1000001010 ,
b1000001011 .
#259
1#
#260
0#
b00000000000000000000001000001100 %
b1000001100 (
b1000001101 *
b1000001110 ,
b1000001111 .
#261
1#
#262
0#
b00000000000000000000001000010000 %
b1000010000 (
b1000010001 *
b1000010010 ,
b1000010011 .
#263
1#
#264
0#
b00000000000000000000001000010100 %
b1000010100 (
b1000010101 *
b1000010110 ,
b1000010111 .
#265
1#
#266
0#
b00000000000000000000001000011000 %
b1000011000 (
b1000011001 *
b1000011010 ,
b1000011011 .
#267
1#
#268
0#
b00000000000000000000001000011100 %
b1000011100 (
b1000011101 *
b1000011110 ,
b1000011111 .
#269
1#
#270
0#
b00000000000000000000001000100000 %
b1000100000 (
b1000100001 *
b1000100010 ,
b1000100011 .
#271
1#
#272
0#
b00000000000000000000001000100100 %
b1000100100 (
b1000100101 *
b1000100110 ,
b1000100111 .
#273
1#
#274
0#
b00000000000000000000001000101000 %
b1000101000 (
b1000101001 *
b1000101010 ,
b1000101011 .
#275
1#
#276
0#
b00000000000000000000001000101100 %
b1000101100 (
b1000101101 *
b1000101110 ,
b1000101111 .
#277
1#
#278
0#
b00000000000000000000001000110000 %
b1000110000 (
b1000110001 *
b1000110010 ,
b1000110011 .
#279
1#
#280
0#
b00000000000000000000001000110100 %
b1000110100 (
b1000110101 *
b1000110110 ,
b1000110111 .
#281
1#
#282
0#
b00000000000000000000001000111000 %
b1000111000 (
b1000111001 *
b1000111010 ,
b1000111011 .
#283
1#
#284
0#
b00000000000000000000001000111100 %
b1000111100 (
b1000111101 *
b1000111110 ,
b1000111111 .
#285
1#
#286
0#
b00000000000000000000001001000000 %
b1001000000 (
b1001000001 *
b1001000010 ,
b1001000011 .
#287
1#
#288
0#
b00000000000000000000001001000100 %
b1001000100 (
b1001000101 *
b1001000110 ,
b1001000111 .
#289
1#
#290
0#
b00000000000000000000001001001000 %
b1001001000 (
b1001001001 *
b1001001010 ,
b1001001011 .
#291
1#
#292
0#
b00000000000000000000001001001100 %
b1001001100 (
b1001001101 *
b1001001110 ,
b1001001111 .
#293
1#
#294
0#
b00000000000000000000001001010000 %
b1001010000 (
b1001010001 *
b1001010010 ,
b1001010011 .
#295
1#
#296
0#
b00000000000000000000001001010100 %
b1001010100 (
b1001010101 *
b1001010110 ,
b1001010111 .
#297
1#
#298
0#
b00000000000000000000001001011000 %
b1001011000 (
b1001011001 *
b1001011010 ,
b1001011011 .
#299
1#
#300
0#
b00000000000000000000001001011100 %
b1001011100 (
b1001011101 *
b1001011110 ,
b1001011111 .
#301
1#
#302
0#
b00000000000000000000001001100000 %
b1001100000 (
b1001100001 *
b1001100010 ,
b1001100011 .
#303
1#
#304
0#
b00000000000000000000001001100100 %
b1001100100 (
b1001100101 *
b1001100110 ,
b1001100111 .
#305
1#
#306
0#
b00000000000000000000001001101000 %
b1001101000 (
b1001101001 *
b1001101010 ,
b1001101011 .
#307
1#
#308
0#
b00000000000000000000001001101100 %
b1001101100 (
b1001101101 *
b1001101110 ,
b1001101111 .
#309
1#
#310
0#
b00000000000000000000001001110000 %
b1001110000 (
b1001110001 *
b1001110010 ,
b1001110011 .
#311
1#
#312
0#
b00000000000000000000001001110100 %
b1001110100 (
b1001110101 *
b1001110110 ,
b1001110111 .
#313
1#
#314
0#
b00000000000000000000001001111000 %
b1001111000 (
b1001111001 *
b1001111010 ,
b1001111011 .
#315
1#
#316
0#
b00000000000000000000001001111100 %
b1001111100 (
b1001111101 *
b1001111110 ,
b1001111111 .
#317
1#
#318
0#
b00000000000000000000001010000000 %
b1010000000 (
b1010000001 *
b1010000010 ,
b1010000011 .
#319
1#
#320
0#
b00000000000000000000001010000100 %
b1010000100 (
b1010000101 *
b1010000110 ,
b1010000111 .
#321
1#
#322
0#
b00000000000000000000001010001000 %
b1010001000 (
b1010001001 *
b1010001010 ,
b1010001011 .
#323
1#
#324
0#
b00000000000000000000001010001100 %
b1010001100 (
b1010001101 *
b1010001110 ,
b1010001111 .
#325
1#
#326
0#
b00000000000000000000001010010000 %
b1010010000 (
b1010010001 *
b1010010010 ,
b1010010011 .
#327
1#
#328
0#
b00000000000000000000001010010100 %
b1010010100 (
b1010010101 *
b1010010110 ,
b1010010111 .
#329
1#
#330
0#
b00000000000000000000001010011000 %
b1010011000 (
b1010011001 *
b1010011010 ,
b1010011011 .
#331
1#
#332
0#
b00000000000000000000001010011100 %
b1010011100 (
b1010011101 *
b1010011110 ,
b1010011111 .
#333
1#
#334
0#
b00000000000000000000001010100000 %
b1010100000 (
b1010100001 *
b1010100010 ,
b1010100011 .
#335
1#
#336
0#
b00000000000000000000001010100100 %
b1010100100 (
b1010100101 *
b1010100110 ,
b1010100111 .
#337
1#
#338
0#
b00000000000000000000001010101000 %
b1010101000 (
b1010101001 *
b1010101010 ,
b1010101011 .
#339
1#
#340
0#
b00000000000000000000001010101100 %
b1010101100 (
b1010101101 *
b1010101110 ,
b1010101111 .
#341
1#
#342
0#
b00000000000000000000001010110000 %
b1010110000 (
b1010110001 *
b1010110010 ,
b1010110011 .
#343
1#
#344
0#
b00000000000000000000001010110100 %
b1010110100 (
b1010110101 *
b1010110110 ,
b1010110111 .
#345
1#
#346
0#
b00000000000000000000001010111000 %
b1010111000 (
b1010111001 *
b1010111010 ,
b1010111011 .
#347
1#
#348
0#
b00000000000000000000001010111100 %
b1010111100 (
b1010111101 *
b1010111110 ,
b1010111111 .
#349
1#
#350
0#
b00000000000000000000001011000000 %
b1011000000 (
b1011000001 *
b1011000010 ,
b1011000011 .
#351
1#
#352
0#
b00000000000000000000001011000100 %
b1011000100 (
b1011000101 *
b1011000110 ,
b1011000111 .
#353
1#
#354
0#
b00000000000000000000001011001000 %
b1011001000 (
b1011001001 *
b1011001010 ,
b1011001011 .
#355
1#
#356
0#
b00000000000000000000001011001100 %
b1011001100 (
b1011001101 *
b1011001110 ,
b1011001111 .
#357
1#
#358
0#
b00000000000000000000001011010000 %
b1011010000 (
b1011010001 *
b1011010010 ,
b1011010011 .
#359
1#
#360
0#
b00000000000000000000001011010100 %
b1011010100 (
b1011010101 *
b1011010110 ,
b1011010111 .
#361
1#
#362
0#
b00000000000000000000001011011000 %
b1011011000 (
b1011011001 *
b1011011010 ,
b1011011011 .
#363
1#
#364
0#
b00000000000000000000001011011100 %
b1011011100 (
b1011011101 *
b1011011110 ,
b1011011111 .
#365
1#
#366
0#
b00000000000000000000001011100000 %
b1011100000 (
b1011100001 *
b1011100010 ,
b1011100011 .
#367
1#
#368
0#
b00000000000000000000001011100100 %
b1011100100 (
b1011100101 *
b1011100110 ,
b1011100111 .
#369
1#
#370
0#
b00000000000000000000001011101000 %
b1011101000 (
b1011101001 *
b1011101010 ,
b1011101011 .
#371
1#
#372
0#
b00000000000000000000001011101100 %
b1011101100 (
b1011101101 *
b1011101110 ,
b1011101111 .
#373
1#
#374
0#
b00000000000000000000001011110000 %
b1011110000 (
b1011110001 *
b1011110010 ,
b1011110011 .
#375
1#
#376
0#
b00000000000000000000001011110100 %
b1011110100 (
b1011110101 *
b1011110110 ,
b1011110111 .
#377
1#
#378
0#
b00000000000000000000001011111000 %
b1011111000 (
b1011111001 *
b1011111010 ,
b1011111011 .
#379
1#
#380
0#
b00000000000000000000001011111100 %
b1011111100 (
b1011111101 *
b1011111110 ,
b1011111111 .
#381
1#
#382
0#
b00000000000000000000001100000000 %
b1100000000 (
b1100000001 *
b1100000010 ,
b1100000011 .
#383
1#
#384
0#
b00000000000000000000001100000100 %
b1100000100 (
b1100000101 *
b1100000110 ,
b1100000111 .
#385
1#
#386
0#
b00000000000000000000001100001000 %
b1100001000 (
b1100001001 *
b1100001010 ,
b1100001011 .
#387
1#
#388
0#
b00000000000000000000001100001100 %
b1100001100 (
b1100001101 *
b1100001110 ,
b1100001111 .
#389
1#
#390
0#
b00000000000000000000001100010000 %
b1100010000 (
b1100010001 *
b1100010010 ,
b1100010011 .
#391
1#
#392
0#
b00000000000000000000001100010100 %
b1100010100 (
b1100010101 *
b1100010110 ,
b1100010111 .
#393
1#
#394
0#
b00000000000000000000001100011000 %
b1100011000 (
b1100011001 *
b1100011010 ,
b1100011011 .
#395
1#
#396
0#
b00000000000000000000001100011100 %
b1100011100 (
b1100011101 *
b1100011110 ,
b1100011111 .
#397
1#
#398
0#
b00000000000000000000001100100000 %
b1100100000 (
b1100100001 *
b1100100010 ,
b1100100011 .
#399
1#
#400
0#
b00000000000000000000001100100100 %
b1100100100 (
b1100100101 *
b1100100110 ,
b1100100111 .
#401
1#
#402
0#
b00000000000000000000001100101000 %
b1100101000 (
b1100101001 *
b1100101010 ,
b1100101011 .
#403
1#
#404
0#
b00000000000000000000001100101100 %
b1100101100 (
b1100101101 *
b1100101110 ,
b1100101111 .
#405
1#
#406
0#
b00000000000000000000001100110000 %
b1100110000 (
b1100110001 *
b1100110010 ,
b1100110011 .
#407
1#
#408
0#
b00000000000000000000001100110100 %
b1100110100 (
b1100110101 *
b1100110110 ,
b1100110111 .
#409
1#
#410
0#
b00000000000000000000001100111000 %
b1100111000 (
b1100111001 *
b1100111010 ,
b1100111011 .
#411
1#
#412
0#
b00000000000000000000001100111100 %
b1100111100 (
b1100111101 *
b1100111110 ,
b1100111111 .
#413
1#
#414
0#
b00000000000000000000001101000000 %
b1101000000 (
b1101000001 *
b1101000010 ,
b1101000011 .
#415
1#
#416
0#
b00000000000000000000001101000100 %
b1101000100 (
b1101000101 *
b1101000110 ,
b1101000111 .
#417
1#
#418
0#
b00000000000000000000001101001000 %
b1101001000 (
b1101001001 *
b1101001010 ,
b1101001011 .
#419
1#
#420
0#
b00000000000000000000001101001100 %
b1101001100 (
b1101001101 *
b1101001110 ,
b1101001111 .
#421
1#
#422
0#
b00000000000000000000001101010000 %
b1101010000 (
b1101010001 *
b1101010010 ,
b1101010011 .
#423
1#
#424
0#
b00000000000000000000001101010100 %
b1101010100 (
b1101010101 *
b1101010110 ,
b1101010111 .
#425
1#
#426
0#
b00000000000000000000001101011000 %
b1101011000 (
b1101011001 *
b1101011010 ,
b1101011011 .
#427
1#
#428
0#
b00000000000000000000001101011100 %
b1101011100 (
b1101011101 *
b1101011110 ,
b1101011111 .
#429
1#
#430
0#
b00000000000000000000001101100000 %
b1101100000 (
b1101100001 *
b1101100010 ,
b1101100011 .
#431
1#
#432
0#
b00000000000000000000001101100100 %
b1101100100 (
b1101100101 *
b1101100110 ,
b1101100111 .
#433
1#
#434
0#
b00000000000000000000001101101000 %
b1101101000 (
b1101101001 *
b1101101010 ,
b1101101011 .
