riscv-mini-five-stage/vcd/PC.vcd
$version Generated by VerilatedVcd $end
$date Tue Jun 25 15:49:06 2019
 $end
$timescale   1ns $end

 $scope module TOP $end
  $var wire  1 $ clock $end
  $var wire 32 & io_next_pc [31:0] $end
  $var wire 32 ( io_pc_out [31:0] $end
  $var wire  1 ' io_pc_write $end
  $var wire  1 % reset $end
  $scope module PC $end
   $var wire  1 $ clock $end
   $var wire 32 & io_next_pc [31:0] $end
   $var wire 32 ( io_pc_out [31:0] $end
   $var wire  1 ' io_pc_write $end
   $var wire 32 # pc_reg [31:0] $end
   $var wire  1 % reset $end
  $upscope $end
 $upscope $end
$enddefinitions $end


#0
b00000000000000000000000000000000 #
0$
0%
b00000000000000000000000000000000 &
1'
b00000000000000000000000000000000 (
#1
1$
#2
0$
b00000000000000000000000000000100 &
#3
b00000000000000000000000000000100 #
1$
b00000000000000000000000000000100 (
#4
0$
b00000000000000000000000000001000 &
0'
#5
1$
#6
0$
b00000000000000000000000000001100 &
1'
#7
b00000000000000000000000000001100 #
1$
b00000000000000000000000000001100 (
#8
0$
b00000000000000000000000001000000 &
#9
b00000000000000000000000001000000 #
1$
b00000000000000000000000001000000 (
#10
0$
b00000000000000000000000001000100 &
#11
b00000000000000000000000001000100 #
1$
b00000000000000000000000001000100 (
#12
0$
b00000000000000000000000001001000 &
#13
b00000000000000000000000001001000 #
1$
b00000000000000000000000001001000 (
#14
0$
b00000000000000000000000001001100 &
#15
b00000000000000000000000001001100 #
1$
b00000000000000000000000001001100 (
#16
0$
b00000000000000000000000000100000 &
#17
b00000000000000000000000000100000 #
1$
b00000000000000000000000000100000 (
#18
0$
b00000000000000000000000000100100 &
#19
b00000000000000000000000000100100 #
1$
b00000000000000000000000000100100 (
#20
0$
b00000000000000000000000000101000 &
#21
b00000000000000000000000000101000 #
1$
b00000000000000000000000000101000 (
#22
0$
b00000000000000000000000000000000 &
#23
b00000000000000000000000000000000 #
1$
b00000000000000000000000000000000 (
#24
0$
#25
1$
#26
0$
#27
1$
#28
0$
#29
1$
#30
0$
#31
1$
#32
0$
#33
1$
#34
0$
#35
1$
#36
0$
#37
1$
#38
0$
#39
1$
#40
0$
#41
1$
#42
0$
#43
1$
#44
0$
#45
1$
#46
0$
#47
1$
#48
0$
#49
1$
#50
0$
#51
1$
#52
0$
#53
1$
#54
0$
#55
1$
#56
0$
#57
1$
#58
0$
#59
1$
#60
0$
#61
1$
#62
0$
#63
1$
#64
0$
b00000000000000000000000000100000 &
#65
b00000000000000000000000000100000 #
1$
b00000000000000000000000000100000 (
#66
0$
b00000000000000000000000000000000 &
#67
b00000000000000000000000000000000 #
1$
b00000000000000000000000000000000 (
#68
0$
b10010000011011100001010010110000 &
#69
b10010000011011100001010010110000 #
1$
b10010000011011100001010010110000 (
#70
0$
b00000000000000000111111111000101 &
#71
b00000000000000000111111111000101 #
1$
b00000000000000000111111111000101 (
#72
0$
b00000000000000000000000000000000 &
#73
b00000000000000000000000000000000 #
1$
b00000000000000000000000000000000 (
#74
0$
#75
1$
#76
0$
#77
1$
#78
0$
#79
1$
#80
0$
b10010000010011101100010111000000 &
#81
b10010000010011101100010111000000 #
1$
b10010000010011101100010111000000 (
#82
0$
b00000000000000000111111111000101 &
#83
b00000000000000000111111111000101 #
1$
b00000000000000000111111111000101 (
#84
0$
b00000000000000000000000000000000 &
#85
b00000000000000000000000000000000 #
1$
b00000000000000000000000000000000 (
#86
0$
#87
1$
#88
0$
b10010000010011101011100001100000 &
#89
b10010000010011101011100001100000 #
1$
b10010000010011101011100001100000 (
#90
0$
b00000000000000000111111111000101 &
#91
b00000000000000000111111111000101 #
1$
b00000000000000000111111111000101 (
#92
0$
b00000000000000000000000000000000 &
#93
b00000000000000000000000000000000 #
1$
b00000000000000000000000000000000 (
#94
0$
#95
1$
#96
0$
b10010000010011101100010011100000 &
#97
b10010000010011101100010011100000 #
1$
b10010000010011101100010011100000 (
#98
0$
b00000000000000000111111111000101 &
#99
b00000000000000000111111111000101 #
1$
b00000000000000000111111111000101 (
#100
0$
b00000000000000000000000000000000 &
#101
b00000000000000000000000000000000 #
1$
b00000000000000000000000000000000 (
#102
0$
#103
1$
#104
0$
b01101100000110111000000110000000 &
#105
b01101100000110111000000110000000 #
1$
b01101100000110111000000110000000 (
#106
0$
b00000000000000000101010111100011 &
#107
b00000000000000000101010111100011 #
1$
b00000000000000000101010111100011 (
#108
0$
b01101100000110111000001101100000 &
#109
b01101100000110111000001101100000 #
1$
b01101100000110111000001101100000 (
#110
0$
b00000000000000000101010111100011 &
#111
b00000000000000000101010111100011 #
1$
b00000000000000000101010111100011 (
#112
0$
b00000000000000000000000001110000 &
#113
b00000000000000000000000001110001 #
1$
b00000000000000000000000001110001 &
b00000000000000000000000001110001 (
#114
0$
b00000000000000000000000000000000 &
#115
b00000000000000000000000000000000 #
1$
b00000000000000000000000000000000 (
#116
0$
#117
1$
#118
0$
#119
1$
#120
0$
#121
1$
#122
0$
#123
1$
#124
0$
#125
1$
#126
0$
#127
1$
#128
0$
#129
1$
#130
0$
#131
1$
#132
0$
b01101011011110110100001001000010 &
#133
b01101011011110110100001001000010 #
1$
b01101011011110110100001001000010 (
#134
0$
b00000000000000000101010111100011 &
#135
b00000000000000000101010111100011 #
1$
b00000000000000000101010111100011 (
#136
0$
b00000000000000000000000000000000 &
#137
b00000000000000000000000000000000 #
1$
b00000000000000000000000000000000 (
#138
0$
b00000001000000010000000000000001 &
#139
b00000001000000010000000000000001 #
1$
b00000001000000010000000000000001 (
#140
0$
b00000000000000000000000000000000 &
#141
b00000000000000000000000000000000 #
1$
b00000000000000000000000000000000 (
#142
0$
#143
1$
#144
0$
b00000000000000000000000000000001 &
#145
b00000000000000000000000000000001 #
1$
b00000000000000000000000000000001 (
#146
0$
b00000000000000000000000000000000 &
#147
b00000000000000000000000000000000 #
1$
b00000000000000000000000000000000 (
#148
0$
b00000000000000000000000000000010 &
#149
b00000000000000000000000000000010 #
1$
b00000000000000000000000000000010 (
#150
0$
b00000000000000000000000000000000 &
#151
b00000000000000000000000000000000 #
1$
b00000000000000000000000000000000 (
#152
0$
b01101100000110110111111001110000 &
#153
b01101100000110110111111001110000 #
1$
b01101100000110110111111001110000 (
#154
0$
b00000000000000000101010111100011 &
#155
b00000000000000000101010111100011 #
1$
b00000000000000000101010111100011 (
#156
0$
b00000000000000000000000000000000 &
#157
b00000000000000000000000000000000 #
1$
b00000000000000000000000000000000 (
#158
0$
#159
1$
#160
0$
#161
1$
#162
0$
#163
1$
#164
0$
#165
1$
#166
0$
#167
1$
#168
0$
#169
1$
#170
0$
#171
1$
#172
0$
#173
1$
#174
0$
#175
1$
#176
0$
#177
1$
#178
0$
b00000000000000000000000000000001 &
#179
b00000000000000000000000000000001 #
1$
b00000000000000000000000000000001 (
#180
0$
b11111011100110001100111110001000 &
#181
b11111011100110001100111110001000 #
1$
b11111011100110001100111110001000 (
#182
0$
b00000000000000000111111111111111 &
#183
b00000000000000000111111111111111 #
1$
b00000000000000000111111111111111 (
#184
0$
b00000000000000000000000000000000 &
#185
b00000000000000000000000000000000 #
1$
b00000000000000000000000000000000 (
#186
0$
#187
1$
#188
0$
#189
1$
#190
0$
#191
1$
#192
0$
#193
1$
#194
0$
#195
1$
#196
0$
b01101100000110111000000100010000 &
#197
b01101100000110111000000100010000 #
1$
b01101100000110111000000100010000 (
#198
0$
b00000000000000000101010111100011 &
#199
b00000000000000000101010111100011 #
1$
b00000000000000000101010111100011 (
#200
0$
b01101100000110111000000100110000 &
#201
b01101100000110111000000100110000 #
1$
b01101100000110111000000100110000 (
#202
0$
b00000000000000000101010111100011 &
#203
b00000000000000000101010111100011 #
1$
b00000000000000000101010111100011 (
#204
0$
b01101100000110111000000100110000 &
#205
b01101100000110111000000100110000 #
1$
b01101100000110111000000100110000 (
#206
0$
b00000000000000000101010111100011 &
#207
b00000000000000000101010111100011 #
1$
b00000000000000000101010111100011 (
#208
0$
b00000000000000000000000000000001 &
#209
b00000000000000000000000000000001 #
1$
b00000000000000000000000000000001 (
#210
0$
b00000000000000000000000000000000 &
#211
b00000000000000000000000000000000 #
1$
b00000000000000000000000000000000 (
#212
0$
#213
1$
#214
0$
#215
1$
#216
0$
#217
1$
#218
0$
#219
1$
#220
0$
#221
1$
#222
0$
#223
1$
#224
0$
b01101011011111001000010100110000 &
#225
b01101011011111001000010100110000 #
1$
b01101011011111001000010100110000 (
#226
0$
b00000000000000000101010111100011 &
#227
b00000000000000000101010111100011 #
1$
b00000000000000000101010111100011 (
#228
0$
b01101011011111001000010100110000 &
#229
b01101011011111001000010100110000 #
1$
b01101011011111001000010100110000 (
#230
0$
b00000000000000000101010111100011 &
#231
b00000000000000000101010111100011 #
1$
b00000000000000000101010111100011 (
#232
0$
b00000000000000000000000000000000 &
#233
b00000000000000000000000000000000 #
1$
b00000000000000000000000000000000 (
#234
0$
#235
1$
#236
0$
#237
1$
#238
0$
#239
1$
#240
0$
#241
1$
#242
0$
#243
1$
#244
0$
#245
1$
#246
0$
#247
1$
#248
0$
#249
1$
#250
0$
#251
1$
#252
0$
b01101011011111001000010101101000 &
#253
b01101011011111001000010101101000 #
1$
b01101011011111001000010101101000 (
#254
0$
b00000000000000000101010111100011 &
#255
b00000000000000000101010111100011 #
1$
b00000000000000000101010111100011 (
#256
0$
b01101011011111001000010101101000 &
#257
b01101011011111001000010101101000 #
1$
b01101011011111001000010101101000 (
#258
0$
b00000000000000000101010111100011 &
#259
b00000000000000000101010111100011 #
1$
b00000000000000000101010111100011 (
#260
0$
b00000000000000000000000000000000 &
#261
b00000000000000000000000000000000 #
1$
b00000000000000000000000000000000 (
#262
0$
#263
1$
#264
0$
#265
1$
#266
0$
#267
1$
#268
0$
#269
1$
#270
0$
#271
1$
#272
0$
#273
1$
#274
0$
#275
1$
#276
0$
#277
1$
#278
0$
#279
1$
#280
0$
b01101011011111001000010110100000 &
#281
b01101011011111001000010110100000 #
1$
b01101011011111001000010110100000 (
#282
0$
b00000000000000000101010111100011 &
#283
b00000000000000000101010111100011 #
1$
b00000000000000000101010111100011 (
#284
0$
b01101011011111001000010110100000 &
#285
b01101011011111001000010110100000 #
1$
b01101011011111001000010110100000 (
#286
0$
b00000000000000000101010111100011 &
#287
b00000000000000000101010111100011 #
1$
b00000000000000000101010111100011 (
#288
0$
b00000000000000000000000000000000 &
#289
b00000000000000000000000000000000 #
1$
b00000000000000000000000000000000 (
#290
0$
#291
1$
#292
0$
#293
1$
#294
0$
#295
1$
#296
0$
b01101100000110111000000011110000 &
#297
b01101100000110111000000011110000 #
1$
b01101100000110111000000011110000 (
#298
0$
b00000000000000000101010111100011 &
#299
b00000000000000000101010111100011 #
1$
b00000000000000000101010111100011 (
#300
0$
b01101100000110111000000100001000 &
#301
b01101100000110111000000100001000 #
1$
b01101100000110111000000100001000 (
#302
0$
b00000000000000000101010111100011 &
#303
b00000000000000000101010111100011 #
1$
b00000000000000000101010111100011 (
#304
0$
b01101100000110111000000100001000 &
#305
b01101100000110111000000100001000 #
1$
b01101100000110111000000100001000 (
#306
0$
b00000000000000000101010111100011 &
#307
b00000000000000000101010111100011 #
1$
b00000000000000000101010111100011 (
#308
0$
b01101100000110110111111010010000 &
#309
b01101100000110110111111010010000 #
1$
b01101100000110110111111010010000 (
#310
0$
b00000000000000000101010111100011 &
#311
b00000000000000000101010111100011 #
1$
b00000000000000000101010111100011 (
#312
0$
b00000000000000000000000000001000 &
#313
b00000000000000000000000000001000 #
1$
b00000000000000000000000000001000 (
#314
0$
b00000000000000000000000000000000 &
#315
b00000000000000000000000000000000 #
1$
b00000000000000000000000000000000 (
#316
0$
b01101100000110110111111011100000 &
#317
b01101100000110110111111011100000 #
1$
b01101100000110110111111011100000 (
#318
0$
b00000000000000000101010111100011 &
#319
b00000000000000000101010111100011 #
1$
b00000000000000000101010111100011 (
#320
0$
b01101100000110110111111011100000 &
#321
b01101100000110110111111011100000 #
1$
b01101100000110110111111011100000 (
#322
0$
b00000000000000000101010111100011 &
#323
b00000000000000000101010111100011 #
1$
b00000000000000000101010111100011 (
#324
0$
b01101100000110111000000011100000 &
#325
b01101100000110111000000011100000 #
1$
b01101100000110111000000011100000 (
#326
0$
b00000000000000000101010111100011 &
#327
b00000000000000000101010111100011 #
1$
b00000000000000000101010111100011 (
#328
0$
b01101100000110110111111010101000 &
#329
b01101100000110110111111010101000 #
1$
b01101100000110110111111010101000 (
#330
0$
b00000000000000000101010111100011 &
#331
b00000000000000000101010111100011 #
1$
b00000000000000000101010111100011 (
#332
0$
b01101100000110110111111011100000 &
#333
b01101100000110110111111011100000 #
1$
b01101100000110110111111011100000 (
#334
0$
b00000000000000000101010111100011 &
#335
b00000000000000000101010111100011 #
1$
b00000000000000000101010111100011 (
#336
0$
b01101100000110110111111011100000 &
#337
b01101100000110110111111011100000 #
1$
b01101100000110110111111011100000 (
#338
0$
b00000000000000000101010111100011 &
#339
b00000000000000000101010111100011 #
1$
b00000000000000000101010111100011 (
#340
0$
b01101100000110111000000011100000 &
#341
b01101100000110111000000011100000 #
1$
b01101100000110111000000011100000 (
#342
0$
b00000000000000000101010111100011 &
#343
b00000000000000000101010111100011 #
1$
b00000000000000000101010111100011 (
#344
0$
b01101100000110110111111010101000 &
#345
b01101100000110110111111010101000 #
1$
b01101100000110110111111010101000 (
#346
0$
b00000000000000000101010111100011 &
#347
b00000000000000000101010111100011 #
1$
b00000000000000000101010111100011 (
#348
0$
b00000000000000000000000000000000 &
#349
b00000000000000000000000000000000 #
1$
b00000000000000000000000000000000 (
