riscv-mini-five-stage/vcd/RegFile.vcd
$version Generated by VerilatedVcd $end
$date Tue Jul  9 19:53:29 2019
 $end
$timescale   1ns $end

 $scope module TOP $end
  $var wire  1 C clock $end
  $var wire  1 K io_Reg_Write $end
  $var wire  5 G io_rd [4:0] $end
  $var wire  5 E io_rs1 [4:0] $end
  $var wire 32 I io_rs1_out [31:0] $end
  $var wire  5 F io_rs2 [4:0] $end
  $var wire 32 J io_rs2_out [31:0] $end
  $var wire 32 H io_wdata [31:0] $end
  $var wire  1 D reset $end
  $scope module RegFile $end
   $var wire  1 C clock $end
   $var wire  1 K io_Reg_Write $end
   $var wire  5 G io_rd [4:0] $end
   $var wire  5 E io_rs1 [4:0] $end
   $var wire 32 I io_rs1_out [31:0] $end
   $var wire  5 F io_rs2 [4:0] $end
   $var wire 32 J io_rs2_out [31:0] $end
   $var wire 32 H io_wdata [31:0] $end
   $var wire 32 # regfile(0) [31:0] $end
   $var wire 32 $ regfile(1) [31:0] $end
   $var wire 32 - regfile(10) [31:0] $end
   $var wire 32 . regfile(11) [31:0] $end
   $var wire 32 / regfile(12) [31:0] $end
   $var wire 32 0 regfile(13) [31:0] $end
   $var wire 32 1 regfile(14) [31:0] $end
   $var wire 32 2 regfile(15) [31:0] $end
   $var wire 32 3 regfile(16) [31:0] $end
   $var wire 32 4 regfile(17) [31:0] $end
   $var wire 32 5 regfile(18) [31:0] $end
   $var wire 32 6 regfile(19) [31:0] $end
   $var wire 32 % regfile(2) [31:0] $end
   $var wire 32 7 regfile(20) [31:0] $end
   $var wire 32 8 regfile(21) [31:0] $end
   $var wire 32 9 regfile(22) [31:0] $end
   $var wire 32 : regfile(23) [31:0] $end
   $var wire 32 ; regfile(24) [31:0] $end
   $var wire 32 < regfile(25) [31:0] $end
   $var wire 32 = regfile(26) [31:0] $end
   $var wire 32 > regfile(27) [31:0] $end
   $var wire 32 ? regfile(28) [31:0] $end
   $var wire 32 @ regfile(29) [31:0] $end
   $var wire 32 & regfile(3) [31:0] $end
   $var wire 32 A regfile(30) [31:0] $end
   $var wire 32 B regfile(31) [31:0] $end
   $var wire 32 ' regfile(4) [31:0] $end
   $var wire 32 ( regfile(5) [31:0] $end
   $var wire 32 ) regfile(6) [31:0] $end
   $var wire 32 * regfile(7) [31:0] $end
   $var wire 32 + regfile(8) [31:0] $end
   $var wire 32 , regfile(9) [31:0] $end
   $var wire  5 E regfile__T_18_addr [4:0] $end
   $var wire 32 L regfile__T_18_data [31:0] $end
   $var wire  5 F regfile__T_20_addr [4:0] $end
   $var wire 32 M regfile__T_20_data [31:0] $end
   $var wire  5 G regfile__T_25_addr [4:0] $end
   $var wire 32 N regfile__T_25_data [31:0] $end
   $var wire  5 G regfile__T_27_addr [4:0] $end
   $var wire 32 O regfile__T_27_data [31:0] $end
   $var wire  1 P regfile__T_27_en $end
   $var wire  1 P regfile__T_27_mask $end
   $var wire  1 D reset $end
   $scope module RegFile_Bind_0 $end
    $var wire  1 C clock $end
    $var wire  1 K io_Reg_Write $end
    $var wire  5 G io_rd [4:0] $end
    $var wire  5 E io_rs1 [4:0] $end
    $var wire 32 I io_rs1_out [31:0] $end
    $var wire  5 F io_rs2 [4:0] $end
    $var wire 32 J io_rs2_out [31:0] $end
    $var wire 32 H io_wdata [31:0] $end
    $var wire  1 D reset $end
   $upscope $end
  $upscope $end
 $upscope $end
$enddefinitions $end


#0
b00000000000000000000000000000000 #
b00000000000000000000000000000001 $
b00000000000000000000000000000010 %
b00000000000000000000000000000011 &
b00000000000000000000000000000100 '
b00000000000000000000000000000101 (
b00000000000000000000000000000110 )
b00000000000000000000000000000111 *
b00000000000000000000000000001000 +
b00000000000000000000000000001001 ,
b00000000000000000000000000001010 -
b00000000000000000000000000001011 .
b00000000000000000000000000001100 /
b00000000000000000000000000001101 0
b00000000000000000000000000001110 1
b00000000000000000000000000001111 2
b00000000000000000000000000010000 3
b00000000000000000000000000010001 4
b00000000000000000000000000010010 5
b00000000000000000000000000010011 6
b00000000000000000000000000010100 7
b00000000000000000000000000010101 8
b00000000000000000000000000010110 9
b00000000000000000000000000010111 :
b00000000000000000000000000011000 ;
b00000000000000000000000000011001 <
b00000000000000000000000000011010 =
b00000000000000000000000000011011 >
b00000000000000000000000000011100 ?
b00000000000000000000000000011101 @
b00000000000000000000000000011110 A
b00000000000000000000000000000000 B
0C
0D
b00000 E
b11111 F
b00110 G
b00000000000000000000000011001000 H
b00000000000000000000000000000000 I
b00000000000000000000000000000000 J
0K
b00000000000000000000000000000000 L
b00000000000000000000000000000000 M
b00000000000000000000000000000110 N
b00000000000000000000000000000110 O
1P
#1
1C
b00001 E
b11110 F
b00000000000000000000000000000001 I
b00000000000000000000000000011110 J
b00000000000000000000000000000001 L
b00000000000000000000000000011110 M
#2
0C
#3
1C
b00010 E
b11101 F
b00000000000000000000000000000010 I
b00000000000000000000000000011101 J
b00000000000000000000000000000010 L
b00000000000000000000000000011101 M
#4
0C
#5
1C
b00011 E
b11100 F
b00000000000000000000000000000011 I
b00000000000000000000000000011100 J
b00000000000000000000000000000011 L
b00000000000000000000000000011100 M
#6
0C
#7
1C
b00100 E
b11011 F
b00000000000000000000000000000100 I
b00000000000000000000000000011011 J
b00000000000000000000000000000100 L
b00000000000000000000000000011011 M
#8
0C
#9
1C
b00101 E
b11010 F
b00000000000000000000000000000101 I
b00000000000000000000000000011010 J
b00000000000000000000000000000101 L
b00000000000000000000000000011010 M
#10
0C
#11
1C
b00110 E
b11001 F
b00000000000000000000000000000110 I
b00000000000000000000000000011001 J
b00000000000000000000000000000110 L
b00000000000000000000000000011001 M
#12
0C
#13
1C
b00111 E
b11000 F
b00000000000000000000000000000111 I
b00000000000000000000000000011000 J
b00000000000000000000000000000111 L
b00000000000000000000000000011000 M
#14
0C
#15
1C
b01000 E
b10111 F
b00000000000000000000000000001000 I
b00000000000000000000000000010111 J
b00000000000000000000000000001000 L
b00000000000000000000000000010111 M
#16
0C
#17
1C
b01001 E
b10110 F
b00000000000000000000000000001001 I
b00000000000000000000000000010110 J
b00000000000000000000000000001001 L
b00000000000000000000000000010110 M
#18
0C
#19
1C
b01010 E
b10101 F
b00000000000000000000000000001010 I
b00000000000000000000000000010101 J
b00000000000000000000000000001010 L
b00000000000000000000000000010101 M
#20
0C
#21
1C
b01011 E
b10100 F
b00000000000000000000000000001011 I
b00000000000000000000000000010100 J
b00000000000000000000000000001011 L
b00000000000000000000000000010100 M
#22
0C
#23
1C
b01100 E
b10011 F
b00000000000000000000000000001100 I
b00000000000000000000000000010011 J
b00000000000000000000000000001100 L
b00000000000000000000000000010011 M
#24
0C
#25
1C
b01101 E
b10010 F
b00000000000000000000000000001101 I
b00000000000000000000000000010010 J
b00000000000000000000000000001101 L
b00000000000000000000000000010010 M
#26
0C
#27
1C
b01110 E
b10001 F
b00000000000000000000000000001110 I
b00000000000000000000000000010001 J
b00000000000000000000000000001110 L
b00000000000000000000000000010001 M
#28
0C
#29
1C
b01111 E
b10000 F
b00000000000000000000000000001111 I
b00000000000000000000000000010000 J
b00000000000000000000000000001111 L
b00000000000000000000000000010000 M
#30
0C
#31
1C
b10000 E
b01111 F
b00000000000000000000000000010000 I
b00000000000000000000000000001111 J
b00000000000000000000000000010000 L
b00000000000000000000000000001111 M
#32
0C
#33
1C
b10001 E
b01110 F
b00000000000000000000000000010001 I
b00000000000000000000000000001110 J
b00000000000000000000000000010001 L
b00000000000000000000000000001110 M
#34
0C
#35
1C
b10010 E
b01101 F
b00000000000000000000000000010010 I
b00000000000000000000000000001101 J
b00000000000000000000000000010010 L
b00000000000000000000000000001101 M
#36
0C
#37
1C
b10011 E
b01100 F
b00000000000000000000000000010011 I
b00000000000000000000000000001100 J
b00000000000000000000000000010011 L
b00000000000000000000000000001100 M
#38
0C
#39
1C
b10100 E
b01011 F
b00000000000000000000000000010100 I
b00000000000000000000000000001011 J
b00000000000000000000000000010100 L
b00000000000000000000000000001011 M
#40
0C
#41
1C
b10101 E
b01010 F
b00000000000000000000000000010101 I
b00000000000000000000000000001010 J
b00000000000000000000000000010101 L
b00000000000000000000000000001010 M
#42
0C
#43
1C
b10110 E
b01001 F
b00000000000000000000000000010110 I
b00000000000000000000000000001001 J
b00000000000000000000000000010110 L
b00000000000000000000000000001001 M
#44
0C
#45
1C
b10111 E
b01000 F
b00000000000000000000000000010111 I
b00000000000000000000000000001000 J
b00000000000000000000000000010111 L
b00000000000000000000000000001000 M
#46
0C
#47
1C
b11000 E
b00111 F
b00000000000000000000000000011000 I
b00000000000000000000000000000111 J
b00000000000000000000000000011000 L
b00000000000000000000000000000111 M
#48
0C
#49
1C
b11001 E
b00110 F
b00000000000000000000000000011001 I
b00000000000000000000000011001000 J
1K
b00000000000000000000000000011001 L
b00000000000000000000000000000110 M
b00000000000000000000000011001000 O
#50
0C
#51
b00000000000000000000000011001000 )
1C
b11010 E
b00101 F
b00000000000000000000000000011010 I
b00000000000000000000000000000101 J
0K
b00000000000000000000000000011010 L
b00000000000000000000000000000101 M
b00000000000000000000000011001000 N
#52
0C
#53
1C
b11011 E
b00100 F
b00000000000000000000000000011011 I
b00000000000000000000000000000100 J
b00000000000000000000000000011011 L
b00000000000000000000000000000100 M
#54
0C
#55
1C
b11100 E
b00011 F
b00000000000000000000000000011100 I
b00000000000000000000000000000011 J
b00000000000000000000000000011100 L
b00000000000000000000000000000011 M
#56
0C
#57
1C
b11101 E
b00010 F
b00000000000000000000000000011101 I
b00000000000000000000000000000010 J
b00000000000000000000000000011101 L
b00000000000000000000000000000010 M
#58
0C
#59
1C
b11110 E
b00001 F
b00000000000000000000000000011110 I
b00000000000000000000000000000001 J
b00000000000000000000000000011110 L
b00000000000000000000000000000001 M
#60
0C
#61
1C
b11111 E
b00000 F
b00000000000000000000000000000000 I
b00000000000000000000000000000000 J
b00000000000000000000000000000000 L
b00000000000000000000000000000000 M
#62
0C
#63
1C
b00000 E
b11111 F
#64
0C
#65
1C
b00001 E
b11110 F
b00000000000000000000000000000001 I
b00000000000000000000000000011110 J
b00000000000000000000000000000001 L
b00000000000000000000000000011110 M
#66
0C
#67
1C
b00010 E
b11101 F
b00000000000000000000000000000010 I
b00000000000000000000000000011101 J
b00000000000000000000000000000010 L
b00000000000000000000000000011101 M
#68
0C
#69
1C
b00011 E
b11100 F
b00000000000000000000000000000011 I
b00000000000000000000000000011100 J
b00000000000000000000000000000011 L
b00000000000000000000000000011100 M
#70
0C
#71
1C
b00100 E
b11011 F
b00000000000000000000000000000100 I
b00000000000000000000000000011011 J
b00000000000000000000000000000100 L
b00000000000000000000000000011011 M
#72
0C
#73
1C
b00101 E
b11010 F
b00000000000000000000000000000101 I
b00000000000000000000000000011010 J
b00000000000000000000000000000101 L
b00000000000000000000000000011010 M
#74
0C
#75
1C
b00110 E
b11001 F
b00000000000000000000000011001000 I
b00000000000000000000000000011001 J
b00000000000000000000000011001000 L
b00000000000000000000000000011001 M
#76
0C
#77
1C
b00111 E
b11000 F
b00000000000000000000000000000111 I
b00000000000000000000000000011000 J
b00000000000000000000000000000111 L
b00000000000000000000000000011000 M
#78
0C
#79
1C
b01000 E
b10111 F
b00000000000000000000000000001000 I
b00000000000000000000000000010111 J
b00000000000000000000000000001000 L
b00000000000000000000000000010111 M
#80
0C
#81
1C
b01001 E
b10110 F
b00000000000000000000000000001001 I
b00000000000000000000000000010110 J
b00000000000000000000000000001001 L
b00000000000000000000000000010110 M
#82
0C
#83
1C
b01010 E
b10101 F
b00000000000000000000000000001010 I
b00000000000000000000000000010101 J
b00000000000000000000000000001010 L
b00000000000000000000000000010101 M
#84
0C
#85
1C
b01011 E
b10100 F
b00000000000000000000000000001011 I
b00000000000000000000000000010100 J
b00000000000000000000000000001011 L
b00000000000000000000000000010100 M
#86
0C
#87
1C
b01100 E
b10011 F
b00000000000000000000000000001100 I
b00000000000000000000000000010011 J
b00000000000000000000000000001100 L
b00000000000000000000000000010011 M
#88
0C
#89
1C
b01101 E
b10010 F
b00000000000000000000000000001101 I
b00000000000000000000000000010010 J
b00000000000000000000000000001101 L
b00000000000000000000000000010010 M
#90
0C
#91
1C
b01110 E
b10001 F
b00000000000000000000000000001110 I
b00000000000000000000000000010001 J
b00000000000000000000000000001110 L
b00000000000000000000000000010001 M
#92
0C
#93
1C
b01111 E
b10000 F
b00000000000000000000000000001111 I
b00000000000000000000000000010000 J
b00000000000000000000000000001111 L
b00000000000000000000000000010000 M
#94
0C
#95
1C
b10000 E
b01111 F
b00000000000000000000000000010000 I
b00000000000000000000000000001111 J
b00000000000000000000000000010000 L
b00000000000000000000000000001111 M
#96
0C
#97
1C
b10001 E
b01110 F
b00000000000000000000000000010001 I
b00000000000000000000000000001110 J
b00000000000000000000000000010001 L
b00000000000000000000000000001110 M
#98
0C
#99
1C
b10010 E
b01101 F
b00000000000000000000000000010010 I
b00000000000000000000000000001101 J
b00000000000000000000000000010010 L
b00000000000000000000000000001101 M
#100
0C
#101
1C
b10011 E
b01100 F
b00000000000000000000000000010011 I
b00000000000000000000000000001100 J
b00000000000000000000000000010011 L
b00000000000000000000000000001100 M
#102
0C
#103
1C
b10100 E
b01011 F
b00000000000000000000000000010100 I
b00000000000000000000000000001011 J
b00000000000000000000000000010100 L
b00000000000000000000000000001011 M
#104
0C
#105
1C
b10101 E
b01010 F
b00000000000000000000000000010101 I
b00000000000000000000000000001010 J
b00000000000000000000000000010101 L
b00000000000000000000000000001010 M
#106
0C
#107
1C
b10110 E
b01001 F
b00000000000000000000000000010110 I
b00000000000000000000000000001001 J
b00000000000000000000000000010110 L
b00000000000000000000000000001001 M
#108
0C
#109
1C
b10111 E
b01000 F
b00000000000000000000000000010111 I
b00000000000000000000000000001000 J
b00000000000000000000000000010111 L
b00000000000000000000000000001000 M
#110
0C
#111
1C
b11000 E
b00111 F
b00000000000000000000000000011000 I
b00000000000000000000000000000111 J
b00000000000000000000000000011000 L
b00000000000000000000000000000111 M
#112
0C
#113
1C
b11001 E
b00110 F
b00000000000000000000000000011001 I
b00000000000000000000000011001000 J
b00000000000000000000000000011001 L
b00000000000000000000000011001000 M
#114
0C
#115
1C
b11010 E
b00101 F
b00000000000000000000000000011010 I
b00000000000000000000000000000101 J
b00000000000000000000000000011010 L
b00000000000000000000000000000101 M
#116
0C
#117
1C
b11011 E
b00100 F
b00000000000000000000000000011011 I
b00000000000000000000000000000100 J
b00000000000000000000000000011011 L
b00000000000000000000000000000100 M
#118
0C
#119
1C
b11100 E
b00011 F
b00000000000000000000000000011100 I
b00000000000000000000000000000011 J
b00000000000000000000000000011100 L
b00000000000000000000000000000011 M
#120
0C
#121
1C
b11101 E
b00010 F
b00000000000000000000000000011101 I
b00000000000000000000000000000010 J
b00000000000000000000000000011101 L
b00000000000000000000000000000010 M
#122
0C
#123
1C
b11110 E
b00001 F
b00000000000000000000000000011110 I
b00000000000000000000000000000001 J
b00000000000000000000000000011110 L
b00000000000000000000000000000001 M
#124
0C
#125
1C
b11111 E
b00000 F
b00000000000000000000000000000000 I
b00000000000000000000000000000000 J
b00000000000000000000000000000000 L
b00000000000000000000000000000000 M
#126
0C
#127
1C
b00000 E
b11111 F
#128
0C
#129
1C
b00001 E
b11110 F
b00000000000000000000000000000001 I
b00000000000000000000000000011110 J
b00000000000000000000000000000001 L
b00000000000000000000000000011110 M
#130
0C
#131
1C
b00010 E
b11101 F
b00000000000000000000000000000010 I
b00000000000000000000000000011101 J
b00000000000000000000000000000010 L
b00000000000000000000000000011101 M
#132
0C
#133
1C
b00011 E
b11100 F
b00000000000000000000000000000011 I
b00000000000000000000000000011100 J
b00000000000000000000000000000011 L
b00000000000000000000000000011100 M
#134
0C
#135
1C
b00100 E
b11011 F
b00000000000000000000000000000100 I
b00000000000000000000000000011011 J
b00000000000000000000000000000100 L
b00000000000000000000000000011011 M
#136
0C
#137
1C
b00101 E
b11010 F
b00000000000000000000000000000101 I
b00000000000000000000000000011010 J
b00000000000000000000000000000101 L
b00000000000000000000000000011010 M
#138
0C
#139
1C
b00110 E
b11001 F
b00000000000000000000000011001000 I
b00000000000000000000000000011001 J
b00000000000000000000000011001000 L
b00000000000000000000000000011001 M
#140
0C
#141
1C
b00111 E
b11000 F
b00000000000000000000000000000111 I
b00000000000000000000000000011000 J
b00000000000000000000000000000111 L
b00000000000000000000000000011000 M
#142
0C
#143
1C
b01000 E
b10111 F
b00000000000000000000000000001000 I
b00000000000000000000000000010111 J
b00000000000000000000000000001000 L
b00000000000000000000000000010111 M
#144
0C
#145
1C
b01001 E
b10110 F
b00000000000000000000000000001001 I
b00000000000000000000000000010110 J
b00000000000000000000000000001001 L
b00000000000000000000000000010110 M
#146
0C
#147
1C
b01010 E
b10101 F
b00000000000000000000000000001010 I
b00000000000000000000000000010101 J
b00000000000000000000000000001010 L
b00000000000000000000000000010101 M
#148
0C
#149
1C
b01011 E
b10100 F
b00000000000000000000000000001011 I
b00000000000000000000000000010100 J
b00000000000000000000000000001011 L
b00000000000000000000000000010100 M
#150
0C
#151
1C
b01100 E
b10011 F
b00000000000000000000000000001100 I
b00000000000000000000000000010011 J
b00000000000000000000000000001100 L
b00000000000000000000000000010011 M
#152
0C
#153
1C
b01101 E
b10010 F
b00000000000000000000000000001101 I
b00000000000000000000000000010010 J
b00000000000000000000000000001101 L
b00000000000000000000000000010010 M
#154
0C
#155
1C
b01110 E
b10001 F
b00000000000000000000000000001110 I
b00000000000000000000000000010001 J
b00000000000000000000000000001110 L
b00000000000000000000000000010001 M
#156
0C
#157
1C
b01111 E
b10000 F
b00000000000000000000000000001111 I
b00000000000000000000000000010000 J
b00000000000000000000000000001111 L
b00000000000000000000000000010000 M
#158
0C
#159
1C
b10000 E
b01111 F
b00000000000000000000000000010000 I
b00000000000000000000000000001111 J
b00000000000000000000000000010000 L
b00000000000000000000000000001111 M
#160
0C
#161
1C
b10001 E
b01110 F
b00000000000000000000000000010001 I
b00000000000000000000000000001110 J
b00000000000000000000000000010001 L
b00000000000000000000000000001110 M
#162
0C
#163
1C
b10010 E
b01101 F
b00000000000000000000000000010010 I
b00000000000000000000000000001101 J
b00000000000000000000000000010010 L
b00000000000000000000000000001101 M
#164
0C
#165
1C
b10011 E
b01100 F
b00000000000000000000000000010011 I
b00000000000000000000000000001100 J
b00000000000000000000000000010011 L
b00000000000000000000000000001100 M
#166
0C
#167
1C
b10100 E
b01011 F
b00000000000000000000000000010100 I
b00000000000000000000000000001011 J
b00000000000000000000000000010100 L
b00000000000000000000000000001011 M
#168
0C
#169
1C
b10101 E
b01010 F
b00000000000000000000000000010101 I
b00000000000000000000000000001010 J
b00000000000000000000000000010101 L
b00000000000000000000000000001010 M
#170
0C
#171
1C
b10110 E
b01001 F
b00000000000000000000000000010110 I
b00000000000000000000000000001001 J
b00000000000000000000000000010110 L
b00000000000000000000000000001001 M
#172
0C
#173
1C
b10111 E
b01000 F
b00000000000000000000000000010111 I
b00000000000000000000000000001000 J
b00000000000000000000000000010111 L
b00000000000000000000000000001000 M
#174
0C
#175
1C
b11000 E
b00111 F
b00000000000000000000000000011000 I
b00000000000000000000000000000111 J
b00000000000000000000000000011000 L
b00000000000000000000000000000111 M
#176
0C
#177
1C
b11001 E
b00110 F
b00000000000000000000000000011001 I
b00000000000000000000000011001000 J
b00000000000000000000000000011001 L
b00000000000000000000000011001000 M
#178
0C
#179
1C
b11010 E
b00101 F
b00000000000000000000000000011010 I
b00000000000000000000000000000101 J
b00000000000000000000000000011010 L
b00000000000000000000000000000101 M
#180
0C
#181
1C
b11011 E
b00100 F
b00000000000000000000000000011011 I
b00000000000000000000000000000100 J
b00000000000000000000000000011011 L
b00000000000000000000000000000100 M
#182
0C
#183
1C
b11100 E
b00011 F
b00000000000000000000000000011100 I
b00000000000000000000000000000011 J
b00000000000000000000000000011100 L
b00000000000000000000000000000011 M
#184
0C
#185
1C
b11101 E
b00010 F
b00000000000000000000000000011101 I
b00000000000000000000000000000010 J
b00000000000000000000000000011101 L
b00000000000000000000000000000010 M
#186
0C
#187
1C
b11110 E
b00001 F
b00000000000000000000000000011110 I
b00000000000000000000000000000001 J
b00000000000000000000000000011110 L
b00000000000000000000000000000001 M
#188
0C
#189
1C
b11111 E
b00000 F
b00000000000000000000000000000000 I
b00000000000000000000000000000000 J
b00000000000000000000000000000000 L
b00000000000000000000000000000000 M
#190
0C
#191
1C
b00000 E
b11111 F
#192
0C
#193
1C
b00001 E
b11110 F
b00000000000000000000000000000001 I
b00000000000000000000000000011110 J
b00000000000000000000000000000001 L
b00000000000000000000000000011110 M
#194
0C
#195
1C
b00010 E
b11101 F
b00000000000000000000000000000010 I
b00000000000000000000000000011101 J
b00000000000000000000000000000010 L
b00000000000000000000000000011101 M
#196
0C
#197
1C
b00011 E
b11100 F
b00000000000000000000000000000011 I
b00000000000000000000000000011100 J
b00000000000000000000000000000011 L
b00000000000000000000000000011100 M
#198
0C
#199
1C
b00100 E
b11011 F
b00000000000000000000000000000100 I
b00000000000000000000000000011011 J
b00000000000000000000000000000100 L
b00000000000000000000000000011011 M
#200
0C
#201
1C
b00101 E
b11010 F
b00000000000000000000000000000101 I
b00000000000000000000000000011010 J
b00000000000000000000000000000101 L
b00000000000000000000000000011010 M
#202
0C
#203
1C
b00110 E
b11001 F
b00000000000000000000000011001000 I
b00000000000000000000000000011001 J
b00000000000000000000000011001000 L
b00000000000000000000000000011001 M
#204
0C
#205
1C
b00111 E
b11000 F
b00000000000000000000000000000111 I
b00000000000000000000000000011000 J
b00000000000000000000000000000111 L
b00000000000000000000000000011000 M
#206
0C
#207
1C
b01000 E
b10111 F
b00000000000000000000000000001000 I
b00000000000000000000000000010111 J
b00000000000000000000000000001000 L
b00000000000000000000000000010111 M
#208
0C
#209
1C
b01001 E
b10110 F
b00000000000000000000000000001001 I
b00000000000000000000000000010110 J
b00000000000000000000000000001001 L
b00000000000000000000000000010110 M
#210
0C
#211
1C
b01010 E
b10101 F
b00000000000000000000000000001010 I
b00000000000000000000000000010101 J
b00000000000000000000000000001010 L
b00000000000000000000000000010101 M
#212
0C
#213
1C
b01011 E
b10100 F
b00000000000000000000000000001011 I
b00000000000000000000000000010100 J
b00000000000000000000000000001011 L
b00000000000000000000000000010100 M
#214
0C
#215
1C
b01100 E
b10011 F
b00000000000000000000000000001100 I
b00000000000000000000000000010011 J
b00000000000000000000000000001100 L
b00000000000000000000000000010011 M
#216
0C
#217
1C
b01101 E
b10010 F
b00000000000000000000000000001101 I
b00000000000000000000000000010010 J
b00000000000000000000000000001101 L
b00000000000000000000000000010010 M
#218
0C
#219
1C
b01110 E
b10001 F
b00000000000000000000000000001110 I
b00000000000000000000000000010001 J
b00000000000000000000000000001110 L
b00000000000000000000000000010001 M
#220
0C
#221
1C
b01111 E
b10000 F
b00000000000000000000000000001111 I
b00000000000000000000000000010000 J
b00000000000000000000000000001111 L
b00000000000000000000000000010000 M
#222
0C
#223
1C
b10000 E
b01111 F
b00000000000000000000000000010000 I
b00000000000000000000000000001111 J
b00000000000000000000000000010000 L
b00000000000000000000000000001111 M
#224
0C
#225
1C
b10001 E
b01110 F
b00000000000000000000000000010001 I
b00000000000000000000000000001110 J
b00000000000000000000000000010001 L
b00000000000000000000000000001110 M
#226
0C
#227
1C
b10010 E
b01101 F
b00000000000000000000000000010010 I
b00000000000000000000000000001101 J
b00000000000000000000000000010010 L
b00000000000000000000000000001101 M
#228
0C
#229
1C
b10011 E
b01100 F
b00000000000000000000000000010011 I
b00000000000000000000000000001100 J
b00000000000000000000000000010011 L
b00000000000000000000000000001100 M
#230
0C
#231
1C
b10100 E
b01011 F
b00000000000000000000000000010100 I
b00000000000000000000000000001011 J
b00000000000000000000000000010100 L
b00000000000000000000000000001011 M
#232
0C
#233
1C
b10101 E
b01010 F
b00000000000000000000000000010101 I
b00000000000000000000000000001010 J
b00000000000000000000000000010101 L
b00000000000000000000000000001010 M
#234
0C
#235
1C
b10110 E
b01001 F
b00000000000000000000000000010110 I
b00000000000000000000000000001001 J
b00000000000000000000000000010110 L
b00000000000000000000000000001001 M
#236
0C
#237
1C
b10111 E
b01000 F
b00000000000000000000000000010111 I
b00000000000000000000000000001000 J
b00000000000000000000000000010111 L
b00000000000000000000000000001000 M
#238
0C
#239
1C
b11000 E
b00111 F
b00000000000000000000000000011000 I
b00000000000000000000000000000111 J
b00000000000000000000000000011000 L
b00000000000000000000000000000111 M
#240
0C
#241
1C
b11001 E
b00110 F
b00000000000000000000000000011001 I
b00000000000000000000000011001000 J
b00000000000000000000000000011001 L
b00000000000000000000000011001000 M
#242
0C
#243
1C
b11010 E
b00101 F
b00000000000000000000000000011010 I
b00000000000000000000000000000101 J
b00000000000000000000000000011010 L
b00000000000000000000000000000101 M
#244
0C
#245
1C
b11011 E
b00100 F
b00000000000000000000000000011011 I
b00000000000000000000000000000100 J
b00000000000000000000000000011011 L
b00000000000000000000000000000100 M
#246
0C
#247
1C
b11100 E
b00011 F
b00000000000000000000000000011100 I
b00000000000000000000000000000011 J
b00000000000000000000000000011100 L
b00000000000000000000000000000011 M
#248
0C
#249
1C
b11101 E
b00010 F
b00000000000000000000000000011101 I
b00000000000000000000000000000010 J
b00000000000000000000000000011101 L
b00000000000000000000000000000010 M
#250
0C
#251
1C
b11110 E
b00001 F
b00000000000000000000000000011110 I
b00000000000000000000000000000001 J
b00000000000000000000000000011110 L
b00000000000000000000000000000001 M
#252
0C
#253
1C
b11111 E
b00000 F
b00000000000000000000000000000000 I
b00000000000000000000000000000000 J
b00000000000000000000000000000000 L
b00000000000000000000000000000000 M
#254
0C
#255
1C
b00000 E
b11111 F
#256
0C
#257
1C
b00001 E
b11110 F
b00000000000000000000000000000001 I
b00000000000000000000000000011110 J
b00000000000000000000000000000001 L
b00000000000000000000000000011110 M
#258
0C
#259
1C
b00010 E
b11101 F
b00000000000000000000000000000010 I
b00000000000000000000000000011101 J
b00000000000000000000000000000010 L
b00000000000000000000000000011101 M
#260
0C
#261
1C
b00011 E
b11100 F
b00000000000000000000000000000011 I
b00000000000000000000000000011100 J
b00000000000000000000000000000011 L
b00000000000000000000000000011100 M
#262
0C
#263
1C
b00100 E
b11011 F
b00000000000000000000000000000100 I
b00000000000000000000000000011011 J
b00000000000000000000000000000100 L
b00000000000000000000000000011011 M
#264
0C
#265
1C
b00101 E
b11010 F
b00000000000000000000000000000101 I
b00000000000000000000000000011010 J
b00000000000000000000000000000101 L
b00000000000000000000000000011010 M
#266
0C
#267
1C
b00110 E
b11001 F
b00000000000000000000000011001000 I
b00000000000000000000000000011001 J
b00000000000000000000000011001000 L
b00000000000000000000000000011001 M
#268
0C
#269
1C
b00111 E
b11000 F
b00000000000000000000000000000111 I
b00000000000000000000000000011000 J
b00000000000000000000000000000111 L
b00000000000000000000000000011000 M
#270
0C
#271
1C
b01000 E
b10111 F
b00000000000000000000000000001000 I
b00000000000000000000000000010111 J
b00000000000000000000000000001000 L
b00000000000000000000000000010111 M
#272
0C
#273
1C
b01001 E
b10110 F
b00000000000000000000000000001001 I
b00000000000000000000000000010110 J
b00000000000000000000000000001001 L
b00000000000000000000000000010110 M
#274
0C
#275
1C
b01010 E
b10101 F
b00000000000000000000000000001010 I
b00000000000000000000000000010101 J
b00000000000000000000000000001010 L
b00000000000000000000000000010101 M
#276
0C
#277
1C
b01011 E
b10100 F
b00000000000000000000000000001011 I
b00000000000000000000000000010100 J
b00000000000000000000000000001011 L
b00000000000000000000000000010100 M
#278
0C
#279
1C
b01100 E
b10011 F
b00000000000000000000000000001100 I
b00000000000000000000000000010011 J
b00000000000000000000000000001100 L
b00000000000000000000000000010011 M
#280
0C
#281
1C
b01101 E
b10010 F
b00000000000000000000000000001101 I
b00000000000000000000000000010010 J
b00000000000000000000000000001101 L
b00000000000000000000000000010010 M
#282
0C
#283
1C
b01110 E
b10001 F
b00000000000000000000000000001110 I
b00000000000000000000000000010001 J
b00000000000000000000000000001110 L
b00000000000000000000000000010001 M
#284
0C
#285
1C
b01111 E
b10000 F
b00000000000000000000000000001111 I
b00000000000000000000000000010000 J
b00000000000000000000000000001111 L
b00000000000000000000000000010000 M
#286
0C
#287
1C
b10000 E
b01111 F
b00000000000000000000000000010000 I
b00000000000000000000000000001111 J
b00000000000000000000000000010000 L
b00000000000000000000000000001111 M
#288
0C
#289
1C
b10001 E
b01110 F
b00000000000000000000000000010001 I
b00000000000000000000000000001110 J
b00000000000000000000000000010001 L
b00000000000000000000000000001110 M
#290
0C
#291
1C
b10010 E
b01101 F
b00000000000000000000000000010010 I
b00000000000000000000000000001101 J
b00000000000000000000000000010010 L
b00000000000000000000000000001101 M
#292
0C
#293
1C
b10011 E
b01100 F
b00000000000000000000000000010011 I
b00000000000000000000000000001100 J
b00000000000000000000000000010011 L
b00000000000000000000000000001100 M
#294
0C
#295
1C
b10100 E
b01011 F
b00000000000000000000000000010100 I
b00000000000000000000000000001011 J
b00000000000000000000000000010100 L
b00000000000000000000000000001011 M
#296
0C
#297
1C
b10101 E
b01010 F
b00000000000000000000000000010101 I
b00000000000000000000000000001010 J
b00000000000000000000000000010101 L
b00000000000000000000000000001010 M
#298
0C
#299
1C
b10110 E
b01001 F
b00000000000000000000000000010110 I
b00000000000000000000000000001001 J
b00000000000000000000000000010110 L
b00000000000000000000000000001001 M
#300
0C
#301
1C
b10111 E
b01000 F
b00000000000000000000000000010111 I
b00000000000000000000000000001000 J
b00000000000000000000000000010111 L
b00000000000000000000000000001000 M
#302
0C
#303
1C
b11000 E
b00111 F
b00000000000000000000000000011000 I
b00000000000000000000000000000111 J
b00000000000000000000000000011000 L
b00000000000000000000000000000111 M
#304
0C
#305
1C
b11001 E
b00110 F
b00000000000000000000000000011001 I
b00000000000000000000000011001000 J
b00000000000000000000000000011001 L
b00000000000000000000000011001000 M
#306
0C
