riscv-mini-five-stage/vcd/Tile.vcd
$version Generated by VerilatedVcd $end
$date Wed Jul 10 20:44:39 2019
 $end
$timescale   1ns $end

 $scope module TOP $end
  $var wire  1 b clock $end
  $var wire  5 u io_ALUOp [4:0] $end
  $var wire  1 t io_ALU_Src $end
  $var wire  1 v io_Branch $end
  $var wire  1 w io_Branch_Src $end
  $var wire  2 z io_Data_Size [1:0] $end
  $var wire  1 l io_IF_ID_Flush $end
  $var wire  1 k io_IF_ID_Write $end
  $var wire  3 m io_Imm_Sel [2:0] $end
  $var wire  1 } io_Jump_Type $end
  $var wire  1 { io_Load_Type $end
  $var wire  1 x io_Mem_Read $end
  $var wire  1 y io_Mem_Write $end
  $var wire  3 | io_Mem_to_Reg [2:0] $end
  $var wire  2 g io_PC_Sel [1:0] $end
  $var wire  1 d io_PC_Write $end
  $var wire  1 j io_Reg_Write $end
  $var wire 32 p io_id_inst [31:0] $end
  $var wire 32 n io_id_pc [31:0] $end
  $var wire 32 o io_id_pc_4 [31:0] $end
  $var wire 32 s io_imm [31:0] $end
  $var wire 32 f io_new_addr [31:0] $end
  $var wire 32 e io_pc_recover [31:0] $end
  $var wire 32 h io_rd [31:0] $end
  $var wire 32 q io_rs1_out [31:0] $end
  $var wire 32 r io_rs2_out [31:0] $end
  $var wire 32 i io_wdata [31:0] $end
  $var wire  1 c reset $end
  $scope module Tile $end
   $var wire  1 b clock $end
   $var wire  5 ( control_io_ALUOp [4:0] $end
   $var wire  1 ' control_io_ALU_Src $end
   $var wire  1 ) control_io_Branch $end
   $var wire  1 * control_io_Branch_Src $end
   $var wire  2 - control_io_Data_Size [1:0] $end
   $var wire  3 & control_io_Imm_Sel [2:0] $end
   $var wire  1 0 control_io_Jump_Type $end
   $var wire  1 . control_io_Load_Type $end
   $var wire  1 + control_io_Mem_Read $end
   $var wire  1 , control_io_Mem_Write $end
   $var wire  3 / control_io_Mem_to_Reg [2:0] $end
   $var wire  1 $ control_io_Reg_Write $end
   $var wire 32 ; control_io_inst [31:0] $end
   $var wire  2 g datapath_io_if_io_PC_Sel [1:0] $end
   $var wire 32 f datapath_io_if_io_new_addr [31:0] $end
   $var wire 32 ~ datapath_io_if_io_next_pc [31:0] $end
   $var wire 32 6 datapath_io_if_io_pc_4 [31:0] $end
   $var wire 32 5 datapath_io_if_io_pc_out [31:0] $end
   $var wire 32 e datapath_io_if_io_pc_recover [31:0] $end
   $var wire  1 b if_id_register_clock $end
   $var wire  1 l if_id_register_io_IF_ID_Flush $end
   $var wire  1 k if_id_register_io_IF_ID_Write $end
   $var wire 32 ; if_id_register_io_id_inst [31:0] $end
   $var wire 32 7 if_id_register_io_id_pc [31:0] $end
   $var wire 32 8 if_id_register_io_id_pc_4 [31:0] $end
   $var wire  5 9 if_id_register_io_id_rs1 [4:0] $end
   $var wire  5 : if_id_register_io_id_rs2 [4:0] $end
   $var wire 32 # if_id_register_io_if_inst [31:0] $end
   $var wire 32 5 if_id_register_io_if_pc [31:0] $end
   $var wire 32 6 if_id_register_io_if_pc_4 [31:0] $end
   $var wire  1 c if_id_register_reset $end
   $var wire  3 & immgen_io_Imm_Sel [2:0] $end
   $var wire 32 % immgen_io_imm [31:0] $end
   $var wire 32 ; immgen_io_inst [31:0] $end
   $var wire  1 b instcache_clock $end
   $var wire 32 5 instcache_io_addr [31:0] $end
   $var wire 32 # instcache_io_inst [31:0] $end
   $var wire  5 u io_ALUOp [4:0] $end
   $var wire  1 t io_ALU_Src $end
   $var wire  1 v io_Branch $end
   $var wire  1 w io_Branch_Src $end
   $var wire  2 z io_Data_Size [1:0] $end
   $var wire  1 l io_IF_ID_Flush $end
   $var wire  1 k io_IF_ID_Write $end
   $var wire  3 m io_Imm_Sel [2:0] $end
   $var wire  1 } io_Jump_Type $end
   $var wire  1 { io_Load_Type $end
   $var wire  1 x io_Mem_Read $end
   $var wire  1 y io_Mem_Write $end
   $var wire  3 | io_Mem_to_Reg [2:0] $end
   $var wire  2 g io_PC_Sel [1:0] $end
   $var wire  1 d io_PC_Write $end
   $var wire  1 j io_Reg_Write $end
   $var wire 32 p io_id_inst [31:0] $end
   $var wire 32 n io_id_pc [31:0] $end
   $var wire 32 o io_id_pc_4 [31:0] $end
   $var wire 32 s io_imm [31:0] $end
   $var wire 32 f io_new_addr [31:0] $end
   $var wire 32 e io_pc_recover [31:0] $end
   $var wire 32 h io_rd [31:0] $end
   $var wire 32 q io_rs1_out [31:0] $end
   $var wire 32 r io_rs2_out [31:0] $end
   $var wire 32 i io_wdata [31:0] $end
   $var wire  1 b pc_clock $end
   $var wire  1 d pc_io_PC_Write $end
   $var wire 32 ~ pc_io_next_pc [31:0] $end
   $var wire 32 5 pc_io_pc_out [31:0] $end
   $var wire  1 c pc_reset $end
   $var wire  1 b regfile_clock $end
   $var wire  1 $ regfile_io_Reg_Write $end
   $var wire  5 !! regfile_io_rd [4:0] $end
   $var wire  5 9 regfile_io_rs1 [4:0] $end
   $var wire 32 "! regfile_io_rs1_out [31:0] $end
   $var wire  5 : regfile_io_rs2 [4:0] $end
   $var wire 32 #! regfile_io_rs2_out [31:0] $end
   $var wire 32 i regfile_io_wdata [31:0] $end
   $var wire  1 c reset $end
   $scope module control $end
    $var wire  5 ( io_ALUOp [4:0] $end
    $var wire  1 ' io_ALU_Src $end
    $var wire  1 ) io_Branch $end
    $var wire  1 * io_Branch_Src $end
    $var wire  2 - io_Data_Size [1:0] $end
    $var wire  3 & io_Imm_Sel [2:0] $end
    $var wire  1 0 io_Jump_Type $end
    $var wire  1 . io_Load_Type $end
    $var wire  1 + io_Mem_Read $end
    $var wire  1 , io_Mem_Write $end
    $var wire  3 / io_Mem_to_Reg [2:0] $end
    $var wire  1 $ io_Reg_Write $end
    $var wire 32 ; io_inst [31:0] $end
   $upscope $end
   $scope module datapath $end
    $var wire  2 g io_if_io_PC_Sel [1:0] $end
    $var wire 32 f io_if_io_new_addr [31:0] $end
    $var wire 32 ~ io_if_io_next_pc [31:0] $end
    $var wire 32 6 io_if_io_pc_4 [31:0] $end
    $var wire 32 5 io_if_io_pc_out [31:0] $end
    $var wire 32 e io_if_io_pc_recover [31:0] $end
   $upscope $end
   $scope module if_id_register $end
    $var wire  1 b clock $end
    $var wire 32 ; inst [31:0] $end
    $var wire  1 l io_IF_ID_Flush $end
    $var wire  1 k io_IF_ID_Write $end
    $var wire 32 ; io_id_inst [31:0] $end
    $var wire 32 7 io_id_pc [31:0] $end
    $var wire 32 8 io_id_pc_4 [31:0] $end
    $var wire  5 9 io_id_rs1 [4:0] $end
    $var wire  5 : io_id_rs2 [4:0] $end
    $var wire 32 # io_if_inst [31:0] $end
    $var wire 32 5 io_if_pc [31:0] $end
    $var wire 32 6 io_if_pc_4 [31:0] $end
    $var wire 32 7 pc [31:0] $end
    $var wire 32 8 pc_4 [31:0] $end
    $var wire  1 c reset $end
   $upscope $end
   $scope module immgen $end
    $var wire  3 & io_Imm_Sel [2:0] $end
    $var wire 32 % io_imm [31:0] $end
    $var wire 32 ; io_inst [31:0] $end
   $upscope $end
   $scope module instcache $end
    $var wire 10 < cache__T_49_addr [9:0] $end
    $var wire  8 1 cache__T_49_data [7:0] $end
    $var wire 10 = cache__T_51_addr [9:0] $end
    $var wire  8 2 cache__T_51_data [7:0] $end
    $var wire 10 > cache__T_53_addr [9:0] $end
    $var wire  8 3 cache__T_53_data [7:0] $end
    $var wire 10 ? cache__T_55_addr [9:0] $end
    $var wire  8 4 cache__T_55_data [7:0] $end
    $var wire  1 b clock $end
    $var wire 32 5 io_addr [31:0] $end
    $var wire 32 # io_inst [31:0] $end
    $scope module BindsTo_0_InstCache_Inst $end
     $var wire  1 b clock $end
     $var wire 32 5 io_addr [31:0] $end
     $var wire 32 # io_inst [31:0] $end
    $upscope $end
   $upscope $end
   $scope module pc $end
    $var wire  1 b clock $end
    $var wire  1 d io_PC_Write $end
    $var wire 32 ~ io_next_pc [31:0] $end
    $var wire 32 5 io_pc_out [31:0] $end
    $var wire 32 5 pc_reg [31:0] $end
    $var wire  1 c reset $end
   $upscope $end
   $scope module regfile $end
    $var wire  1 b clock $end
    $var wire  1 $ io_Reg_Write $end
    $var wire  5 !! io_rd [4:0] $end
    $var wire  5 9 io_rs1 [4:0] $end
    $var wire 32 "! io_rs1_out [31:0] $end
    $var wire  5 : io_rs2 [4:0] $end
    $var wire 32 #! io_rs2_out [31:0] $end
    $var wire 32 i io_wdata [31:0] $end
    $var wire 32 @ regfile(0) [31:0] $end
    $var wire 32 A regfile(1) [31:0] $end
    $var wire 32 J regfile(10) [31:0] $end
    $var wire 32 K regfile(11) [31:0] $end
    $var wire 32 L regfile(12) [31:0] $end
    $var wire 32 M regfile(13) [31:0] $end
    $var wire 32 N regfile(14) [31:0] $end
    $var wire 32 O regfile(15) [31:0] $end
    $var wire 32 P regfile(16) [31:0] $end
    $var wire 32 Q regfile(17) [31:0] $end
    $var wire 32 R regfile(18) [31:0] $end
    $var wire 32 S regfile(19) [31:0] $end
    $var wire 32 B regfile(2) [31:0] $end
    $var wire 32 T regfile(20) [31:0] $end
    $var wire 32 U regfile(21) [31:0] $end
    $var wire 32 V regfile(22) [31:0] $end
    $var wire 32 W regfile(23) [31:0] $end
    $var wire 32 X regfile(24) [31:0] $end
    $var wire 32 Y regfile(25) [31:0] $end
    $var wire 32 Z regfile(26) [31:0] $end
    $var wire 32 [ regfile(27) [31:0] $end
    $var wire 32 \ regfile(28) [31:0] $end
    $var wire 32 ] regfile(29) [31:0] $end
    $var wire 32 C regfile(3) [31:0] $end
    $var wire 32 ^ regfile(30) [31:0] $end
    $var wire 32 _ regfile(31) [31:0] $end
    $var wire 32 D regfile(4) [31:0] $end
    $var wire 32 E regfile(5) [31:0] $end
    $var wire 32 F regfile(6) [31:0] $end
    $var wire 32 G regfile(7) [31:0] $end
    $var wire 32 H regfile(8) [31:0] $end
    $var wire 32 I regfile(9) [31:0] $end
    $var wire  5 9 regfile__T_127_addr [4:0] $end
    $var wire 32 ` regfile__T_127_data [31:0] $end
    $var wire  5 : regfile__T_129_addr [4:0] $end
    $var wire 32 a regfile__T_129_data [31:0] $end
    $var wire  5 !! regfile__T_134_addr [4:0] $end
    $var wire 32 $! regfile__T_134_data [31:0] $end
    $var wire  5 !! regfile__T_136_addr [4:0] $end
    $var wire 32 %! regfile__T_136_data [31:0] $end
    $var wire  1 &! regfile__T_136_en $end
    $var wire  1 &! regfile__T_136_mask $end
   $upscope $end
  $upscope $end
 $upscope $end
$enddefinitions $end


#0
b00000000000000000000000000010011 #
0$
b00000000000000000000000000000000 %
b000 &
0'
b10000 (
0)
0*
0+
0,
b00 -
0.
b000 /
00
b00000000 1
b00000000 2
b00000000 3
b00010011 4
b00000000000000000000000000000000 5
b00000000000000000000000000000100 6
b00000000000000000000000000000000 7
b00000000000000000000000000000000 8
b00000 9
b00000 :
b00000000000000000000000000000000 ;
b0000000000 <
b0000000001 =
b0000000010 >
b0000000011 ?
b00000000000000000000000000000000 @
b00000000000000000000000000000000 A
b00000000000000000000000000000000 B
b00000000000000000000000000000000 C
b00000000000000000000000000000000 D
b00000000000000000000000000000000 E
b00000000000000000000000000000000 F
b00000000000000000000000000000000 G
b00000000000000000000000000000000 H
b00000000000000000000000000000000 I
b00000000000000000000000000000000 J
b00000000000000000000000000000000 K
b00000000000000000000000000000000 L
b00000000000000000000000000000000 M
b00000000000000000000000000000000 N
b00000000000000000000000000000000 O
b00000000000000000000000000000000 P
b00000000000000000000000000000000 Q
b00000000000000000000000000000000 R
b00000000000000000000000000000000 S
b00000000000000000000000000000000 T
b00000000000000000000000000000000 U
b00000000000000000000000000000000 V
b00000000000000000000000000000000 W
b00000000000000000000000000000000 X
b00000000000000000000000000000000 Y
b00000000000000000000000000000000 Z
b00000000000000000000000000000000 [
b00000000000000000000000000000000 \
b00000000000000000000000000000000 ]
b00000000000000000000000000000000 ^
b00000000000000000000000000000000 _
b00000000000000000000000000000000 `
b00000000000000000000000000000000 a
0b
0c
1d
b00000000000000000000001111101000 e
b00000000000000000000011111010000 f
b00 g
b00000000000000000000000000000000 h
b00000000000000000000000000000000 i
0j
1k
0l
b000 m
b00000000000000000000000000000000 n
b00000000000000000000000000000000 o
b00000000000000000000000000000000 p
b00000000000000000000000000000000 q
b00000000000000000000000000000000 r
b00000000000000000000000000000000 s
0t
b10000 u
0v
0w
0x
0y
b00 z
0{
b000 |
0}
b00000000000000000000000000000100 ~
b00000 !!
b00000000000000000000000000000000 "!
b00000000000000000000000000000000 #!
b00000000000000000000000000000000 $!
b00000000000000000000000000000000 %!
1&!
#1
b00000000001100010000000010110011 #
1$
b010 &
1'
b00000 (
b00110001 2
b10110011 4
b00000000000000000000000000000100 5
b00000000000000000000000000001000 6
b00000000000000000000000000000100 8
b00000000000000000000000000010011 ;
b0000000100 <
b0000000101 =
b0000000110 >
b0000000111 ?
1b
1j
b010 m
b00000000000000000000000000000100 o
b00000000000000000000000000010011 p
1t
b00000 u
b00000000000000000000000000001000 ~
#2
0b
#3
b00000010000100011000000100010011 #
b001 &
0'
b00000010 1
b00010001 2
b10000001 3
b00010011 4
b00000000000000000000000000001000 5
b00000000000000000000000000001100 6
b00000000000000000000000000000100 7
b00000000000000000000000000001000 8
b00010 9
b00011 :
b00000000001100010000000010110011 ;
b0000001000 <
b0000001001 =
b0000001010 >
b0000001011 ?
1b
b001 m
b00000000000000000000000000000100 n
b00000000000000000000000000001000 o
b00000000001100010000000010110011 p
0t
b00000000000000000000000000001100 ~
#4
0b
#5
b11111110111000100000000110010011 #
b00000000000000000000000000100001 %
b010 &
1'
b11111110 1
b11100010 2
b00000001 3
b10010011 4
b00000000000000000000000000001100 5
b00000000000000000000000000010000 6
b00000000000000000000000000001000 7
b00000000000000000000000000001100 8
b00011 9
b00001 :
b00000010000100011000000100010011 ;
b0000001100 <
b0000001101 =
b0000001110 >
b0000001111 ?
1b
b010 m
b00000000000000000000000000001000 n
b00000000000000000000000000001100 o
b00000010000100011000000100010011 p
b00000000000000000000000000100001 s
1t
b00000000000000000000000000010000 ~
#6
0b
#7
b00000000010100110010100000100011 #
b11111111111111111111111111101110 %
b00000000 1
b01010011 2
b00101000 3
b00100011 4
b00000000000000000000000000010000 5
b00000000000000000000000000010100 6
b00000000000000000000000000001100 7
b00000000000000000000000000010000 8
b00100 9
b01110 :
b11111110111000100000000110010011 ;
b0000010000 <
b0000010001 =
b0000010010 >
b0000010011 ?
1b
b00000000000000000000000000001100 n
b00000000000000000000000000010000 o
b11111110111000100000000110010011 p
b11111111111111111111111111101110 s
b00000000000000000000000000010100 ~
#8
0b
#9
b11111110011000111010111000100011 #
0$
b00000000000000000000000000010000 %
b011 &
1,
b11111110 1
b01100011 2
b10101110 3
b00000000000000000000000000010100 5
b00000000000000000000000000011000 6
b00000000000000000000000000010000 7
b00000000000000000000000000010100 8
b00110 9
b00101 :
b00000000010100110010100000100011 ;
b0000010100 <
b0000010101 =
b0000010110 >
b0000010111 ?
1b
0j
b011 m
b00000000000000000000000000010000 n
b00000000000000000000000000010100 o
b00000000010100110010100000100011 p
b00000000000000000000000000010000 s
1y
b00000000000000000000000000011000 ~
#10
0b
#11
b00000000100000111100001001100011 #
b11111111111111111111111111111100 %
b00000000 1
b10000011 2
b11000010 3
b01100011 4
b00000000000000000000000000011000 5
b00000000000000000000000000011100 6
b00000000000000000000000000010100 7
b00000000000000000000000000011000 8
b00111 9
b00110 :
b11111110011000111010111000100011 ;
b0000011000 <
b0000011001 =
b0000011010 >
b0000011011 ?
1b
b00000000000000000000000000010100 n
b00000000000000000000000000011000 o
b11111110011000111010111000100011 p
b11111111111111111111111111111100 s
b00000000000000000000000000011100 ~
#12
0b
#13
b11111110100101000001110011100011 #
b00000000000000000000000000000100 %
b100 &
0'
b01100 (
1)
0,
b11111110 1
b10010100 2
b00011100 3
b11100011 4
b00000000000000000000000000011100 5
b00000000000000000000000000100000 6
b00000000000000000000000000011000 7
b00000000000000000000000000011100 8
b01000 :
b00000000100000111100001001100011 ;
b0000011100 <
b0000011101 =
b0000011110 >
b0000011111 ?
1b
b100 m
b00000000000000000000000000011000 n
b00000000000000000000000000011100 o
b00000000100000111100001001100011 p
b00000000000000000000000000000100 s
0t
b01100 u
1v
0y
b00000000000000000000000000100000 ~
#14
0b
#15
b00000000000110110100010100010111 #
b11111111111111111111111111111000 %
b01011 (
b00000000 1
b00011011 2
b01000101 3
b00010111 4
b00000000000000000000000000100000 5
b00000000000000000000000000100100 6
b00000000000000000000000000011100 7
b00000000000000000000000000100000 8
b01000 9
b01001 :
b11111110100101000001110011100011 ;
b0000100000 <
b0000100001 =
b0000100010 >
b0000100011 ?
1b
b00000000000000000000000000011100 n
b00000000000000000000000000100000 o
b11111110100101000001110011100011 p
b11111111111111111111111111111000 s
b01011 u
b00000000000000000000000000100100 ~
#16
0b
#17
b11111111111100101110010110010111 #
1$
b00000000000110110100000000000000 %
b101 &
b00000 (
0)
b100 /
b11111111 1
b11110010 2
b11100101 3
b10010111 4
b00000000000000000000000000100100 5
b00000000000000000000000000101000 6
b00000000000000000000000000100000 7
b00000000000000000000000000100100 8
b10110 9
b00001 :
b00000000000110110100010100010111 ;
b0000100100 <
b0000100101 =
b0000100110 >
b0000100111 ?
1b
1j
b101 m
b00000000000000000000000000100000 n
b00000000000000000000000000100100 o
b00000000000110110100010100010111 p
b00000000000110110100000000000000 s
b00000 u
0v
b100 |
b00000000000000000000000000101000 ~
#18
0b
#19
b01011000011000000000011001101111 #
b11111111111100101110000000000000 %
b01011000 1
b01100000 2
b00000110 3
b01101111 4
b00000000000000000000000000101000 5
b00000000000000000000000000101100 6
b00000000000000000000000000100100 7
b00000000000000000000000000101000 8
b00101 9
b11111 :
b11111111111100101110010110010111 ;
b0000101000 <
b0000101001 =
b0000101010 >
b0000101011 ?
1b
b00000000000000000000000000100100 n
b00000000000000000000000000101000 o
b11111111111100101110010110010111 p
b11111111111100101110000000000000 s
b00000000000000000000000000101100 ~
#20
0b
#21
b11100011000111111111011011101111 #
b00000000000000000000010110000110 %
b110 &
1)
b010 /
10
b11100011 1
b00011111 2
b11110110 3
b11101111 4
b00000000000000000000000000101100 5
b00000000000000000000000000110000 6
b00000000000000000000000000101000 7
b00000000000000000000000000101100 8
b00000 9
b00110 :
b01011000011000000000011001101111 ;
b0000101100 <
b0000101101 =
b0000101110 >
b0000101111 ?
1b
b110 m
b00000000000000000000000000101000 n
b00000000000000000000000000101100 o
b01011000011000000000011001101111 p
b00000000000000000000010110000110 s
1v
b010 |
1}
b00000000000000000000000000110000 ~
#22
0b
#23
b00000000000000000000000000010011 #
b11111111111111111111111000110000 %
b00000000 1
b00000000 2
b00000000 3
b00010011 4
b00000000000000000000000000110000 5
b00000000000000000000000000110100 6
b00000000000000000000000000101100 7
b00000000000000000000000000110000 8
b11111 9
b10001 :
b11100011000111111111011011101111 ;
b0000110000 <
b0000110001 =
b0000110010 >
b0000110011 ?
1b
b00000000000000000000000000101100 n
b00000000000000000000000000110000 o
b11100011000111111111011011101111 p
b11111111111111111111111000110000 s
b00000000000000000000000000110100 ~
#24
0b
#25
b00000000000000000000000000000000 #
b00000000000000000000000000000000 %
b010 &
1'
0)
b000 /
00
b00000000 4
b00000000000000000000000000110100 5
b00000000000000000000000000111000 6
b00000000000000000000000000110000 7
b00000000000000000000000000110100 8
b00000 9
b00000 :
b00000000000000000000000000010011 ;
b0000110100 <
b0000110101 =
b0000110110 >
b0000110111 ?
1b
b010 m
b00000000000000000000000000110000 n
b00000000000000000000000000110100 o
b00000000000000000000000000010011 p
b00000000000000000000000000000000 s
1t
0v
b000 |
0}
b00000000000000000000000000111000 ~
#26
0b
#27
0$
b000 &
0'
b10000 (
b00000000000000000000000000111000 5
b00000000000000000000000000111100 6
b00000000000000000000000000110100 7
b00000000000000000000000000111000 8
b00000000000000000000000000000000 ;
b0000111000 <
b0000111001 =
b0000111010 >
b0000111011 ?
1b
0j
b000 m
b00000000000000000000000000110100 n
b00000000000000000000000000111000 o
b00000000000000000000000000000000 p
0t
b10000 u
b00000000000000000000000000111100 ~
#28
0b
#29
b00000000000000000000000000111100 5
b00000000000000000000000001000000 6
b00000000000000000000000000111000 7
b00000000000000000000000000111100 8
b0000111100 <
b0000111101 =
b0000111110 >
b0000111111 ?
1b
b00000000000000000000000000111000 n
b00000000000000000000000000111100 o
b00000000000000000000000001000000 ~
#30
0b
#31
b00000000000000000000000001000000 5
b00000000000000000000000001000100 6
b00000000000000000000000000111100 7
b00000000000000000000000001000000 8
b0001000000 <
b0001000001 =
b0001000010 >
b0001000011 ?
1b
b00000000000000000000000000111100 n
b00000000000000000000000001000000 o
b00000000000000000000000001000100 ~
#32
0b
#33
b00000000000000000000000001000100 5
b00000000000000000000000001001000 6
b00000000000000000000000001000000 7
b00000000000000000000000001000100 8
b0001000100 <
b0001000101 =
b0001000110 >
b0001000111 ?
1b
b00000000000000000000000001000000 n
b00000000000000000000000001000100 o
b00000000000000000000000001001000 ~
#34
0b
#35
b00000000000000000000000001001000 5
b00000000000000000000000001001100 6
b00000000000000000000000001000100 7
b00000000000000000000000001001000 8
b0001001000 <
b0001001001 =
b0001001010 >
b0001001011 ?
1b
b00000000000000000000000001000100 n
b00000000000000000000000001001000 o
b00000000000000000000000001001100 ~
#36
0b
#37
b00000000000000000000000001001100 5
b00000000000000000000000001010000 6
b00000000000000000000000001001000 7
b00000000000000000000000001001100 8
b0001001100 <
b0001001101 =
b0001001110 >
b0001001111 ?
1b
b00000000000000000000000001001000 n
b00000000000000000000000001001100 o
b00000000000000000000000001010000 ~
#38
0b
#39
b00000000000000000000000001010000 5
b00000000000000000000000001010100 6
b00000000000000000000000001001100 7
b00000000000000000000000001010000 8
b0001010000 <
b0001010001 =
b0001010010 >
b0001010011 ?
1b
b00000000000000000000000001001100 n
b00000000000000000000000001010000 o
b00000000000000000000000001010100 ~
#40
0b
#41
b00000000000000000000000001010100 5
b00000000000000000000000001011000 6
b00000000000000000000000001010000 7
b00000000000000000000000001010100 8
b0001010100 <
b0001010101 =
b0001010110 >
b0001010111 ?
1b
b00000000000000000000000001010000 n
b00000000000000000000000001010100 o
b00000000000000000000000001011000 ~
#42
0b
#43
b00000000000000000000000001011000 5
b00000000000000000000000001011100 6
b00000000000000000000000001010100 7
b00000000000000000000000001011000 8
b0001011000 <
b0001011001 =
b0001011010 >
b0001011011 ?
1b
b00000000000000000000000001010100 n
b00000000000000000000000001011000 o
b00000000000000000000000001011100 ~
#44
0b
#45
b00000000000000000000000001011100 5
b00000000000000000000000001100000 6
b00000000000000000000000001011000 7
b00000000000000000000000001011100 8
b0001011100 <
b0001011101 =
b0001011110 >
b0001011111 ?
1b
b00000000000000000000000001011000 n
b00000000000000000000000001011100 o
b00000000000000000000000001100000 ~
#46
0b
#47
b00000000000000000000000001100000 5
b00000000000000000000000001100100 6
b00000000000000000000000001011100 7
b00000000000000000000000001100000 8
b0001100000 <
b0001100001 =
b0001100010 >
b0001100011 ?
1b
b00000000000000000000000001011100 n
b00000000000000000000000001100000 o
b00000000000000000000000001100100 ~
#48
0b
#49
b00000000000000000000000001100100 5
b00000000000000000000000001101000 6
b00000000000000000000000001100000 7
b00000000000000000000000001100100 8
b0001100100 <
b0001100101 =
b0001100110 >
b0001100111 ?
1b
b00000000000000000000000001100000 n
b00000000000000000000000001100100 o
b00000000000000000000000001101000 ~
#50
0b
#51
b00000000000000000000000001101000 5
b00000000000000000000000001101100 6
b00000000000000000000000001100100 7
b00000000000000000000000001101000 8
b0001101000 <
b0001101001 =
b0001101010 >
b0001101011 ?
1b
b00000000000000000000000001100100 n
b00000000000000000000000001101000 o
b00000000000000000000000001101100 ~
#52
0b
#53
b00000000000000000000000001101100 5
b00000000000000000000000001110000 6
b00000000000000000000000001101000 7
b00000000000000000000000001101100 8
b0001101100 <
b0001101101 =
b0001101110 >
b0001101111 ?
1b
b00000000000000000000000001101000 n
b00000000000000000000000001101100 o
b00000000000000000000000001110000 ~
#54
0b
#55
b00000000000000000000000001110000 5
b00000000000000000000000001110100 6
b00000000000000000000000001101100 7
b00000000000000000000000001110000 8
b0001110000 <
b0001110001 =
b0001110010 >
b0001110011 ?
1b
b00000000000000000000000001101100 n
b00000000000000000000000001110000 o
b00000000000000000000000001110100 ~
#56
0b
#57
b00000000000000000000000001110100 5
b00000000000000000000000001111000 6
b00000000000000000000000001110000 7
b00000000000000000000000001110100 8
b0001110100 <
b0001110101 =
b0001110110 >
b0001110111 ?
1b
b00000000000000000000000001110000 n
b00000000000000000000000001110100 o
b00000000000000000000000001111000 ~
#58
0b
#59
b00000000000000000000000001111000 5
b00000000000000000000000001111100 6
b00000000000000000000000001110100 7
b00000000000000000000000001111000 8
b0001111000 <
b0001111001 =
b0001111010 >
b0001111011 ?
1b
b00000000000000000000000001110100 n
b00000000000000000000000001111000 o
b00000000000000000000000001111100 ~
#60
0b
#61
b00000000000000000000000001111100 5
b00000000000000000000000010000000 6
b00000000000000000000000001111000 7
b00000000000000000000000001111100 8
b0001111100 <
b0001111101 =
b0001111110 >
b0001111111 ?
1b
b00000000000000000000000001111000 n
b00000000000000000000000001111100 o
b00000000000000000000000010000000 ~
#62
0b
#63
b00000000000000000000000010000000 5
b00000000000000000000000010000100 6
b00000000000000000000000001111100 7
b00000000000000000000000010000000 8
b0010000000 <
b0010000001 =
b0010000010 >
b0010000011 ?
1b
b00000000000000000000000001111100 n
b00000000000000000000000010000000 o
b00000000000000000000000010000100 ~
#64
0b
#65
b00000000000000000000000010000100 5
b00000000000000000000000010001000 6
b00000000000000000000000010000000 7
b00000000000000000000000010000100 8
b0010000100 <
b0010000101 =
b0010000110 >
b0010000111 ?
1b
b00000000000000000000000010000000 n
b00000000000000000000000010000100 o
b00000000000000000000000010001000 ~
#66
0b
#67
b00000000000000000000000010001000 5
b00000000000000000000000010001100 6
b00000000000000000000000010000100 7
b00000000000000000000000010001000 8
b0010001000 <
b0010001001 =
b0010001010 >
b0010001011 ?
1b
b00000000000000000000000010000100 n
b00000000000000000000000010001000 o
b00000000000000000000000010001100 ~
#68
0b
#69
b00000000000000000000000010001100 5
b00000000000000000000000010010000 6
b00000000000000000000000010001000 7
b00000000000000000000000010001100 8
b0010001100 <
b0010001101 =
b0010001110 >
b0010001111 ?
1b
b00000000000000000000000010001000 n
b00000000000000000000000010001100 o
b00000000000000000000000010010000 ~
#70
0b
#71
b00000000000000000000000010010000 5
b00000000000000000000000010010100 6
b00000000000000000000000010001100 7
b00000000000000000000000010010000 8
b0010010000 <
b0010010001 =
b0010010010 >
b0010010011 ?
1b
b00000000000000000000000010001100 n
b00000000000000000000000010010000 o
b00000000000000000000000010010100 ~
#72
0b
#73
b00000000000000000000000010010100 5
b00000000000000000000000010011000 6
b00000000000000000000000010010000 7
b00000000000000000000000010010100 8
b0010010100 <
b0010010101 =
b0010010110 >
b0010010111 ?
1b
b00000000000000000000000010010000 n
b00000000000000000000000010010100 o
b00000000000000000000000010011000 ~
#74
0b
#75
b00000000000000000000000010011000 5
b00000000000000000000000010011100 6
b00000000000000000000000010010100 7
b00000000000000000000000010011000 8
b0010011000 <
b0010011001 =
b0010011010 >
b0010011011 ?
1b
b00000000000000000000000010010100 n
b00000000000000000000000010011000 o
b00000000000000000000000010011100 ~
#76
0b
#77
b00000000000000000000000010011100 5
b00000000000000000000000010100000 6
b00000000000000000000000010011000 7
b00000000000000000000000010011100 8
b0010011100 <
b0010011101 =
b0010011110 >
b0010011111 ?
1b
b00000000000000000000000010011000 n
b00000000000000000000000010011100 o
b00000000000000000000000010100000 ~
#78
0b
#79
b00000000000000000000000010100000 5
b00000000000000000000000010100100 6
b00000000000000000000000010011100 7
b00000000000000000000000010100000 8
b0010100000 <
b0010100001 =
b0010100010 >
b0010100011 ?
1b
b00000000000000000000000010011100 n
b00000000000000000000000010100000 o
b00000000000000000000000010100100 ~
#80
0b
#81
b00000000000000000000000010100100 5
b00000000000000000000000010101000 6
b00000000000000000000000010100000 7
b00000000000000000000000010100100 8
b0010100100 <
b0010100101 =
b0010100110 >
b0010100111 ?
1b
b00000000000000000000000010100000 n
b00000000000000000000000010100100 o
b00000000000000000000000010101000 ~
#82
0b
#83
b00000000000000000000000010101000 5
b00000000000000000000000010101100 6
b00000000000000000000000010100100 7
b00000000000000000000000010101000 8
b0010101000 <
b0010101001 =
b0010101010 >
b0010101011 ?
1b
b00000000000000000000000010100100 n
b00000000000000000000000010101000 o
b00000000000000000000000010101100 ~
#84
0b
#85
b00000000000000000000000010101100 5
b00000000000000000000000010110000 6
b00000000000000000000000010101000 7
b00000000000000000000000010101100 8
b0010101100 <
b0010101101 =
b0010101110 >
b0010101111 ?
1b
b00000000000000000000000010101000 n
b00000000000000000000000010101100 o
b00000000000000000000000010110000 ~
#86
0b
#87
b00000000000000000000000010110000 5
b00000000000000000000000010110100 6
b00000000000000000000000010101100 7
b00000000000000000000000010110000 8
b0010110000 <
b0010110001 =
b0010110010 >
b0010110011 ?
1b
b00000000000000000000000010101100 n
b00000000000000000000000010110000 o
b00000000000000000000000010110100 ~
#88
0b
#89
b00000000000000000000000010110100 5
b00000000000000000000000010111000 6
b00000000000000000000000010110000 7
b00000000000000000000000010110100 8
b0010110100 <
b0010110101 =
b0010110110 >
b0010110111 ?
1b
b00000000000000000000000010110000 n
b00000000000000000000000010110100 o
b00000000000000000000000010111000 ~
#90
0b
#91
b00000000000000000000000010111000 5
b00000000000000000000000010111100 6
b00000000000000000000000010110100 7
b00000000000000000000000010111000 8
b0010111000 <
b0010111001 =
b0010111010 >
b0010111011 ?
1b
b00000000000000000000000010110100 n
b00000000000000000000000010111000 o
b00000000000000000000000010111100 ~
#92
0b
