riscv-mini-five-stage/vcd/Tile.vcd
$version Generated by VerilatedVcd $end
$date Tue Jul  9 16:59:12 2019
 $end
$timescale   1ns $end

 $scope module TOP $end
  $var wire  1 3 clock $end
  $var wire  1 : io_IF_ID_Flush $end
  $var wire  1 9 io_IF_ID_Write $end
  $var wire  2 8 io_PC_Sel [1:0] $end
  $var wire  1 5 io_PC_Write $end
  $var wire 32 ? io_id_inst [31:0] $end
  $var wire 32 ; io_id_pc [31:0] $end
  $var wire 32 < io_id_pc_4 [31:0] $end
  $var wire  5 = io_id_rs1 [4:0] $end
  $var wire  5 > io_id_rs2 [4:0] $end
  $var wire 32 7 io_new_addr [31:0] $end
  $var wire 32 6 io_pc_recover [31:0] $end
  $var wire  1 4 reset $end
  $scope module Tile $end
   $var wire  1 3 clock $end
   $var wire  2 8 datapath_io_if_io_PC_Sel [1:0] $end
   $var wire 32 7 datapath_io_if_io_new_addr [31:0] $end
   $var wire 32 @ datapath_io_if_io_next_pc [31:0] $end
   $var wire 32 ) datapath_io_if_io_pc_4 [31:0] $end
   $var wire 32 ( datapath_io_if_io_pc_out [31:0] $end
   $var wire 32 6 datapath_io_if_io_pc_recover [31:0] $end
   $var wire  1 3 if_id_register_clock $end
   $var wire  1 : if_id_register_io_IF_ID_Flush $end
   $var wire  1 9 if_id_register_io_IF_ID_Write $end
   $var wire 32 . if_id_register_io_id_inst [31:0] $end
   $var wire 32 * if_id_register_io_id_pc [31:0] $end
   $var wire 32 + if_id_register_io_id_pc_4 [31:0] $end
   $var wire  5 , if_id_register_io_id_rs1 [4:0] $end
   $var wire  5 - if_id_register_io_id_rs2 [4:0] $end
   $var wire 32 # if_id_register_io_if_inst [31:0] $end
   $var wire 32 ( if_id_register_io_if_pc [31:0] $end
   $var wire 32 ) if_id_register_io_if_pc_4 [31:0] $end
   $var wire  1 4 if_id_register_reset $end
   $var wire  1 3 instcache_clock $end
   $var wire 32 ( instcache_io_addr [31:0] $end
   $var wire 32 # instcache_io_inst [31:0] $end
   $var wire  1 : io_IF_ID_Flush $end
   $var wire  1 9 io_IF_ID_Write $end
   $var wire  2 8 io_PC_Sel [1:0] $end
   $var wire  1 5 io_PC_Write $end
   $var wire 32 ? io_id_inst [31:0] $end
   $var wire 32 ; io_id_pc [31:0] $end
   $var wire 32 < io_id_pc_4 [31:0] $end
   $var wire  5 = io_id_rs1 [4:0] $end
   $var wire  5 > io_id_rs2 [4:0] $end
   $var wire 32 7 io_new_addr [31:0] $end
   $var wire 32 6 io_pc_recover [31:0] $end
   $var wire  1 3 pc_clock $end
   $var wire  1 5 pc_io_PC_Write $end
   $var wire 32 @ pc_io_next_pc [31:0] $end
   $var wire 32 ( pc_io_pc_out [31:0] $end
   $var wire  1 4 pc_reset $end
   $var wire  1 4 reset $end
   $scope module datapath $end
    $var wire  2 8 io_if_io_PC_Sel [1:0] $end
    $var wire 32 7 io_if_io_new_addr [31:0] $end
    $var wire 32 @ io_if_io_next_pc [31:0] $end
    $var wire 32 ) io_if_io_pc_4 [31:0] $end
    $var wire 32 ( io_if_io_pc_out [31:0] $end
    $var wire 32 6 io_if_io_pc_recover [31:0] $end
   $upscope $end
   $scope module if_id_register $end
    $var wire  1 3 clock $end
    $var wire 32 . inst [31:0] $end
    $var wire  1 : io_IF_ID_Flush $end
    $var wire  1 9 io_IF_ID_Write $end
    $var wire 32 . io_id_inst [31:0] $end
    $var wire 32 * io_id_pc [31:0] $end
    $var wire 32 + io_id_pc_4 [31:0] $end
    $var wire  5 , io_id_rs1 [4:0] $end
    $var wire  5 - io_id_rs2 [4:0] $end
    $var wire 32 # io_if_inst [31:0] $end
    $var wire 32 ( io_if_pc [31:0] $end
    $var wire 32 ) io_if_pc_4 [31:0] $end
    $var wire 32 * pc [31:0] $end
    $var wire 32 + pc_4 [31:0] $end
    $var wire  1 4 reset $end
   $upscope $end
   $scope module instcache $end
    $var wire 10 / cache__T_32_addr [9:0] $end
    $var wire  8 $ cache__T_32_data [7:0] $end
    $var wire 10 0 cache__T_34_addr [9:0] $end
    $var wire  8 % cache__T_34_data [7:0] $end
    $var wire 10 1 cache__T_36_addr [9:0] $end
    $var wire  8 & cache__T_36_data [7:0] $end
    $var wire 10 2 cache__T_38_addr [9:0] $end
    $var wire  8 ' cache__T_38_data [7:0] $end
    $var wire  1 3 clock $end
    $var wire 32 ( io_addr [31:0] $end
    $var wire 32 # io_inst [31:0] $end
    $scope module BindsTo_0_InstCache_Inst $end
     $var wire  1 3 clock $end
     $var wire 32 ( io_addr [31:0] $end
     $var wire 32 # io_inst [31:0] $end
    $upscope $end
   $upscope $end
   $scope module pc $end
    $var wire  1 3 clock $end
    $var wire  1 5 io_PC_Write $end
    $var wire 32 @ io_next_pc [31:0] $end
    $var wire 32 ( io_pc_out [31:0] $end
    $var wire 32 ( pc_reg [31:0] $end
    $var wire  1 4 reset $end
   $upscope $end
  $upscope $end
 $upscope $end
$enddefinitions $end


#0
b00000000000000000000000000010011 #
b00000000 $
b00000000 %
b00000000 &
b00010011 '
b00000000000000000000000000000000 (
b00000000000000000000000000000100 )
b00000000000000000000000000000000 *
b00000000000000000000000000000000 +
b00000 ,
b00000 -
b00000000000000000000000000000000 .
b0000000000 /
b0000000001 0
b0000000010 1
b0000000011 2
03
04
15
b00000000000000000000001111101000 6
b00000000000000000000011111010000 7
b00 8
19
0:
b00000000000000000000000000000000 ;
b00000000000000000000000000000000 <
b00000 =
b00000 >
b00000000000000000000000000000000 ?
b00000000000000000000000000000100 @
#1
b00000010000000000000000010010011 #
b00000010 $
b10010011 '
b00000000000000000000000000000100 (
b00000000000000000000000000001000 )
b00000000000000000000000000000100 +
b00000000000000000000000000010011 .
b0000000100 /
b0000000101 0
b0000000110 1
b0000000111 2
13
b00000000000000000000000000000100 <
b00000000000000000000000000010011 ?
b00000000000000000000000000001000 @
#2
03
#3
b00000000000100000000001110010011 #
b00000000 $
b00010000 %
b00000011 &
b00000000000000000000000000001000 (
b00000000000000000000000000001100 )
b00000000000000000000000000000100 *
b00000000000000000000000000001000 +
b00000010000000000000000010010011 .
b0000001000 /
b0000001001 0
b0000001010 1
b0000001011 2
13
b00000000000000000000000000000100 ;
b00000000000000000000000000001000 <
b00000010000000000000000010010011 ?
b00000000000000000000000000001100 @
#4
03
#5
b00000000000100000000010100010011 #
b00000101 &
b00010011 '
b00000000000000000000000000001100 (
b00000000000000000000000000010000 )
b0000001100 /
b0000001101 0
b0000001110 1
b0000001111 2
13
09
b00000000000000000000000000010000 @
#6
03
#7
b00000000101000001010001000100011 #
b10100000 %
b10100010 &
b00100011 '
b00000000000000000000000000010000 (
b00000000000000000000000000010100 )
b00000000000000000000000000001100 *
b00000000000000000000000000010000 +
b00001 -
b00000000000100000000010100010011 .
b0000010000 /
b0000010001 0
b0000010010 1
b0000010011 2
13
19
b00000000000000000000000000001100 ;
b00000000000000000000000000010000 <
b00001 >
b00000000000100000000010100010011 ?
b00000000000000000000000000010100 @
#8
03
#9
b00000000000101010000010100010011 #
b00010101 %
b00000101 &
b00010011 '
b00000000000000000000000000010100 (
b00000000000000000000000000011000 )
b00000000000000000000000000010000 *
b00000000000000000000000000010100 +
b00001 ,
b01010 -
b00000000101000001010001000100011 .
b0000010100 /
b0000010101 0
b0000010110 1
b0000010111 2
13
b00000000000000000000000000010000 ;
b00000000000000000000000000010100 <
b00001 =
b01010 >
b00000000101000001010001000100011 ?
b00000000000000000000000000011000 @
#10
03
#11
b00000000101000001010000000100011 #
b10100000 %
b10100000 &
b00100011 '
b00000000000000000000000000011000 (
b00000000000000000000000000011100 )
b00000000000000000000000000010100 *
b00000000000000000000000000011000 +
b01010 ,
b00001 -
b00000000000101010000010100010011 .
b0000011000 /
b0000011001 0
b0000011010 1
b0000011011 2
13
b00000000000000000000000000010100 ;
b00000000000000000000000000011000 <
b01010 =
b00001 >
b00000000000101010000010100010011 ?
b00000000000000000000000000011100 @
#12
03
#13
b00000000000101010000010100010011 #
b00010101 %
b00000101 &
b00010011 '
b00000000000000000000000000011100 (
b00000000000000000000000000100000 )
b00000000000000000000000000011000 *
b00000000000000000000000000011100 +
b00001 ,
b01010 -
b00000000101000001010000000100011 .
b0000011100 /
b0000011101 0
b0000011110 1
b0000011111 2
13
b00000000000000000000000000011000 ;
b00000000000000000000000000011100 <
b00001 =
b01010 >
b00000000101000001010000000100011 ?
b00000000000000000000000000100000 @
#14
03
#15
b00000000101000001010100000100011 #
b10100000 %
b10101000 &
b00100011 '
b00000000000000000000000000100000 (
b00000000000000000000000000100100 )
b00000000000000000000000000011100 *
b00000000000000000000000000100000 +
b01010 ,
b00001 -
b00000000000101010000010100010011 .
b0000100000 /
b0000100001 0
b0000100010 1
b0000100011 2
13
b00000000000000000000000000011100 ;
b00000000000000000000000000100000 <
b01010 =
b00001 >
b00000000000101010000010100010011 ?
b00000000000000000000000000100100 @
#16
03
#17
b00000000000101010000010100010011 #
b00010101 %
b00000101 &
b00010011 '
b00000000000000000000000000100100 (
b00000000000000000000000000101000 )
b00000000000000000000000000100000 *
b00000000000000000000000000100100 +
b00001 ,
b01010 -
b00000000101000001010100000100011 .
b0000100100 /
b0000100101 0
b0000100110 1
b0000100111 2
13
b00000000000000000000000000100000 ;
b00000000000000000000000000100100 <
b00001 =
b01010 >
b00000000101000001010100000100011 ?
b00000000000000000000000000101000 @
#18
03
#19
b00000000101000001010011000100011 #
b10100000 %
b10100110 &
b00100011 '
b00000000000000000000000000101000 (
b00000000000000000000000000101100 )
b00000000000000000000000000100100 *
b00000000000000000000000000101000 +
b01010 ,
b00001 -
b00000000000101010000010100010011 .
b0000101000 /
b0000101001 0
b0000101010 1
b0000101011 2
13
b00000000000000000000000000100100 ;
b00000000000000000000000000101000 <
b01010 =
b00001 >
b00000000000101010000010100010011 ?
b00000000000000000000000000101100 @
#20
03
#21
b00000000000101010000010100010011 #
b00010101 %
b00000101 &
b00010011 '
b00000000000000000000000000101100 (
b00000000000000000000000000110000 )
b00000000000000000000000000101000 *
b00000000000000000000000000101100 +
b00001 ,
b01010 -
b00000000101000001010011000100011 .
b0000101100 /
b0000101101 0
b0000101110 1
b0000101111 2
13
b00000000000000000000000000101000 ;
b00000000000000000000000000101100 <
b00001 =
b01010 >
b00000000101000001010011000100011 ?
b00000000000000000000000000110000 @
#22
03
#23
b00000000101000001010010000100011 #
b10100000 %
b10100100 &
b00100011 '
b00000000000000000000000000110000 (
b00000000000000000000000000110100 )
b00000000000000000000000000101100 *
b00000000000000000000000000110000 +
b01010 ,
b00001 -
b00000000000101010000010100010011 .
b0000110000 /
b0000110001 0
b0000110010 1
b0000110011 2
13
b00000000000000000000000000101100 ;
b00000000000000000000000000110000 <
b01010 =
b00001 >
b00000000000101010000010100010011 ?
b00000000000000000000000000110100 @
#24
03
#25
b00000000001100000000010100010011 #
b00110000 %
b00000101 &
b00010011 '
b00000000000000000000000000110100 (
b00000000000000000000000000111000 )
b00000000000000000000000000110000 *
b00000000000000000000000000110100 +
b00001 ,
b01010 -
b00000000101000001010010000100011 .
b0000110100 /
b0000110101 0
b0000110110 1
b0000110111 2
13
b00000000000000000000000000110000 ;
b00000000000000000000000000110100 <
b00001 =
b01010 >
b00000000101000001010010000100011 ?
b00000000000000000000000000111000 @
#26
03
#27
b00000000010100000000011000010011 #
b01010000 %
b00000110 &
b00000000000000000000000000111000 (
b00000000000000000000000000111100 )
b00000000000000000000000000110100 *
b00000000000000000000000000111000 +
b00000 ,
b00011 -
b00000000001100000000010100010011 .
b0000111000 /
b0000111001 0
b0000111010 1
b0000111011 2
13
b00000000000000000000000000110100 ;
b00000000000000000000000000111000 <
b00000 =
b00011 >
b00000000001100000000010100010011 ?
b00000000000000000000000000111100 @
#28
03
#29
b00000000000100000000000100010011 #
b00010000 %
b00000001 &
b00000000000000000000000000111100 (
b00000000000000000000000001000000 )
b00000000000000000000000000111000 *
b00000000000000000000000000111100 +
b00101 -
b00000000010100000000011000010011 .
b0000111100 /
b0000111101 0
b0000111110 1
b0000111111 2
13
b00000000000000000000000000111000 ;
b00000000000000000000000000111100 <
b00101 >
b00000000010100000000011000010011 ?
b00000000000000000000000001000000 @
#30
03
#31
b00000000001000000000000110110011 #
b00100000 %
b10110011 '
b00000000000000000000000001000000 (
b00000000000000000000000001000100 )
b00000000000000000000000000111100 *
b00000000000000000000000001000000 +
b00001 -
b00000000000100000000000100010011 .
b0001000000 /
b0001000001 0
b0001000010 1
b0001000011 2
13
b00000000000000000000000000111100 ;
b00000000000000000000000001000000 <
b00001 >
b00000000000100000000000100010011 ?
b00000000000000000000000001000100 @
#32
03
#33
b00000000000000000000010110010011 #
b00000000 %
b00000101 &
b10010011 '
b00000000000000000000000001000100 (
b00000000000000000000000001001000 )
b00000000000000000000000001000000 *
b00000000000000000000000001000100 +
b00010 -
b00000000001000000000000110110011 .
b0001000100 /
b0001000101 0
b0001000110 1
b0001000111 2
13
b00000000000000000000000001000000 ;
b00000000000000000000000001000100 <
b00010 >
b00000000001000000000000110110011 ?
b00000000000000000000000001001000 @
#34
03
#35
b00000000001100000000010000110011 #
b00110000 %
b00000100 &
b00110011 '
b00000000000000000000000001001000 (
b00000000000000000000000001001100 )
b00000000000000000000000001000100 *
b00000000000000000000000001001000 +
b00000 -
b00000000000000000000010110010011 .
b0001001000 /
b0001001001 0
b0001001010 1
b0001001011 2
13
b00000000000000000000000001000100 ;
b00000000000000000000000001001000 <
b00000 >
b00000000000000000000010110010011 ?
b00000000000000000000000001001100 @
#36
03
#37
b00000000001101000000010000110011 #
b00110100 %
b00000000000000000000000001001100 (
b00000000000000000000000001010000 )
b00000000000000000000000001001000 *
b00000000000000000000000001001100 +
b00011 -
b00000000001100000000010000110011 .
b0001001100 /
b0001001101 0
b0001001110 1
b0001001111 2
13
b00000000000000000000000001001000 ;
b00000000000000000000000001001100 <
b00011 >
b00000000001100000000010000110011 ?
b00000000000000000000000001010000 @
#38
03
#39
b00000000000101011000010110010011 #
b00010101 %
b10000101 &
b10010011 '
b00000000000000000000000001010000 (
b00000000000000000000000001010100 )
b00000000000000000000000001001100 *
b00000000000000000000000001010000 +
b01000 ,
b00000000001101000000010000110011 .
b0001010000 /
b0001010001 0
b0001010010 1
b0001010011 2
13
b00000000000000000000000001001100 ;
b00000000000000000000000001010000 <
b01000 =
b00000000001101000000010000110011 ?
b00000000000000000000000001010100 @
#40
03
#41
b11111110101001011100111011100011 #
b11111110 $
b10100101 %
b11001110 &
b11100011 '
b00000000000000000000000001010100 (
b00000000000000000000000001011000 )
b00000000000000000000000001010000 *
b00000000000000000000000001010100 +
b01011 ,
b00001 -
b00000000000101011000010110010011 .
b0001010100 /
b0001010101 0
b0001010110 1
b0001010111 2
13
b00000000000000000000000001010000 ;
b00000000000000000000000001010100 <
b01011 =
b00001 >
b00000000000101011000010110010011 ?
b00000000000000000000000001011000 @
#42
03
#43
b11111111110001000000010010010011 #
b11111111 $
b11000100 %
b00000100 &
b10010011 '
b00000000000000000000000001011000 (
b00000000000000000000000001011100 )
b00000000000000000000000001010100 *
b00000000000000000000000001011000 +
b01010 -
b11111110101001011100111011100011 .
b0001011000 /
b0001011001 0
b0001011010 1
b0001011011 2
13
b00000000000000000000000001010100 ;
b00000000000000000000000001011000 <
b01010 >
b11111110101001011100111011100011 ?
b00000000000000000000000001011100 @
#44
03
#45
b00000000000101000000010000110011 #
b00000000 $
b00010100 %
b00110011 '
b00000000000000000000000001011100 (
b00000000000000000000000001100000 )
b00000000000000000000000001011000 *
b00000000000000000000000001011100 +
b01000 ,
b11100 -
b11111111110001000000010010010011 .
b0001011100 /
b0001011101 0
b0001011110 1
b0001011111 2
13
b00000000000000000000000001011000 ;
b00000000000000000000000001011100 <
b01000 =
b11100 >
b11111111110001000000010010010011 ?
b00000000000000000000000001100000 @
#46
03
#47
b00000000000101001000010010110011 #
b10000100 &
b10110011 '
b00000000000000000000000001100000 (
b00000000000000000000000001100100 )
b00000000000000000000000001011100 *
b00000000000000000000000001100000 +
b00001 -
b00000000000101000000010000110011 .
b0001100000 /
b0001100001 0
b0001100010 1
b0001100011 2
13
b00000000000000000000000001011100 ;
b00000000000000000000000001100000 <
b00001 >
b00000000000101000000010000110011 ?
b00000000000000000000000001100100 @
#48
03
#49
b00000000000001000010001010000011 #
b00000100 %
b00100010 &
b10000011 '
b00000000000000000000000001100100 (
b00000000000000000000000001101000 )
b00000000000000000000000001100000 *
b00000000000000000000000001100100 +
b01001 ,
b00000000000101001000010010110011 .
b0001100100 /
b0001100101 0
b0001100110 1
b0001100111 2
13
b00000000000000000000000001100000 ;
b00000000000000000000000001100100 <
b01001 =
b00000000000101001000010010110011 ?
b00000000000000000000000001101000 @
#50
03
#51
b00000000000001001010001100000011 #
b10100011 &
b00000011 '
b00000000000000000000000001101000 (
b00000000000000000000000001101100 )
b00000000000000000000000001100100 *
b00000000000000000000000001101000 +
b01000 ,
b00000 -
b00000000000001000010001010000011 .
b0001101000 /
b0001101001 0
b0001101010 1
b0001101011 2
13
b00000000000000000000000001100100 ;
b00000000000000000000000001101000 <
b01000 =
b00000 >
b00000000000001000010001010000011 ?
b00000000000000000000000001101100 @
#52
03
#53
b00000000011000101101010001100011 #
b01100010 %
b11010100 &
b01100011 '
b00000000000000000000000001101100 (
b00000000000000000000000001110000 )
b00000000000000000000000001101000 *
b00000000000000000000000001101100 +
b01001 ,
b00000000000001001010001100000011 .
b0001101100 /
b0001101101 0
b0001101110 1
b0001101111 2
13
b00000000000000000000000001101000 ;
b00000000000000000000000001101100 <
b01001 =
b00000000000001001010001100000011 ?
b00000000000000000000000001110000 @
#54
03
#55
b00000000010100000000001000110011 #
b01010000 %
b00000010 &
b00110011 '
b00000000000000000000000001110000 (
b00000000000000000000000001110100 )
b00000000000000000000000001101100 *
b00000000000000000000000001110000 +
b00101 ,
b00110 -
b00000000011000101101010001100011 .
b0001110000 /
b0001110001 0
b0001110010 1
b0001110011 2
13
b00000000000000000000000001101100 ;
b00000000000000000000000001110000 <
b00101 =
b00110 >
b00000000011000101101010001100011 ?
b00000000000000000000000001110100 @
#56
03
#57
b00000000011000000000001010110011 #
b01100000 %
b10110011 '
b00000000000000000000000001110100 (
b00000000000000000000000001111000 )
b00000000000000000000000001110000 *
b00000000000000000000000001110100 +
b00000 ,
b00101 -
b00000000010100000000001000110011 .
b0001110100 /
b0001110101 0
b0001110110 1
b0001110111 2
13
b00000000000000000000000001110000 ;
b00000000000000000000000001110100 <
b00000 =
b00101 >
b00000000010100000000001000110011 ?
b00000000000000000000000001111000 @
#58
03
#59
b00000000010000000000001100110011 #
b01000000 %
b00000011 &
b00110011 '
b00000000000000000000000001111000 (
b00000000000000000000000001111100 )
b00000000000000000000000001110100 *
b00000000000000000000000001111000 +
b00110 -
b00000000011000000000001010110011 .
b0001111000 /
b0001111001 0
b0001111010 1
b0001111011 2
13
b00000000000000000000000001110100 ;
b00000000000000000000000001111000 <
b00110 >
b00000000011000000000001010110011 ?
b00000000000000000000000001111100 @
#60
03
#61
b00000000010101000010000000100011 #
b01010100 %
b00100000 &
b00100011 '
b00000000000000000000000001111100 (
b00000000000000000000000010000000 )
b00000000000000000000000001111000 *
b00000000000000000000000001111100 +
b00100 -
b00000000010000000000001100110011 .
b0001111100 /
b0001111101 0
b0001111110 1
b0001111111 2
13
b00000000000000000000000001111000 ;
b00000000000000000000000001111100 <
b00100 >
b00000000010000000000001100110011 ?
b00000000000000000000000010000000 @
#62
03
#63
b00000000011001001010000000100011 #
b01100100 %
b10100000 &
b00000000000000000000000010000000 (
b00000000000000000000000010000100 )
b00000000000000000000000001111100 *
b00000000000000000000000010000000 +
b01000 ,
b00101 -
b00000000010101000010000000100011 .
b0010000000 /
b0010000001 0
b0010000010 1
b0010000011 2
13
b00000000000000000000000001111100 ;
b00000000000000000000000010000000 <
b01000 =
b00101 >
b00000000010101000010000000100011 ?
b00000000000000000000000010000100 @
#64
03
#65
b11111111111100011000000110010011 #
b11111111 $
b11110001 %
b10000001 &
b10010011 '
b00000000000000000000000010000100 (
b00000000000000000000000010001000 )
b00000000000000000000000010000000 *
b00000000000000000000000010000100 +
b01001 ,
b00110 -
b00000000011001001010000000100011 .
b0010000100 /
b0010000101 0
b0010000110 1
b0010000111 2
13
b00000000000000000000000010000000 ;
b00000000000000000000000010000100 <
b01001 =
b00110 >
b00000000011001001010000000100011 ?
b00000000000000000000000010001000 @
#66
03
#67
b11111100011100011101111111100011 #
b11111100 $
b01110001 %
b11011111 &
b11100011 '
b00000000000000000000000010001000 (
b00000000000000000000000010001100 )
b00000000000000000000000010000100 *
b00000000000000000000000010001000 +
b00011 ,
b11111 -
b11111111111100011000000110010011 .
b0010001000 /
b0010001001 0
b0010001010 1
b0010001011 2
13
b00000000000000000000000010000100 ;
b00000000000000000000000010001000 <
b00011 =
b11111 >
b11111111111100011000000110010011 ?
b00000000000000000000000010001100 @
#68
03
#69
b00000000000100010000000100010011 #
b00000000 $
b00010001 %
b00000001 &
b00010011 '
b00000000000000000000000010001100 (
b00000000000000000000000010010000 )
b00000000000000000000000010001000 *
b00000000000000000000000010001100 +
b00111 -
b11111100011100011101111111100011 .
b0010001100 /
b0010001101 0
b0010001110 1
b0010001111 2
13
b00000000000000000000000010001000 ;
b00000000000000000000000010001100 <
b00111 >
b11111100011100011101111111100011 ?
b00000000000000000000000010010000 @
#70
03
#71
b11111100110000010100110011100011 #
b11111100 $
b11000001 %
b01001100 &
b11100011 '
b00000000000000000000000010010000 (
b00000000000000000000000010010100 )
b00000000000000000000000010001100 *
b00000000000000000000000010010000 +
b00010 ,
b00001 -
b00000000000100010000000100010011 .
b0010010000 /
b0010010001 0
b0010010010 1
b0010010011 2
13
b00000000000000000000000010001100 ;
b00000000000000000000000010010000 <
b00010 =
b00001 >
b00000000000100010000000100010011 ?
b00000000000000000000000010010100 @
#72
03
#73
b00000000000000000000000000010011 #
b00000000 $
b00000000 %
b00000000 &
b00010011 '
b00000000000000000000000010010100 (
b00000000000000000000000010011000 )
b00000000000000000000000010010000 *
b00000000000000000000000010010100 +
b01100 -
b11111100110000010100110011100011 .
b0010010100 /
b0010010101 0
b0010010110 1
b0010010111 2
13
b00000000000000000000000010010000 ;
b00000000000000000000000010010100 <
b01100 >
b11111100110000010100110011100011 ?
b00000000000000000000000010011000 @
#74
03
#75
b00000000000000000000000010011000 (
b00000000000000000000000010011100 )
b00000000000000000000000010010100 *
b00000000000000000000000010011000 +
b00000 ,
b00000 -
b00000000000000000000000000010011 .
b0010011000 /
b0010011001 0
b0010011010 1
b0010011011 2
13
b00000000000000000000000010010100 ;
b00000000000000000000000010011000 <
b00000 =
b00000 >
b00000000000000000000000000010011 ?
b00000000000000000000000010011100 @
#76
03
#77
b00000000000000000000000000000000 #
b00000000 '
b00000000000000000000000010011100 (
b00000000000000000000000010100000 )
b00000000000000000000000010011000 *
b00000000000000000000000010011100 +
b0010011100 /
b0010011101 0
b0010011110 1
b0010011111 2
13
b00000000000000000000000010011000 ;
b00000000000000000000000010011100 <
b00000000000000000000000010100000 @
#78
03
#79
b00000000000000000000000010100000 (
b00000000000000000000000010100100 )
b00000000000000000000000010011100 *
b00000000000000000000000010100000 +
b00000000000000000000000000000000 .
b0010100000 /
b0010100001 0
b0010100010 1
b0010100011 2
13
b00000000000000000000000010011100 ;
b00000000000000000000000010100000 <
b00000000000000000000000000000000 ?
b00000000000000000000000010100100 @
#80
03
#81
b00000000000000000000000010100100 (
b00000000000000000000000010101000 )
b00000000000000000000000010100000 *
b00000000000000000000000010100100 +
b0010100100 /
b0010100101 0
b0010100110 1
b0010100111 2
13
b00000000000000000000000010100000 ;
b00000000000000000000000010100100 <
b00000000000000000000000010101000 @
#82
03
#83
b00000000000000000000000010101000 (
b00000000000000000000000010101100 )
b00000000000000000000000010100100 *
b00000000000000000000000010101000 +
b0010101000 /
b0010101001 0
b0010101010 1
b0010101011 2
13
b00000000000000000000000010100100 ;
b00000000000000000000000010101000 <
b00000000000000000000000010101100 @
#84
03
#85
b00000000000000000000000010101100 (
b00000000000000000000000010110000 )
b00000000000000000000000010101000 *
b00000000000000000000000010101100 +
b0010101100 /
b0010101101 0
b0010101110 1
b0010101111 2
13
b00000000000000000000000010101000 ;
b00000000000000000000000010101100 <
b00000000000000000000000010110000 @
#86
03
#87
b00000000000000000000000010110000 (
b00000000000000000000000010110100 )
b00000000000000000000000010101100 *
b00000000000000000000000010110000 +
b0010110000 /
b0010110001 0
b0010110010 1
b0010110011 2
13
b00000000000000000000000010101100 ;
b00000000000000000000000010110000 <
b00000000000000000000000010110100 @
#88
03
#89
b00000000000000000000000010110100 (
b00000000000000000000000010111000 )
b00000000000000000000000010110000 *
b00000000000000000000000010110100 +
b0010110100 /
b0010110101 0
b0010110110 1
b0010110111 2
13
b00000000000000000000000010110000 ;
b00000000000000000000000010110100 <
b00000000000000000000000010111000 @
#90
03
#91
b00000000000000000000000010111000 (
b00000000000000000000000010111100 )
b00000000000000000000000010110100 *
b00000000000000000000000010111000 +
b0010111000 /
b0010111001 0
b0010111010 1
b0010111011 2
13
b00000000000000000000000010110100 ;
b00000000000000000000000010111000 <
b00000000000000000000000010111100 @
#92
03
#93
b00000000000000000000000010111100 (
b00000000000000000000000011000000 )
b00000000000000000000000010111000 *
b00000000000000000000000010111100 +
b0010111100 /
b0010111101 0
b0010111110 1
b0010111111 2
13
b00000000000000000000000010111000 ;
b00000000000000000000000010111100 <
b00000000000000000000000011000000 @
#94
03
#95
b00000000000000000000000011000000 (
b00000000000000000000000011000100 )
b00000000000000000000000010111100 *
b00000000000000000000000011000000 +
b0011000000 /
b0011000001 0
b0011000010 1
b0011000011 2
13
b00000000000000000000000010111100 ;
b00000000000000000000000011000000 <
b00000000000000000000000011000100 @
#96
03
#97
b00000000000000000000000011000100 (
b00000000000000000000000011001000 )
b00000000000000000000000011000000 *
b00000000000000000000000011000100 +
b0011000100 /
b0011000101 0
b0011000110 1
b0011000111 2
13
b00000000000000000000000011000000 ;
b00000000000000000000000011000100 <
b00000000000000000000000011001000 @
#98
03
#99
b00000000000000000000000011001000 (
b00000000000000000000000011001100 )
b00000000000000000000000011000100 *
b00000000000000000000000011001000 +
b0011001000 /
b0011001001 0
b0011001010 1
b0011001011 2
13
b00000000000000000000000011000100 ;
b00000000000000000000000011001000 <
b00000000000000000000000011001100 @
#100
03
#101
b00000000000000000000000011001100 (
b00000000000000000000000011010000 )
b00000000000000000000000011001000 *
b00000000000000000000000011001100 +
b0011001100 /
b0011001101 0
b0011001110 1
b0011001111 2
13
b00000000000000000000000011001000 ;
b00000000000000000000000011001100 <
b00000000000000000000000011010000 @
#102
03
#103
b00000000000000000000000011010000 (
b00000000000000000000000011010100 )
b00000000000000000000000011001100 *
b00000000000000000000000011010000 +
b0011010000 /
b0011010001 0
b0011010010 1
b0011010011 2
13
b00000000000000000000000011001100 ;
b00000000000000000000000011010000 <
b00000000000000000000000011010100 @
#104
03
#105
b00000000000000000000000011010100 (
b00000000000000000000000011011000 )
b00000000000000000000000011010000 *
b00000000000000000000000011010100 +
b0011010100 /
b0011010101 0
b0011010110 1
b0011010111 2
13
b00000000000000000000000011010000 ;
b00000000000000000000000011010100 <
b00000000000000000000000011011000 @
#106
03
#107
b00000000000000000000000011011000 (
b00000000000000000000000011011100 )
b00000000000000000000000011010100 *
b00000000000000000000000011011000 +
b0011011000 /
b0011011001 0
b0011011010 1
b0011011011 2
13
b00000000000000000000000011010100 ;
b00000000000000000000000011011000 <
b00000000000000000000000011011100 @
#108
03
#109
b00000000000000000000000011011100 (
b00000000000000000000000011100000 )
b00000000000000000000000011011000 *
b00000000000000000000000011011100 +
b0011011100 /
b0011011101 0
b0011011110 1
b0011011111 2
13
b00000000000000000000000011011000 ;
b00000000000000000000000011011100 <
b00000000000000000000000011100000 @
#110
03
#111
b00000000000000000000000011100000 (
b00000000000000000000000011100100 )
b00000000000000000000000011011100 *
b00000000000000000000000011100000 +
b0011100000 /
b0011100001 0
b0011100010 1
b0011100011 2
13
b00000000000000000000000011011100 ;
b00000000000000000000000011100000 <
b00000000000000000000000011100100 @
#112
03
#113
b00000000000000000000000011100100 (
b00000000000000000000000011101000 )
b00000000000000000000000011100000 *
b00000000000000000000000011100100 +
b0011100100 /
b0011100101 0
b0011100110 1
b0011100111 2
13
b00000000000000000000000011100000 ;
b00000000000000000000000011100100 <
b00000000000000000000000011101000 @
#114
03
#115
b00000000000000000000000011101000 (
b00000000000000000000000011101100 )
b00000000000000000000000011100100 *
b00000000000000000000000011101000 +
b0011101000 /
b0011101001 0
b0011101010 1
b0011101011 2
13
b00000000000000000000000011100100 ;
b00000000000000000000000011101000 <
b00000000000000000000000011101100 @
#116
03
#117
b00000000000000000000000011101100 (
b00000000000000000000000011110000 )
b00000000000000000000000011101000 *
b00000000000000000000000011101100 +
b0011101100 /
b0011101101 0
b0011101110 1
b0011101111 2
13
b00000000000000000000000011101000 ;
b00000000000000000000000011101100 <
b00000000000000000000000011110000 @
#118
03
#119
b00000000000000000000000011110000 (
b00000000000000000000000011110100 )
b00000000000000000000000011101100 *
b00000000000000000000000011110000 +
b0011110000 /
b0011110001 0
b0011110010 1
b0011110011 2
13
b00000000000000000000000011101100 ;
b00000000000000000000000011110000 <
b00000000000000000000000011110100 @
#120
03
#121
b00000000000000000000000011110100 (
b00000000000000000000000011111000 )
b00000000000000000000000011110000 *
b00000000000000000000000011110100 +
b0011110100 /
b0011110101 0
b0011110110 1
b0011110111 2
13
b00000000000000000000000011110000 ;
b00000000000000000000000011110100 <
b00000000000000000000000011111000 @
#122
03
