pipe/InstCache.vcd
$version Generated by VerilatedVcd $end
$date Thu Jul 25 17:42:38 2019
 $end
$timescale   1ns $end

 $scope module TOP $end
  $var wire  1 # clock $end
  $var wire 32 % io_addr [31:0] $end
  $var wire 32 & io_inst [31:0] $end
  $var wire  1 $ reset $end
  $scope module InstCache $end
   $var wire 10 , cache__T_11_addr [9:0] $end
   $var wire  8 + cache__T_11_data [7:0] $end
   $var wire 10 . cache__T_13_addr [9:0] $end
   $var wire  8 - cache__T_13_data [7:0] $end
   $var wire 10 ( cache__T_7_addr [9:0] $end
   $var wire  8 ' cache__T_7_data [7:0] $end
   $var wire 10 * cache__T_9_addr [9:0] $end
   $var wire  8 ) cache__T_9_data [7:0] $end
   $var wire  1 # clock $end
   $var wire 32 % io_addr [31:0] $end
   $var wire 32 & io_inst [31:0] $end
   $var wire  1 $ reset $end
   $scope module BindsTo_0_InstCache_Inst $end
    $var wire  1 # clock $end
    $var wire 32 % io_addr [31:0] $end
    $var wire 32 & io_inst [31:0] $end
   $upscope $end
  $upscope $end
 $upscope $end
$enddefinitions $end


#0
0#
0$
b00000000000000000000000000000000 %
b00000000000000000000000000010011 &
b00000000 '
b0000000000 (
b00000000 )
b0000000001 *
b00000000 +
b0000000010 ,
b00010011 -
b0000000011 .
#1
1#
#2
0#
b00000000000000000000000000000100 %
b00000010000000000000000010010011 &
b00000010 '
b0000000100 (
b0000000101 *
b0000000110 ,
b10010011 -
b0000000111 .
#3
1#
#4
0#
b00000000000000000000000000001000 %
b00000000000100000000001110010011 &
b00000000 '
b0000001000 (
b00010000 )
b0000001001 *
b00000011 +
b0000001010 ,
b0000001011 .
#5
1#
#6
0#
b00000000000000000000000000001100 %
b00000000000100000000010100010011 &
b0000001100 (
b0000001101 *
b00000101 +
b0000001110 ,
b00010011 -
b0000001111 .
#7
1#
#8
0#
b00000000000000000000000000010000 %
b00000000101000001010001000100011 &
b0000010000 (
b10100000 )
b0000010001 *
b10100010 +
b0000010010 ,
b00100011 -
b0000010011 .
#9
1#
#10
0#
b00000000000000000000000000010100 %
b00000000000101010000010100010011 &
b0000010100 (
b00010101 )
b0000010101 *
b00000101 +
b0000010110 ,
b00010011 -
b0000010111 .
#11
1#
#12
0#
b00000000000000000000000000011000 %
b00000000101000001010000000100011 &
b0000011000 (
b10100000 )
b0000011001 *
b10100000 +
b0000011010 ,
b00100011 -
b0000011011 .
#13
1#
#14
0#
b00000000000000000000000000011100 %
b00000000000101010000010100010011 &
b0000011100 (
b00010101 )
b0000011101 *
b00000101 +
b0000011110 ,
b00010011 -
b0000011111 .
#15
1#
#16
0#
b00000000000000000000000000100000 %
b00000000101000001010100000100011 &
b0000100000 (
b10100000 )
b0000100001 *
b10101000 +
b0000100010 ,
b00100011 -
b0000100011 .
#17
1#
#18
0#
b00000000000000000000000000100100 %
b00000000000101010000010100010011 &
b0000100100 (
b00010101 )
b0000100101 *
b00000101 +
b0000100110 ,
b00010011 -
b0000100111 .
#19
1#
#20
0#
b00000000000000000000000000101000 %
b00000000101000001010011000100011 &
b0000101000 (
b10100000 )
b0000101001 *
b10100110 +
b0000101010 ,
b00100011 -
b0000101011 .
#21
1#
#22
0#
b00000000000000000000000000101100 %
b00000000000101010000010100010011 &
b0000101100 (
b00010101 )
b0000101101 *
b00000101 +
b0000101110 ,
b00010011 -
b0000101111 .
#23
1#
#24
0#
b00000000000000000000000000110000 %
b00000000101000001010010000100011 &
b0000110000 (
b10100000 )
b0000110001 *
b10100100 +
b0000110010 ,
b00100011 -
b0000110011 .
#25
1#
#26
0#
b00000000000000000000000000110100 %
b00000000001100000000010100010011 &
b0000110100 (
b00110000 )
b0000110101 *
b00000101 +
b0000110110 ,
b00010011 -
b0000110111 .
#27
1#
#28
0#
b00000000000000000000000000111000 %
b00000000010100000000011000010011 &
b0000111000 (
b01010000 )
b0000111001 *
b00000110 +
b0000111010 ,
b0000111011 .
#29
1#
#30
0#
b00000000000000000000000000111100 %
b00000000000100000000000100010011 &
b0000111100 (
b00010000 )
b0000111101 *
b00000001 +
b0000111110 ,
b0000111111 .
